%!PS-Adobe-3.0 EPSF-3.0
%%Creator: MATLAB, The Mathworks, Inc. Version 7.10.0.499 (R2010a). Operating System: Microsoft Windows Server 2008 R2.
%%Title: D:\work\gems\paper\figures\learning-curve-3.eps
%%CreationDate: 05/08/2011  12:37:19
%%DocumentNeededFonts: Helvetica
%%+ Times-Roman
%%DocumentProcessColors: Cyan Magenta Yellow Black
%%LanguageLevel: 2
%%Pages: 1
%%BoundingBox:    48   262   562   530
%%EndComments

%%BeginProlog
% MathWorks dictionary
/MathWorks 160 dict begin
% definition operators
/bdef {bind def} bind def
/ldef {load def} bind def
/xdef {exch def} bdef
/xstore {exch store} bdef
% operator abbreviations
/c  /clip ldef
/cc /concat ldef
/cp /closepath ldef
/gr /grestore ldef
/gs /gsave ldef
/mt /moveto ldef
/np /newpath ldef
/cm /currentmatrix ldef
/sm /setmatrix ldef
/rm /rmoveto ldef
/rl /rlineto ldef
/s {show newpath} bdef
/sc {setcmykcolor} bdef
/sr /setrgbcolor ldef
/sg /setgray ldef
/w /setlinewidth ldef
/j /setlinejoin ldef
/cap /setlinecap ldef
/rc {rectclip} bdef
/rf {rectfill} bdef
% page state control
/pgsv () def
/bpage {/pgsv save def} bdef
/epage {pgsv restore} bdef
/bplot /gsave ldef
/eplot {stroke grestore} bdef
% orientation switch
/portraitMode 0 def /landscapeMode 1 def /rotateMode 2 def
% coordinate system mappings
/dpi2point 0 def
% font control
/FontSize 0 def
/FMS {/FontSize xstore findfont [FontSize 0 0 FontSize neg 0 0]
  makefont setfont} bdef
/ISOLatin1Encoding where {pop /WindowsLatin1Encoding 256 array bdef
ISOLatin1Encoding WindowsLatin1Encoding copy pop
/.notdef/.notdef/quotesinglbase/florin/quotedblbase/ellipsis/dagger
/daggerdbl/circumflex/perthousand/Scaron/guilsinglleft/OE/.notdef/.notdef
/.notdef/.notdef/quoteleft/quoteright/quotedblleft/quotedblright/bullet
/endash/emdash/tilde/trademark/scaron/guilsinglright/oe/.notdef/.notdef
/Ydieresis WindowsLatin1Encoding 128 32 getinterval astore pop}
{/WindowsLatin1Encoding StandardEncoding bdef} ifelse
/reencode {exch dup where {pop load} {pop StandardEncoding} ifelse
  exch dup 3 1 roll findfont dup length dict begin
  { 1 index /FID ne {def}{pop pop} ifelse } forall
  /Encoding exch def currentdict end definefont pop} bdef
/isroman {findfont /CharStrings get /Agrave known} bdef
/FMSR {3 1 roll 1 index dup isroman {reencode} {pop pop} ifelse
  exch FMS} bdef
/csm {1 dpi2point div -1 dpi2point div scale neg translate
 dup landscapeMode eq {pop -90 rotate}
  {rotateMode eq {90 rotate} if} ifelse} bdef
% line types: solid, dotted, dashed, dotdash
/SO { [] 0 setdash } bdef
/DO { [.5 dpi2point mul 4 dpi2point mul] 0 setdash } bdef
/DA { [6 dpi2point mul] 0 setdash } bdef
/DD { [.5 dpi2point mul 4 dpi2point mul 6 dpi2point mul 4
  dpi2point mul] 0 setdash } bdef
% macros for lines and objects
/L {lineto stroke} bdef
/MP {3 1 roll moveto 1 sub {rlineto} repeat} bdef
/AP {{rlineto} repeat} bdef
/PDlw -1 def
/W {/PDlw currentlinewidth def setlinewidth} def
/PP {closepath eofill} bdef
/DP {closepath stroke} bdef
/MR {4 -2 roll moveto dup  0 exch rlineto exch 0 rlineto
  neg 0 exch rlineto closepath} bdef
/FR {MR stroke} bdef
/PR {MR fill} bdef
/L1i {{currentfile picstr readhexstring pop} image} bdef
/tMatrix matrix def
/MakeOval {newpath tMatrix currentmatrix pop translate scale
0 0 1 0 360 arc tMatrix setmatrix} bdef
/FO {MakeOval stroke} bdef
/PO {MakeOval fill} bdef
/PD {currentlinewidth 2 div 0 360 arc fill
   PDlw -1 eq not {PDlw w /PDlw -1 def} if} def
/FA {newpath tMatrix currentmatrix pop translate scale
  0 0 1 5 -2 roll arc tMatrix setmatrix stroke} bdef
/PA {newpath tMatrix currentmatrix pop	translate 0 0 moveto scale
  0 0 1 5 -2 roll arc closepath tMatrix setmatrix fill} bdef
/FAn {newpath tMatrix currentmatrix pop translate scale
  0 0 1 5 -2 roll arcn tMatrix setmatrix stroke} bdef
/PAn {newpath tMatrix currentmatrix pop translate 0 0 moveto scale
  0 0 1 5 -2 roll arcn closepath tMatrix setmatrix fill} bdef
/vradius 0 def /hradius 0 def /lry 0 def
/lrx 0 def /uly 0 def /ulx 0 def /rad 0 def
/MRR {/vradius xdef /hradius xdef /lry xdef /lrx xdef /uly xdef
  /ulx xdef newpath tMatrix currentmatrix pop ulx hradius add uly
  vradius add translate hradius vradius scale 0 0 1 180 270 arc 
  tMatrix setmatrix lrx hradius sub uly vradius add translate
  hradius vradius scale 0 0 1 270 360 arc tMatrix setmatrix
  lrx hradius sub lry vradius sub translate hradius vradius scale
  0 0 1 0 90 arc tMatrix setmatrix ulx hradius add lry vradius sub
  translate hradius vradius scale 0 0 1 90 180 arc tMatrix setmatrix
  closepath} bdef
/FRR {MRR stroke } bdef
/PRR {MRR fill } bdef
/MlrRR {/lry xdef /lrx xdef /uly xdef /ulx xdef /rad lry uly sub 2 div def
  newpath tMatrix currentmatrix pop ulx rad add uly rad add translate
  rad rad scale 0 0 1 90 270 arc tMatrix setmatrix lrx rad sub lry rad
  sub translate rad rad scale 0 0 1 270 90 arc tMatrix setmatrix
  closepath} bdef
/FlrRR {MlrRR stroke } bdef
/PlrRR {MlrRR fill } bdef
/MtbRR {/lry xdef /lrx xdef /uly xdef /ulx xdef /rad lrx ulx sub 2 div def
  newpath tMatrix currentmatrix pop ulx rad add uly rad add translate
  rad rad scale 0 0 1 180 360 arc tMatrix setmatrix lrx rad sub lry rad
  sub translate rad rad scale 0 0 1 0 180 arc tMatrix setmatrix
  closepath} bdef
/FtbRR {MtbRR stroke } bdef
/PtbRR {MtbRR fill } bdef
/stri 6 array def /dtri 6 array def
/smat 6 array def /dmat 6 array def
/tmat1 6 array def /tmat2 6 array def /dif 3 array def
/asub {/ind2 exch def /ind1 exch def dup dup
  ind1 get exch ind2 get sub exch } bdef
/tri_to_matrix {
  2 0 asub 3 1 asub 4 0 asub 5 1 asub
  dup 0 get exch 1 get 7 -1 roll astore } bdef
/compute_transform {
  dmat dtri tri_to_matrix tmat1 invertmatrix 
  smat stri tri_to_matrix tmat2 concatmatrix } bdef
/ds {stri astore pop} bdef
/dt {dtri astore pop} bdef
/db {2 copy /cols xdef /rows xdef mul dup 3 mul string
  currentfile 
  3 index 0 eq {/ASCIIHexDecode filter}
  {/ASCII85Decode filter 3 index 2 eq {/RunLengthDecode filter} if }
  ifelse exch readstring pop
  dup 0 3 index getinterval /rbmap xdef
  dup 2 index dup getinterval /gbmap xdef
  1 index dup 2 mul exch getinterval /bbmap xdef pop pop}bdef
/it {gs np dtri aload pop moveto lineto lineto cp c
  cols rows 8 compute_transform 
  rbmap gbmap bbmap true 3 colorimage gr}bdef
/il {newpath moveto lineto stroke}bdef
currentdict end def
%%EndProlog

%%BeginSetup
MathWorks begin

0 cap

end
%%EndSetup

%%Page: 1 1
%%BeginPageSetup
%%PageBoundingBox:    48   262   562   530
MathWorks begin
bpage
%%EndPageSetup

%%BeginObject: obj1
bplot

/dpi2point 12 def
portraitMode 0576 6360 csm

    0     0  6175  3210 rc
88 dict begin %Colortable dictionary
/c0 { 0.000000 0.000000 0.000000 sr} bdef
/c1 { 1.000000 1.000000 1.000000 sr} bdef
/c2 { 0.900000 0.000000 0.000000 sr} bdef
/c3 { 0.000000 0.820000 0.000000 sr} bdef
/c4 { 0.000000 0.000000 0.800000 sr} bdef
/c5 { 0.910000 0.820000 0.320000 sr} bdef
/c6 { 1.000000 0.260000 0.820000 sr} bdef
/c7 { 0.000000 0.820000 0.820000 sr} bdef
c0
1 j
1 sg
   0    0 6176 3211 rf
6 w
0 2600 4784 0 0 -2600 803 2841 4 MP
PP
-4784 0 0 2600 4784 0 0 -2600 803 2841 5 MP stroke
4 w
DO
0 sg
 803 2841 mt  803  241 L
 803  241 mt  803  241 L
1910 2841 mt 1910  241 L
1910  241 mt 1910  241 L
3017 2841 mt 3017  241 L
3017  241 mt 3017  241 L
4124 2841 mt 4124  241 L
4124  241 mt 4124  241 L
5231 2841 mt 5231  241 L
5231  241 mt 5231  241 L
5564 2841 mt 5564  241 L
5564  241 mt 5564  241 L
 803 2841 mt 5588 2841 L
5588 2841 mt 5588 2841 L
 803 2516 mt 5588 2516 L
5588 2516 mt 5588 2516 L
 803 2191 mt 5588 2191 L
5588 2191 mt 5588 2191 L
 803 1866 mt 5588 1866 L
5588 1866 mt 5588 1866 L
 803 1541 mt 5588 1541 L
5588 1541 mt 5588 1541 L
 803 1216 mt 5588 1216 L
5588 1216 mt 5588 1216 L
 803  890 mt 5588  890 L
5588  890 mt 5588  890 L
 803  566 mt 5588  566 L
5588  566 mt 5588  566 L
 803  241 mt 5588  241 L
5588  241 mt 5588  241 L
SO
6 w
 803 2841 mt 5587 2841 L
 803 2841 mt  803  241 L
 803 2841 mt  803 2817 L
DO
 803 2841 mt  803  241 L
 803  241 mt  803  241 L
SO
 803 2841 mt  803 2793 L
%%IncludeResource: font Times-Roman
/Times-Roman /WindowsLatin1Encoding 144 FMSR

 713 3004 mt 
(0.1) s
1136 2841 mt 1136 2817 L
DO
1136 2841 mt 1136  241 L
1136  241 mt 1136  241 L
SO
1331 2841 mt 1331 2817 L
DO
1331 2841 mt 1331  241 L
1331  241 mt 1331  241 L
SO
1469 2841 mt 1469 2817 L
DO
1469 2841 mt 1469  241 L
1469  241 mt 1469  241 L
SO
1576 2841 mt 1576 2817 L
DO
1576 2841 mt 1576  241 L
1576  241 mt 1576  241 L
SO
1664 2841 mt 1664 2817 L
DO
1664 2841 mt 1664  241 L
1664  241 mt 1664  241 L
SO
1738 2841 mt 1738 2817 L
DO
1738 2841 mt 1738  241 L
1738  241 mt 1738  241 L
SO
1802 2841 mt 1802 2817 L
DO
1802 2841 mt 1802  241 L
1802  241 mt 1802  241 L
SO
1859 2841 mt 1859 2817 L
DO
1859 2841 mt 1859  241 L
1859  241 mt 1859  241 L
SO
1910 2841 mt 1910 2817 L
DO
1910 2841 mt 1910  241 L
1910  241 mt 1910  241 L
SO
1910 2841 mt 1910 2793 L
1874 3004 mt 
(1) s
2243 2841 mt 2243 2817 L
DO
2243 2841 mt 2243  241 L
2243  241 mt 2243  241 L
SO
2438 2841 mt 2438 2817 L
DO
2438 2841 mt 2438  241 L
2438  241 mt 2438  241 L
SO
2576 2841 mt 2576 2817 L
DO
2576 2841 mt 2576  241 L
2576  241 mt 2576  241 L
SO
2683 2841 mt 2683 2817 L
DO
2683 2841 mt 2683  241 L
2683  241 mt 2683  241 L
SO
2771 2841 mt 2771 2817 L
DO
2771 2841 mt 2771  241 L
2771  241 mt 2771  241 L
SO
2845 2841 mt 2845 2817 L
DO
2845 2841 mt 2845  241 L
2845  241 mt 2845  241 L
SO
2909 2841 mt 2909 2817 L
DO
2909 2841 mt 2909  241 L
2909  241 mt 2909  241 L
SO
2966 2841 mt 2966 2817 L
DO
2966 2841 mt 2966  241 L
2966  241 mt 2966  241 L
SO
3017 2841 mt 3017 2817 L
DO
3017 2841 mt 3017  241 L
3017  241 mt 3017  241 L
SO
3017 2841 mt 3017 2793 L
2945 3004 mt 
(10) s
3350 2841 mt 3350 2817 L
DO
3350 2841 mt 3350  241 L
3350  241 mt 3350  241 L
SO
3545 2841 mt 3545 2817 L
DO
3545 2841 mt 3545  241 L
3545  241 mt 3545  241 L
SO
3683 2841 mt 3683 2817 L
DO
3683 2841 mt 3683  241 L
3683  241 mt 3683  241 L
SO
3790 2841 mt 3790 2817 L
DO
3790 2841 mt 3790  241 L
3790  241 mt 3790  241 L
SO
3878 2841 mt 3878 2817 L
DO
3878 2841 mt 3878  241 L
3878  241 mt 3878  241 L
SO
3952 2841 mt 3952 2817 L
DO
3952 2841 mt 3952  241 L
3952  241 mt 3952  241 L
SO
4016 2841 mt 4016 2817 L
DO
4016 2841 mt 4016  241 L
4016  241 mt 4016  241 L
SO
4073 2841 mt 4073 2817 L
DO
4073 2841 mt 4073  241 L
4073  241 mt 4073  241 L
SO
4124 2841 mt 4124 2817 L
DO
4124 2841 mt 4124  241 L
4124  241 mt 4124  241 L
SO
4124 2841 mt 4124 2793 L
4016 3004 mt 
(100) s
4457 2841 mt 4457 2817 L
DO
4457 2841 mt 4457  241 L
4457  241 mt 4457  241 L
SO
4652 2841 mt 4652 2817 L
DO
4652 2841 mt 4652  241 L
4652  241 mt 4652  241 L
SO
4790 2841 mt 4790 2817 L
DO
4790 2841 mt 4790  241 L
4790  241 mt 4790  241 L
SO
4898 2841 mt 4898 2817 L
DO
4898 2841 mt 4898  241 L
4898  241 mt 4898  241 L
SO
4985 2841 mt 4985 2817 L
DO
4985 2841 mt 4985  241 L
4985  241 mt 4985  241 L
SO
5059 2841 mt 5059 2817 L
DO
5059 2841 mt 5059  241 L
5059  241 mt 5059  241 L
SO
5123 2841 mt 5123 2817 L
DO
5123 2841 mt 5123  241 L
5123  241 mt 5123  241 L
SO
5180 2841 mt 5180 2817 L
DO
5180 2841 mt 5180  241 L
5180  241 mt 5180  241 L
SO
5231 2841 mt 5231 2817 L
DO
5231 2841 mt 5231  241 L
5231  241 mt 5231  241 L
SO
5231 2841 mt 5231 2793 L
5087 3004 mt 
(1000) s
5564 2841 mt 5564 2817 L
DO
5564 2841 mt 5564  241 L
5564  241 mt 5564  241 L
SO
5564 2841 mt 5564 2817 L
DO
5564 2841 mt 5564  241 L
5564  241 mt 5564  241 L
SO
5564 2841 mt 5564 2817 L
DO
5564 2841 mt 5564  241 L
5564  241 mt 5564  241 L
SO
5564 2841 mt 5564 2817 L
DO
5564 2841 mt 5564  241 L
5564  241 mt 5564  241 L
SO
5564 2841 mt 5564 2817 L
DO
5564 2841 mt 5564  241 L
5564  241 mt 5564  241 L
SO
5564 2841 mt 5564 2817 L
DO
5564 2841 mt 5564  241 L
5564  241 mt 5564  241 L
SO
5564 2841 mt 5564 2817 L
DO
5564 2841 mt 5564  241 L
5564  241 mt 5564  241 L
SO
5564 2841 mt 5564 2817 L
DO
5564 2841 mt 5564  241 L
5564  241 mt 5564  241 L
SO
5564 2841 mt 5564 2817 L
DO
5564 2841 mt 5564  241 L
5564  241 mt 5564  241 L
SO
5564 2841 mt 5564 2793 L
5420 3004 mt 
(2000) s
 803 2841 mt  850 2841 L
 696 2892 mt 
(0) s
 803 2516 mt  850 2516 L
 588 2567 mt 
(0.1) s
 803 2191 mt  850 2191 L
 588 2242 mt 
(0.2) s
 803 1866 mt  850 1866 L
 588 1917 mt 
(0.3) s
 803 1541 mt  850 1541 L
 588 1592 mt 
(0.4) s
 803 1216 mt  850 1216 L
 588 1267 mt 
(0.5) s
 803  890 mt  850  890 L
 588  941 mt 
(0.6) s
 803  566 mt  850  566 L
 588  617 mt 
(0.7) s
 803  241 mt  850  241 L
 588  292 mt 
(0.8) s
gs 803 241 4786 2601 rc
DA
18 w
334 28 333 -2 479 -77 108 22 138 -26 195 -87 333 -119 333 -238 
1107 -1121 1107 -735 803 2730 11 MP stroke
SO
138 -36 195 30 333 -20 295 -5 479 -59 108 -26 138 -28 195 -87 
333 -164 333 -224 1107 -1432 1107 -306 803 2671 13 MP stroke
gr

18 w
%%IncludeResource: font Helvetica
/Helvetica /WindowsLatin1Encoding 120 FMSR

 786 2884 mt 
( ) s
5572  283 mt 
( ) s
/c8 { 1.000000 1.000000 0.933333 sr} bdef
c8
-496 0 0 -316 496 0 5278 673 4 MP
PP
6 w
0 j
0.8 sg
5278  357  496  316 rectstroke
1 j
0 sg
%%IncludeResource: font Helvetica
/Helvetica /WindowsLatin1Encoding 96 FMSR

5326  494 mt 
(X: 1000) s
5326  604 mt 
(Y: 0.7755) s
24 w
gs 5085 174 293 293 rc
0 j
0 -94 -94 0 0 94 94 0 5184 273 5 MP
gs
PP
gr
/c9 { 1.000000 1.000000 0.862745 sr} bdef
c9
DP
gr

c9
0 sg
%%IncludeResource: font Times-Roman
/Times-Roman /WindowsLatin1Encoding 168 FMSR

2299 3172 mt 
(Corpus size, milion tokens) s
 442 2627 mt  -90 rotate
(F-measure \(Precision fixed at 0.8\)) s
90 rotate
6 w
1 sg
0 471 1316 0 0 -471 4158 2043 4 MP
PP
-1316 0 0 471 1316 0 0 -471 4158 2043 5 MP stroke
4 w
DO
SO
6 w
0 sg
4158 1572 mt 5474 1572 L
4158 2043 mt 5474 2043 L
5474 2043 mt 5474 1572 L
4158 2043 mt 4158 1572 L
4158 2043 mt 5474 2043 L
4158 2043 mt 4158 1572 L
4158 1572 mt 5474 1572 L
4158 2043 mt 5474 2043 L
5474 2043 mt 5474 1572 L
4158 2043 mt 4158 1572 L
4626 1758 mt 
(WaCypedia) s
gs 4158 1572 1317 472 rc
DA
18 w
360 0 4230 1700 2 MP stroke
SO
gr

18 w
4626 1972 mt 
(PukWaC) s
gs 4158 1572 1317 472 rc
360 0 4230 1914 2 MP stroke
6 w
gr

6 w

end %%Color Dict

eplot
%%EndObject

epage
end

showpage

%%Trailer
%%EOF
