\BOOKMARK [1][-]{section.1}{Introduction}{}
\BOOKMARK [1][-]{section.2}{Similarity Measures}{}
\BOOKMARK [1][-]{section.3}{Evaluation}{}
\BOOKMARK [1][-]{section.4}{Results}{}
\BOOKMARK [1][-]{section.5}{Related Work}{}
\BOOKMARK [1][-]{section.6}{Conclusion}{}
