\BOOKMARK [1][-]{section.1}{Introduction}{}% 1
\BOOKMARK [1][-]{section.2}{Methodology}{}% 2
\BOOKMARK [2][-]{subsection.2.1}{Similarity-based Relation Extraction}{section.2}% 3
\BOOKMARK [2][-]{subsection.2.2}{Similarity Measures}{section.2}% 4
\BOOKMARK [2][-]{subsection.2.3}{Combined Similarity Measures}{section.2}% 5
\BOOKMARK [1][-]{section.3}{Evaluation}{}% 6
\BOOKMARK [1][-]{section.4}{Results}{}% 7
\BOOKMARK [1][-]{section.5}{Related Work}{}% 8
\BOOKMARK [1][-]{section.6}{Conclusion and Future Work}{}% 9
