\relax 
\providecommand\HyperFirstAtBeginDocument{\AtBeginDocument}
\HyperFirstAtBeginDocument{\ifx\hyper@anchor\@undefined
\global\let\oldcontentsline\contentsline
\gdef\contentsline#1#2#3#4{\oldcontentsline{#1}{#2}{#3}}
\global\let\oldnewlabel\newlabel
\gdef\newlabel#1#2{\newlabelxx{#1}#2}
\gdef\newlabelxx#1#2#3#4#5#6{\oldnewlabel{#1}{{#2}{#3}}}
\AtEndDocument{\ifx\hyper@anchor\@undefined
\let\contentsline\oldcontentsline
\let\newlabel\oldnewlabel
\fi}
\fi}
\global\let\hyper@last\relax 
\gdef\HyperFirstAtBeginDocument#1{#1}
\providecommand\HyField@AuxAddToFields[1]{}
\catcode`:\active
\catcode`;\active
\catcode`!\active
\catcode`?\active
\citation{Patwardhan2003wsd}
\citation{hsu2006query}
\citation{tikk2003hierarchical}
\citation{Sun05usingsyntactic}
\citation{grefenstette1994explorations}
\select@language{french}
\@writefile{toc}{\select@language{french}}
\@writefile{lof}{\select@language{french}}
\@writefile{lot}{\select@language{french}}
\@writefile{toc}{\contentsline {section}{\numberline {1}Introduction}{1}{section.1}}
\citation{hearst1992}
\citation{snow2005learning}
\citation{resnik1995}
\citation{lin1998automatic}
\citation{cilibrasi2007google}
\citation{curran2002improvements}
\citation{panchenko2011comparison}
\citation{sahlgren2006}
\citation{peirsman2008putting}
\@writefile{toc}{\contentsline {section}{\numberline {2}Methodology}{2}{section.2}}
\@writefile{toc}{\contentsline {subsection}{\numberline {2.1}Similarity-based Relation Extraction}{2}{subsection.2.1}}
\newlabel{relationextraction}{{2.1}{2}{Similarity-based Relation Extraction\relax }{subsection.2.1}{}}
\citation{miller1995wordnet}
\citation{miller1993semantic}
\citation{jurafsky2009speech}
\citation{leacock1998}
\citation{resnik1995}
\citation{jiang1997}
\citation{lin1998measure}
\citation{wu1994verbs}
\citation{pedersen2004wordnet}
\citation{cilibrasi2007google}
\citation{turney2001mining}
\@writefile{toc}{\contentsline {subsection}{\numberline {2.2}Similarity Measures}{3}{subsection.2.2}}
\newlabel{single}{{2.2}{3}{Similarity Measures\relax }{subsection.2.2}{}}
\newlabel{webbased}{{2.2}{3}{Similarity Measures\relax }{subsection.2.2}{}}
\citation{sahlgren2006,curran2003distributional}
\citation{baroni2009wacky}
\citation{treetagger}
\citation{maltparser2011}
\citation{cruys2010mining}
\citation{lin1998automatic,cruys2010mining}
\citation{veksler2008defining}
\citation{landauer1997solution}
\citation{veksler2008defining}
\newlabel{sect:cb-measures}{{2.2}{4}{Similarity Measures\relax }{subsection.2.2}{}}
\newlabel{pmi}{{1}{4}{Similarity Measures\relax }{equation.2.1}{}}
\newlabel{cos}{{2}{4}{Similarity Measures\relax }{equation.2.2}{}}
\citation{zesch2008extracting}
\citation{banerjee2003extended}
\citation{patwardhan2006using}
\newlabel{defmeasures}{{2.2}{5}{Similarity Measures\relax }{equation.2.2}{}}
\@writefile{toc}{\contentsline {subsection}{\numberline {2.3}Combined Similarity Measures}{6}{subsection.2.3}}
\citation{howell2010fundamental}
\citation{rubenstein1965}
\citation{miller91}
\citation{finkelstein2001placing}
\citation{manning2008introduction}
\citation{baroniwe}
\citation{baroniwe}
\citation{miller1995wordnet}
\citation{kennedy10244evaluating}
\@writefile{toc}{\contentsline {section}{\numberline {3}Evaluation}{7}{section.3}}
\newlabel{evaluationp}{{3}{7}{Evaluation\relax }{section.3}{}}
\@writefile{toc}{\contentsline {section}{\numberline {4}Results}{8}{section.4}}
\citation{peirsman2008putting,panchenko2011comparison}
\@writefile{lot}{\contentsline {table}{\numberline {1}{\ignorespaces Evaluation on the human judgements datasets (MC, RG, and WordSim353). Here (*) means $p \leq 0.01$, (**) means $p \leq 0.05$, (***) means $p > 0.05$, otherwise $p \leq 0.001$. }}{10}{table.1}}
\newlabel{tbl:similarity}{{1}{10}{Evaluation on the human judgements datasets (MC, RG, and WordSim353). Here (*) means $p \leq 0.01$, (**) means $p \leq 0.05$, (***) means $p > 0.05$, otherwise $p \leq 0.001$}{table.1}{}}
\@writefile{lof}{\contentsline {figure}{\numberline {1}{\ignorespaces PR graphs of (on the left) the best single and combined measures; (on the right) Wiktionary measures. PR graph of four combined measures.}}{10}{figure.1}}
\citation{curran2002improvements}
\citation{sahlgren2006}
\citation{cruys2010mining}
\citation{budiu2007modeling}
\@writefile{lot}{\contentsline {table}{\numberline {2}{\ignorespaces  Evaluation of the measures on the semantic relation datasets (BLESS and SN). }}{11}{table.2}}
\newlabel{pairs}{{2}{11}{Evaluation of the measures on the semantic relation datasets (BLESS and SN)}{table.2}{}}
\newlabel{tbl:relations}{{2}{11}{Evaluation of the measures on the semantic relation datasets (BLESS and SN)}{table.2}{}}
\@writefile{lof}{\contentsline {figure}{\numberline {2}{\ignorespaces Distribution of 1-NN similarity scores of the five similarity measures. Here ``random" and ``relation'' are distributions of scores between random and meaningful relations (hypernymy, cohyponymy, attribute, meronymy, event) respectively.}}{11}{figure.2}}
\newlabel{fig:boxplots}{{2}{11}{Distribution of 1-NN similarity scores of the five similarity measures. Here ``random" and ``relation'' are distributions of scores between random and meaningful relations (hypernymy, cohyponymy, attribute, meronymy, event) respectively}{figure.2}{}}
\citation{agirre2009study}
\citation{mihalcea2006corpus}
\citation{budanitsky2001semantic}
\citation{patwardhan2006using}
\citation{zesch2007comparing,zesch2008using}
\citation{navarro2009wiktionary}
\citation{strube2006wikirelate}
\citation{gabrilovich2007computing}
\bibstyle{apalike-fr}
\bibdata{biblio2}
\bibcite{agirre2009study}{{1}{2009}{{Agirre \emph  {et~al.}}}{{}}}
\@writefile{toc}{\contentsline {section}{\numberline {5}Related Work}{12}{section.5}}
\newlabel{sect:previous}{{5}{12}{Related Work\relax }{section.5}{}}
\@writefile{toc}{\contentsline {section}{\numberline {6}Conclusion and Future Work}{12}{section.6}}
\bibcite{banerjee2003extended}{{2}{2003}{{Banerjee et Pedersen}}{{}}}
\bibcite{baroni2009wacky}{{3}{2009}{{Baroni \emph  {et~al.}}}{{}}}
\bibcite{baroniwe}{{4}{2011}{{Baroni et Lenci}}{{}}}
\bibcite{budanitsky2001semantic}{{5}{2001}{{Budanitsky et Hirst}}{{}}}
\bibcite{budiu2007modeling}{{6}{2007}{{Budiu \emph  {et~al.}}}{{}}}
\bibcite{cilibrasi2007google}{{7}{2007}{{Cilibrasi et Vitanyi}}{{}}}
\bibcite{curran2003distributional}{{8}{2003}{{Curran}}{{}}}
\bibcite{curran2002improvements}{{9}{2002}{{Curran et Moens}}{{}}}
\bibcite{finkelstein2001placing}{{10}{2001}{{Finkelstein \emph  {et~al.}}}{{}}}
\bibcite{gabrilovich2007computing}{{11}{2007}{{Gabrilovich et Markovitch}}{{}}}
\bibcite{grefenstette1994explorations}{{12}{1994}{{Grefenstette}}{{}}}
\bibcite{maltparser2011}{{13}{2011}{{Hall \emph  {et~al.}}}{{}}}
\bibcite{hearst1992}{{14}{1992}{{Hearst}}{{}}}
\bibcite{peirsman2008putting}{{15}{2008}{{Heylen \emph  {et~al.}}}{{}}}
\bibcite{howell2010fundamental}{{16}{2010}{{Howell}}{{}}}
\bibcite{hsu2006query}{{17}{2006}{{Hsu \emph  {et~al.}}}{{}}}
\bibcite{jiang1997}{{18}{1997}{{Jiang et Conrath}}{{}}}
\bibcite{jurafsky2009speech}{{19}{2009}{{Jurafsky et Martin}}{{}}}
\bibcite{kennedy10244evaluating}{{20}{2008}{{Kennedy et Szpakowicz}}{{}}}
\bibcite{landauer1997solution}{{21}{1997}{{Landauer et Dumais}}{{}}}
\bibcite{leacock1998}{{22}{1998}{{Leacock et Chodorow}}{{}}}
\bibcite{lin1998measure}{{23}{1998a}{{Lin}}{{}}}
\bibcite{lin1998automatic}{{24}{1998b}{{Lin}}{{}}}
\bibcite{manning2008introduction}{{25}{2008}{{Manning \emph  {et~al.}}}{{}}}
\bibcite{mihalcea2006corpus}{{26}{2006}{{Mihalcea \emph  {et~al.}}}{{}}}
\bibcite{miller1995wordnet}{{27}{1995}{{Miller}}{{}}}
\bibcite{miller91}{{28}{1991}{{Miller et Charles}}{{}}}
\bibcite{miller1993semantic}{{29}{1993}{{Miller \emph  {et~al.}}}{{}}}
\bibcite{navarro2009wiktionary}{{30}{2009}{{Navarro \emph  {et~al.}}}{{}}}
\bibcite{panchenko2011comparison}{{31}{2011}{{Panchenko}}{{}}}
\bibcite{Patwardhan2003wsd}{{32}{2003}{{Patwardhan \emph  {et~al.}}}{{}}}
\bibcite{patwardhan2006using}{{33}{2006}{{Patwardhan et Pedersen}}{{}}}
\bibcite{pedersen2004wordnet}{{34}{2004}{{Pedersen \emph  {et~al.}}}{{}}}
\bibcite{resnik1995}{{35}{1995}{{Resnik}}{{}}}
\bibcite{rubenstein1965}{{36}{1965}{{Rubenstein et Goodenough}}{{}}}
\bibcite{sahlgren2006}{{37}{2006}{{Sahlgren}}{{}}}
\bibcite{treetagger}{{38}{1994}{{Schmid}}{{}}}
\bibcite{snow2005learning}{{39}{2004}{{Snow \emph  {et~al.}}}{{}}}
\bibcite{strube2006wikirelate}{{40}{2006}{{Strube et Ponzetto}}{{}}}
\bibcite{Sun05usingsyntactic}{{41}{2005}{{Sun \emph  {et~al.}}}{{}}}
\bibcite{tikk2003hierarchical}{{42}{2003}{{Tikk \emph  {et~al.}}}{{}}}
\bibcite{turney2001mining}{{43}{2001}{{Turney}}{{}}}
\bibcite{cruys2010mining}{{44}{2010}{{Van~de Cruys}}{{}}}
\bibcite{veksler2008defining}{{45}{2008}{{Veksler \emph  {et~al.}}}{{}}}
\bibcite{wu1994verbs}{{46}{1994}{{Wu et Palmer}}{{}}}
\bibcite{zesch2007comparing}{{47}{2007}{{Zesch \emph  {et~al.}}}{{}}}
\bibcite{zesch2008extracting}{{48}{2008a}{{Zesch \emph  {et~al.}}}{{}}}
\bibcite{zesch2008using}{{49}{2008b}{{Zesch \emph  {et~al.}}}{{}}}
\citation{TALN2007}
\citation{LaigneletRioult09}
\citation{LanglaisPatry07}
\citation{SeretanWehrli07}
