\relax 
\ifx\hyper@anchor\@undefined
\global \let \oldcontentsline\contentsline
\gdef \contentsline#1#2#3#4{\oldcontentsline{#1}{#2}{#3}}
\global \let \oldnewlabel\newlabel
\gdef \newlabel#1#2{\newlabelxx{#1}#2}
\gdef \newlabelxx#1#2#3#4#5#6{\oldnewlabel{#1}{{#2}{#3}}}
\AtEndDocument{\let \contentsline\oldcontentsline
\let \newlabel\oldnewlabel}
\else
\global \let \hyper@last\relax 
\fi

\catcode`:\active
\catcode`;\active
\catcode`!\active
\catcode`?\active
\citation{Patwardhan2003wsd}
\citation{hsu2006query}
\citation{tikk2003hierarchical}
\citation{Sun05usingsyntactic}
\select@language{french}
\@writefile{toc}{\select@language{french}}
\@writefile{lof}{\select@language{french}}
\@writefile{lot}{\select@language{french}}
\@writefile{toc}{\contentsline {section}{\numberline {1}Introduction}{1}{section.1}}
\citation{hearst1992}
\citation{resnik1995}
\citation{cilibrasi2007google}
\citation{lin1998automatic}
\citation{lesk1986automatic}
\citation{zesch2008extracting}
\citation{sahlgren2006,peirsman2008putting,panchenko2011comparison}
\citation{miller1995wordnet}
\citation{miller1993semantic}
\citation{pedersen2004wordnet}
\citation{jurafsky2009speech}
\citation{leacock1998}
\citation{resnik1995}
\citation{jiang1997}
\citation{lin1998measure}
\citation{wu1994verbs}
\@writefile{toc}{\contentsline {section}{\numberline {2}Similarity Measures}{2}{section.2}}
\newlabel{single}{{2}{2}{Similarity Measures\relax }{section.2}{}}
\citation{cilibrasi2007google}
\citation{turney2001mining}
\citation{sahlgren2006,curran2003distributional}
\citation{baroni2009wacky}
\citation{treetagger}
\citation{maltparser2011}
\citation{curran2003distributional,panchenko2011comparison}
\citation{cruys2010mining}
\newlabel{webbased}{{2}{3}{Similarity Measures\relax }{section.2}{}}
\newlabel{corpusmeasures}{{2}{3}{Similarity Measures\relax }{section.2}{}}
\newlabel{pmi}{{1}{3}{Similarity Measures\relax }{equation.2.1}{}}
\newlabel{cos}{{2}{3}{Similarity Measures\relax }{equation.2.2}{}}
\citation{lin1998automatic,cruys2010mining}
\citation{veksler2008defining}
\citation{landauer1997solution}
\citation{veksler2008defining}
\citation{zesch2008using}
\citation{zesch2008using}
\newlabel{defmeasures}{{2}{4}{Similarity Measures\relax }{equation.2.2}{}}
\citation{zesch2008extracting}
\citation{banerjee2003extended}
\citation{patwardhan2006using}
\citation{miller91}
\citation{rubenstein1965}
\citation{finkelstein2001placing}
\@writefile{toc}{\contentsline {section}{\numberline {3}Evaluation}{6}{section.3}}
\newlabel{evaluationp}{{3}{6}{Evaluation\relax }{section.3}{}}
\citation{baroniwe}
\citation{miller1995wordnet}
\citation{kennedy10244evaluating}
\@writefile{toc}{\contentsline {section}{\numberline {4}Results}{7}{section.4}}
\citation{baroniwe}
\citation{baroniwe}
\@writefile{lot}{\contentsline {table}{\numberline {1}{\ignorespaces Evaluation on the human judgement datasets (MC, RG, and WordSim353). Here (*) means $p \leq 0.01$, (**) means $p \leq 0.05$, (***) means $p > 0.05$, otherwise $p \leq 0.001$. The best results for each group of measures are in bold. The very best results are in grey. }}{8}{table.1}}
\newlabel{tbl:similarity}{{1}{8}{Evaluation on the human judgement datasets (MC, RG, and WordSim353). Here (*) means $p \leq 0.01$, (**) means $p \leq 0.05$, (***) means $p > 0.05$, otherwise $p \leq 0.001$. The best results for each group of measures are in bold. The very best results are in grey. \relax }{table.1}{}}
\@writefile{lof}{\contentsline {figure}{\numberline {1}{\ignorespaces Distribution of 1-NN similarity scores of the four best single measures on the BLESS dataset. Here ``random'' and ``relation'' are distributions of scores between random and meaningful relations. The distributions were calculated as suggested in~\citep  {baroniwe}.}}{9}{figure.1}}
\newlabel{fig:boxplots}{{1}{9}{Distribution of 1-NN similarity scores of the four best single measures on the BLESS dataset. Here ``random'' and ``relation'' are distributions of scores between random and meaningful relations. The distributions were calculated as suggested in~\citep {baroniwe}}{figure.1}{}}
\@writefile{lot}{\contentsline {table}{\numberline {2}{\ignorespaces  Evaluation of the measures on the semantic relation datasets (BLESS and SN). Here \textit  {P(x)}, and \textit  {F(x)} are Precision, and F-measure as specified in Section~\ref  {evaluationp}. The best results for each group of measures are in bold. The very best results are in grey.}}{9}{table.2}}
\newlabel{pairs}{{2}{9}{\label {pairs} Evaluation of the measures on the semantic relation datasets (BLESS and SN). Here \textit {P(x)}, and \textit {F(x)} are Precision, and F-measure as specified in Section~\ref {evaluationp}. The best results for each group of measures are in bold. The very best results are in grey}{table.2}{}}
\newlabel{tbl:relations}{{2}{9}{\label {pairs} Evaluation of the measures on the semantic relation datasets (BLESS and SN). Here \textit {P(x)}, and \textit {F(x)} are Precision, and F-measure as specified in Section~\ref {evaluationp}. The best results for each group of measures are in bold. The very best results are in grey}{table.2}{}}
\citation{veksler2008defining}
\@writefile{lof}{\contentsline {figure}{\numberline {2}{\ignorespaces Precision-Recall graphs of (a) the best single and combined measures; (b) four combined measures; (c) measures based on Wiktionary and Wikipedia. }}{10}{figure.2}}
\citation{sahlgren2006,peirsman2008putting,panchenko2011comparison}
\citation{curran2002improvements}
\citation{cruys2010mining}
\citation{budiu2007modeling}
\citation{agirre2009study}
\citation{zesch2007comparing,zesch2008using}
\citation{navarro2009wiktionary}
\citation{strube2006wikirelate}
\citation{gabrilovich2007computing}
\citation{mihalcea2006corpus}
\citation{budanitsky2001semantic}
\citation{patwardhan2006using}
\citation{grefenstette1994explorations}
\citation{curran2002ensemble,cederberg_using_2003,mihalcea2006corpus,agirre2009study}
\@writefile{toc}{\contentsline {section}{\numberline {5}Related Work}{11}{section.5}}
\newlabel{sect:previous}{{5}{11}{Related Work\relax }{section.5}{}}
\bibstyle{apalike-fr}
\bibdata{biblio2}
\bibcite{agirre2009study}{{1}{2009}{{Agirre \emph  {et~al.}}}{{}}}
\bibcite{banerjee2003extended}{{2}{2003}{{Banerjee et Pedersen}}{{}}}
\bibcite{baroni2009wacky}{{3}{2009}{{Baroni \emph  {et~al.}}}{{}}}
\bibcite{baroniwe}{{4}{2011}{{Baroni et Lenci}}{{}}}
\bibcite{budanitsky2001semantic}{{5}{2006}{{Budanitsky et Hirst}}{{}}}
\bibcite{budiu2007modeling}{{6}{2007}{{Budiu \emph  {et~al.}}}{{}}}
\bibcite{cederberg_using_2003}{{7}{2003}{{Cederberg et Widdows}}{{}}}
\bibcite{cilibrasi2007google}{{8}{2007}{{Cilibrasi et Vitanyi}}{{}}}
\bibcite{curran2002ensemble}{{9}{2002}{{Curran}}{{}}}
\bibcite{curran2003distributional}{{10}{2003}{{Curran}}{{}}}
\bibcite{curran2002improvements}{{11}{2002}{{Curran et Moens}}{{}}}
\bibcite{finkelstein2001placing}{{12}{2001}{{Finkelstein \emph  {et~al.}}}{{}}}
\bibcite{gabrilovich2007computing}{{13}{2007}{{Gabrilovich et Markovitch}}{{}}}
\bibcite{grefenstette1994explorations}{{14}{1994}{{Grefenstette}}{{}}}
\bibcite{maltparser2011}{{15}{2011}{{Hall \emph  {et~al.}}}{{}}}
\bibcite{hearst1992}{{16}{1992}{{Hearst}}{{}}}
\@writefile{toc}{\contentsline {section}{\numberline {6}Conclusion}{12}{section.6}}
\bibcite{peirsman2008putting}{{17}{2008}{{Heylen \emph  {et~al.}}}{{}}}
\bibcite{hsu2006query}{{18}{2006}{{Hsu \emph  {et~al.}}}{{}}}
\bibcite{jiang1997}{{19}{1997}{{Jiang et Conrath}}{{}}}
\bibcite{jurafsky2009speech}{{20}{2009}{{Jurafsky et Martin}}{{}}}
\bibcite{kennedy10244evaluating}{{21}{2008}{{Kennedy et Szpakowicz}}{{}}}
\bibcite{landauer1997solution}{{22}{1997}{{Landauer et Dumais}}{{}}}
\bibcite{leacock1998}{{23}{1998}{{Leacock et Chodorow}}{{}}}
\bibcite{lesk1986automatic}{{24}{1986}{{Lesk}}{{}}}
\bibcite{lin1998measure}{{25}{1998a}{{Lin}}{{}}}
\bibcite{lin1998automatic}{{26}{1998b}{{Lin}}{{}}}
\bibcite{mihalcea2006corpus}{{27}{2006}{{Mihalcea \emph  {et~al.}}}{{}}}
\bibcite{miller1995wordnet}{{28}{1995}{{Miller}}{{}}}
\bibcite{miller91}{{29}{1991}{{Miller et Charles}}{{}}}
\bibcite{miller1993semantic}{{30}{1993}{{Miller \emph  {et~al.}}}{{}}}
\bibcite{navarro2009wiktionary}{{31}{2009}{{Navarro \emph  {et~al.}}}{{}}}
\bibcite{panchenko2011comparison}{{32}{2011}{{Panchenko}}{{}}}
\bibcite{Patwardhan2003wsd}{{33}{2003}{{Patwardhan \emph  {et~al.}}}{{}}}
\bibcite{patwardhan2006using}{{34}{2006}{{Patwardhan et Pedersen}}{{}}}
\bibcite{pedersen2004wordnet}{{35}{2004}{{Pedersen \emph  {et~al.}}}{{}}}
\bibcite{resnik1995}{{36}{1995}{{Resnik}}{{}}}
\bibcite{rubenstein1965}{{37}{1965}{{Rubenstein et Goodenough}}{{}}}
\bibcite{sahlgren2006}{{38}{2006}{{Sahlgren}}{{}}}
\bibcite{treetagger}{{39}{1994}{{Schmid}}{{}}}
\bibcite{strube2006wikirelate}{{40}{2006}{{Strube et Ponzetto}}{{}}}
\bibcite{Sun05usingsyntactic}{{41}{2005}{{Sun \emph  {et~al.}}}{{}}}
\bibcite{tikk2003hierarchical}{{42}{2003}{{Tikk \emph  {et~al.}}}{{}}}
\bibcite{turney2001mining}{{43}{2001}{{Turney}}{{}}}
\bibcite{cruys2010mining}{{44}{2010}{{Van~de Cruys}}{{}}}
\bibcite{veksler2008defining}{{45}{2008}{{Veksler \emph  {et~al.}}}{{}}}
\bibcite{wu1994verbs}{{46}{1994}{{Wu et Palmer}}{{}}}
\bibcite{zesch2007comparing}{{47}{2007}{{Zesch \emph  {et~al.}}}{{}}}
\bibcite{zesch2008extracting}{{48}{2008a}{{Zesch \emph  {et~al.}}}{{}}}
\bibcite{zesch2008using}{{49}{2008b}{{Zesch \emph  {et~al.}}}{{}}}
\citation{TALN2007}
\citation{LaigneletRioult09}
\citation{LanglaisPatry07}
\citation{SeretanWehrli07}
