\relax 
\citation{Patwardhan2003wsd}
\citation{hsu2006query}
\citation{tikk2003hierarchical}
\citation{Sun05usingsyntactic}
\citation{grefenstette1994explorations}
\citation{hearst1992}
\citation{snow2005learning}
\citation{resnik1995}
\citation{lin1998automatic}
\citation{cilibrasi2007google}
\citation{curran2002improvements}
\citation{panchenko2011comparison}
\citation{sahlgren2006}
\citation{peirsman2008putting}
\citation{miller1995wordnet}
\citation{miller1993semantic}
\citation{jurafsky2009speech}
\citation{leacock1998}
\citation{resnik1995}
\citation{jiang1997}
\citation{lin1998measure}
\citation{wu1994verbs}
\citation{pedersen2004wordnet}
\citation{cilibrasi2007google}
\citation{turney2001mining}
\citation{sahlgren2006,curran2003distributional}
\newlabel{relationextraction}{{2.1}{2}}
\newlabel{alg:unsup}{{1}{2}}
\newlabel{single}{{2.2}{2}}
\newlabel{webbased}{{2.2.2}{2}}
\citation{cruys2010mining}
\citation{lin1998automatic,cruys2010mining}
\citation{baroni2009wacky}
\citation{treetagger}
\citation{maltparser2011}
\citation{veksler2008defining}
\citation{landauer1997solution}
\citation{veksler2008defining}
\newlabel{sect:cb-measures}{{2.2.3}{3}}
\newlabel{pmi}{{1}{3}}
\newlabel{cos}{{2}{3}}
\newlabel{alg:da}{{2}{3}}
\newlabel{defmeasures}{{2.2.4}{3}}
\citation{zesch2008extracting}
\citation{banerjee2003extended}
\citation{patwardhan2006using}
\newlabel{alg:wkt}{{3}{4}}
\newlabel{rfusion}{{4}{4}}
\citation{howell2010fundamental}
\citation{rubenstein1965}
\citation{miller91}
\citation{finkelstein2001placing}
\citation{manning2008introduction}
\citation{baroniwe}
\citation{baroniwe}
\citation{miller1995wordnet}
\citation{kennedy10244evaluating}
\newlabel{examples}{{1}{5}}
\newlabel{evaluationp}{{3}{5}}
\citation{curran2002improvements}
\citation{sahlgren2006}
\citation{cruys2010mining}
\citation{budiu2007modeling}
\citation{agirre2009study}
\citation{mihalcea2006corpus}
\citation{budanitsky2001semantic}
\citation{patwardhan2006using}
\citation{zesch2007comparing,zesch2008using}
\citation{navarro2009wiktionary}
\citation{strube2006wikirelate}
\citation{gabrilovich2007computing}
\bibstyle{plainnat}
\bibdata{biblio}
\bibcite{agirre2009study}{{1}{2009}{{Agirre et~al.}}{{Agirre, Alfonseca, Hall, Kravalova, Pa{\c {s}}ca, and Soroa}}}
\newlabel{fig:prcomb}{{1}{7}}
\newlabel{sect:previous}{{5}{7}}
\newlabel{tbl:similarity}{{2}{8}}
\newlabel{fig:boxplots}{{2}{8}}
\newlabel{pairs}{{3}{9}}
\newlabel{tbl:relations}{{3}{9}}
\newlabel{fig:prgraph}{{3}{9}}
\bibcite{banerjee2003extended}{{2}{2003}{{Banerjee and Pedersen}}{{}}}
\bibcite{baroniwe}{{3}{2011}{{Baroni and Lenci}}{{}}}
\bibcite{baroni2009wacky}{{4}{2009}{{Baroni et~al.}}{{Baroni, Bernardini, Ferraresi, and Zanchetta}}}
\bibcite{budanitsky2001semantic}{{5}{2001}{{Budanitsky and Hirst}}{{}}}
\bibcite{budiu2007modeling}{{6}{2007}{{Budiu et~al.}}{{Budiu, Royer, and Pirolli}}}
\bibcite{cilibrasi2007google}{{7}{2007}{{Cilibrasi and Vitanyi}}{{}}}
\bibcite{curran2003distributional}{{8}{2003}{{Curran}}{{}}}
\bibcite{curran2002improvements}{{9}{2002}{{Curran and Moens}}{{}}}
\bibcite{finkelstein2001placing}{{10}{2001}{{Finkelstein et~al.}}{{Finkelstein, Gabrilovich, Matias, Rivlin, Solan, Wolfman, and Ruppin}}}
\bibcite{gabrilovich2007computing}{{11}{2007}{{Gabrilovich and Markovitch}}{{}}}
\bibcite{grefenstette1994explorations}{{12}{1994}{{Grefenstette}}{{}}}
\bibcite{maltparser2011}{{13}{2011}{{Hall et~al.}}{{Hall, Nilsson, and Nivre}}}
\bibcite{hearst1992}{{14}{1992}{{Hearst}}{{}}}
\bibcite{peirsman2008putting}{{15}{2008}{{Heylen et~al.}}{{Heylen, Peirsman, Geeraerts, and Speelman}}}
\bibcite{howell2010fundamental}{{16}{2010}{{Howell}}{{}}}
\bibcite{hsu2006query}{{17}{2006}{{Hsu et~al.}}{{Hsu, Tsai, and Chen}}}
\bibcite{jiang1997}{{18}{1997}{{Jiang and Conrath}}{{}}}
\bibcite{jurafsky2009speech}{{19}{2009}{{Jurafsky and Martin}}{{}}}
\bibcite{kennedy10244evaluating}{{20}{2008}{{Kennedy and Szpakowicz}}{{}}}
\bibcite{landauer1997solution}{{21}{1997}{{Landauer and Dumais}}{{}}}
\bibcite{leacock1998}{{22}{1998}{{Leacock and Chodorow}}{{}}}
\bibcite{lin1998automatic}{{23}{1998{a}}{{Lin}}{{}}}
\bibcite{lin1998measure}{{24}{1998{b}}{{Lin}}{{}}}
\bibcite{manning2008introduction}{{25}{2008}{{Manning et~al.}}{{Manning, Raghavan, and Sch{\"u}tze}}}
\bibcite{mihalcea2006corpus}{{26}{2006}{{Mihalcea et~al.}}{{Mihalcea, Corley, and Strapparava}}}
\bibcite{miller1995wordnet}{{27}{1995}{{Miller}}{{}}}
\bibcite{miller91}{{28}{1991}{{Miller and Charles}}{{}}}
\bibcite{miller1993semantic}{{29}{1993}{{Miller et~al.}}{{Miller, Leacock, Tengi, and Bunker}}}
\bibcite{navarro2009wiktionary}{{30}{2009}{{Navarro et~al.}}{{Navarro, Sajous, Bruno, Pr\'{e}vot, ShuKai, Tzu-Yi, Magistry, and Chu-Ren}}}
\bibcite{panchenko2011comparison}{{31}{2011}{{Panchenko}}{{}}}
\bibcite{patwardhan2006using}{{32}{2006}{{Patwardhan and Pedersen}}{{}}}
\bibcite{Patwardhan2003wsd}{{33}{2003}{{Patwardhan et~al.}}{{Patwardhan, Banerjee, and Pedersen}}}
\bibcite{pedersen2004wordnet}{{34}{2004}{{Pedersen et~al.}}{{Pedersen, Patwardhan, and Michelizzi}}}
\bibcite{resnik1995}{{35}{1995}{{Resnik}}{{}}}
\bibcite{rubenstein1965}{{36}{1965}{{Rubenstein and Goodenough}}{{}}}
\bibcite{sahlgren2006}{{37}{2006}{{Sahlgren}}{{}}}
\bibcite{treetagger}{{38}{1994}{{Schmid}}{{}}}
\bibcite{snow2005learning}{{39}{2004}{{Snow et~al.}}{{Snow, Jurafsky, and Ng}}}
\bibcite{strube2006wikirelate}{{40}{2006}{{Strube and Ponzetto}}{{}}}
\bibcite{Sun05usingsyntactic}{{41}{2005}{{Sun et~al.}}{{Sun, Jiang, Fan, Hang, Tat-seng, and yen Kan}}}
\bibcite{tikk2003hierarchical}{{42}{2003}{{Tikk et~al.}}{{Tikk, Yang, and Bang}}}
\bibcite{turney2001mining}{{43}{2001}{{Turney}}{{}}}
\bibcite{cruys2010mining}{{44}{2010}{{Van~de Cruys}}{{}}}
\bibcite{veksler2008defining}{{45}{2008}{{Veksler et~al.}}{{Veksler, Govostes, and Gray}}}
\bibcite{wu1994verbs}{{46}{1994}{{Wu and Palmer}}{{}}}
\bibcite{zesch2007comparing}{{47}{2007}{{Zesch et~al.}}{{Zesch, Gurevych, and M{\"u}hlh{\"a}user}}}
\bibcite{zesch2008extracting}{{48}{2008{a}}{{Zesch et~al.}}{{Zesch, M{\"u}ller, and Gurevych}}}
\bibcite{zesch2008using}{{49}{2008{b}}{{Zesch et~al.}}{{Zesch, M{\"u}ller, and Gurevych}}}
