\relax 
\citation{auger2008pattern}
\citation{lin1998automatic}
\citation{cilibrasi2007google}
\citation{bollegala2007measuring}
\citation{resnik1995}
\citation{zesch2008extracting}
\citation{curran2002improvements}
\citation{curran2002ensemble,cederberg_using_2003,mihalcea2006corpus,agirre2009study,yang_metric-based_2009}
\citation{miller1995wordnet}
\citation{wu1994verbs}
\citation{leacock1998}
\citation{resnik1995}
\citation{jiang1997}
\citation{lin1998measure}
\citation{pedersen2004wordnet}
\citation{cilibrasi2007google}
\newlabel{fig:single-and-hybrid}{{1}{2}}
\newlabel{single-relation-extraction}{{2}{2}}
\newlabel{single-measures}{{3}{2}}
\newlabel{networkbased-measures}{{3.1}{2}}
\newlabel{webbased-measures}{{3.2}{2}}
\citation{baroni2009wacky}
\citation{sahlgren2006}
\citation{lin1998automatic}
\citation{hearst1992}
\citation{paumier2003}
\citation{bollegala2007measuring}
\citation{landauer1997solution}
\citation{veksler2008defining}
\citation{veksler2008defining}
\citation{pedersen2004wordnet}
\citation{zesch2008extracting}
\citation{zesch2008extracting}
\newlabel{corpusbased-measures}{{3.3}{3}}
\newlabel{distributional-measures}{{3.3}{3}}
\newlabel{patternbased-measures}{{3.3}{3}}
\citation{zesch2008using}
\citation{patwardhan2006using}
\citation{banerjee2003extended}
\newlabel{fig:unitex}{{2}{4}}
\newlabel{definitionbased-measures}{{3.4}{4}}
\newlabel{hybrid-measures}{{4}{4}}
\newlabel{combination-methods}{{4.1}{4}}
\citation{agresti2000categorical}
\newlabel{combination-sets}{{4.2}{5}}
\citation{miller91}
\citation{rubenstein1965}
\citation{finkelstein2001placing}
\citation{baroniwe}
\newlabel{evaluationp}{{5}{6}}
\newlabel{results}{{6}{6}}
\newlabel{fig:prgraph}{{3}{7}}
\newlabel{disc}{{7}{7}}
\citation{sahlgren2006,peirsman2008putting}
\bibstyle{acl}
\bibdata{biblio2}
\newlabel{tbl:results}{{1}{8}}
\bibcite{agirre2009study}{\citename {Agirre \bgroup et al.\egroup }2009}
\bibcite{agresti2000categorical}{\citename {Agresti}2002}
\bibcite{auger2008pattern}{\citename {Auger and Barri{\`e}re}2008}
\bibcite{banerjee2003extended}{\citename {Banerjee and Pedersen}2003}
\bibcite{baroniwe}{\citename {Baroni and Lenci}2011}
\bibcite{baroni2009wacky}{\citename {Baroni \bgroup et al.\egroup }2009}
\bibcite{bollegala2007measuring}{\citename {Bollegala \bgroup et al.\egroup }2007}
\bibcite{cederberg_using_2003}{\citename {Cederberg and Widdows}2003}
\bibcite{cilibrasi2007google}{\citename {Cilibrasi and Vitanyi}2007}
\bibcite{curran2002improvements}{\citename {Curran and Moens}2002}
\bibcite{curran2002ensemble}{\citename {Curran}2002}
\bibcite{finkelstein2001placing}{\citename {Finkelstein \bgroup et al.\egroup }2001}
\bibcite{hearst1992}{\citename {Hearst}1992}
\bibcite{peirsman2008putting}{\citename {Heylen \bgroup et al.\egroup }2008}
\bibcite{jiang1997}{\citename {Jiang and Conrath}1997}
\bibcite{landauer1997solution}{\citename {Landauer and Dumais}1997}
\bibcite{leacock1998}{\citename {Leacock and Chodorow}1998}
\bibcite{lin1998measure}{\citename {Lin}1998a}
\bibcite{lin1998automatic}{\citename {Lin}1998b}
\bibcite{mihalcea2006corpus}{\citename {Mihalcea \bgroup et al.\egroup }2006}
\bibcite{miller91}{\citename {Miller and Charles}1991}
\bibcite{miller1995wordnet}{\citename {Miller}1995}
\bibcite{patwardhan2006using}{\citename {Patwardhan and Pedersen}2006}
\bibcite{paumier2003}{\citename {Paumier}2003}
\bibcite{pedersen2004wordnet}{\citename {Pedersen \bgroup et al.\egroup }2004}
\bibcite{resnik1995}{\citename {Resnik}1995}
\bibcite{rubenstein1965}{\citename {Rubenstein and Goodenough}1965}
\bibcite{sahlgren2006}{\citename {Sahlgren}2006}
\bibcite{veksler2008defining}{\citename {Veksler \bgroup et al.\egroup }2008}
\bibcite{wu1994verbs}{\citename {Wu and Palmer}1994}
\bibcite{yang_metric-based_2009}{\citename {Yang and Callan}2009}
\bibcite{zesch2008extracting}{\citename {Zesch \bgroup et al.\egroup }2008a}
\bibcite{zesch2008using}{\citename {Zesch \bgroup et al.\egroup }2008b}
