%!PS-Adobe-3.0 EPSF-3.0
%%Creator: MATLAB, The Mathworks, Inc. Version 7.10.0.499 (R2010a). Operating System: Microsoft Windows Server 2008 R2.
%%Title: C:\Users\Alexander\Desktop\pr-graph-4best.eps
%%CreationDate: 11/16/2011  18:20:21
%%DocumentNeededFonts: Helvetica
%%+ Times-Bold
%%DocumentProcessColors: Cyan Magenta Yellow Black
%%LanguageLevel: 2
%%Pages: 1
%%BoundingBox:     3   128   608   662
%%EndComments

%%BeginProlog
% MathWorks dictionary
/MathWorks 160 dict begin
% definition operators
/bdef {bind def} bind def
/ldef {load def} bind def
/xdef {exch def} bdef
/xstore {exch store} bdef
% operator abbreviations
/c  /clip ldef
/cc /concat ldef
/cp /closepath ldef
/gr /grestore ldef
/gs /gsave ldef
/mt /moveto ldef
/np /newpath ldef
/cm /currentmatrix ldef
/sm /setmatrix ldef
/rm /rmoveto ldef
/rl /rlineto ldef
/s {show newpath} bdef
/sc {setcmykcolor} bdef
/sr /setrgbcolor ldef
/sg /setgray ldef
/w /setlinewidth ldef
/j /setlinejoin ldef
/cap /setlinecap ldef
/rc {rectclip} bdef
/rf {rectfill} bdef
% page state control
/pgsv () def
/bpage {/pgsv save def} bdef
/epage {pgsv restore} bdef
/bplot /gsave ldef
/eplot {stroke grestore} bdef
% orientation switch
/portraitMode 0 def /landscapeMode 1 def /rotateMode 2 def
% coordinate system mappings
/dpi2point 0 def
% font control
/FontSize 0 def
/FMS {/FontSize xstore findfont [FontSize 0 0 FontSize neg 0 0]
  makefont setfont} bdef
/ISOLatin1Encoding where {pop /WindowsLatin1Encoding 256 array bdef
ISOLatin1Encoding WindowsLatin1Encoding copy pop
/.notdef/.notdef/quotesinglbase/florin/quotedblbase/ellipsis/dagger
/daggerdbl/circumflex/perthousand/Scaron/guilsinglleft/OE/.notdef/.notdef
/.notdef/.notdef/quoteleft/quoteright/quotedblleft/quotedblright/bullet
/endash/emdash/tilde/trademark/scaron/guilsinglright/oe/.notdef/.notdef
/Ydieresis WindowsLatin1Encoding 128 32 getinterval astore pop}
{/WindowsLatin1Encoding StandardEncoding bdef} ifelse
/reencode {exch dup where {pop load} {pop StandardEncoding} ifelse
  exch dup 3 1 roll findfont dup length dict begin
  { 1 index /FID ne {def}{pop pop} ifelse } forall
  /Encoding exch def currentdict end definefont pop} bdef
/isroman {findfont /CharStrings get /Agrave known} bdef
/FMSR {3 1 roll 1 index dup isroman {reencode} {pop pop} ifelse
  exch FMS} bdef
/csm {1 dpi2point div -1 dpi2point div scale neg translate
 dup landscapeMode eq {pop -90 rotate}
  {rotateMode eq {90 rotate} if} ifelse} bdef
% line types: solid, dotted, dashed, dotdash
/SO { [] 0 setdash } bdef
/DO { [.5 dpi2point mul 4 dpi2point mul] 0 setdash } bdef
/DA { [6 dpi2point mul] 0 setdash } bdef
/DD { [.5 dpi2point mul 4 dpi2point mul 6 dpi2point mul 4
  dpi2point mul] 0 setdash } bdef
% macros for lines and objects
/L {lineto stroke} bdef
/MP {3 1 roll moveto 1 sub {rlineto} repeat} bdef
/AP {{rlineto} repeat} bdef
/PDlw -1 def
/W {/PDlw currentlinewidth def setlinewidth} def
/PP {closepath eofill} bdef
/DP {closepath stroke} bdef
/MR {4 -2 roll moveto dup  0 exch rlineto exch 0 rlineto
  neg 0 exch rlineto closepath} bdef
/FR {MR stroke} bdef
/PR {MR fill} bdef
/L1i {{currentfile picstr readhexstring pop} image} bdef
/tMatrix matrix def
/MakeOval {newpath tMatrix currentmatrix pop translate scale
0 0 1 0 360 arc tMatrix setmatrix} bdef
/FO {MakeOval stroke} bdef
/PO {MakeOval fill} bdef
/PD {currentlinewidth 2 div 0 360 arc fill
   PDlw -1 eq not {PDlw w /PDlw -1 def} if} def
/FA {newpath tMatrix currentmatrix pop translate scale
  0 0 1 5 -2 roll arc tMatrix setmatrix stroke} bdef
/PA {newpath tMatrix currentmatrix pop	translate 0 0 moveto scale
  0 0 1 5 -2 roll arc closepath tMatrix setmatrix fill} bdef
/FAn {newpath tMatrix currentmatrix pop translate scale
  0 0 1 5 -2 roll arcn tMatrix setmatrix stroke} bdef
/PAn {newpath tMatrix currentmatrix pop translate 0 0 moveto scale
  0 0 1 5 -2 roll arcn closepath tMatrix setmatrix fill} bdef
/vradius 0 def /hradius 0 def /lry 0 def
/lrx 0 def /uly 0 def /ulx 0 def /rad 0 def
/MRR {/vradius xdef /hradius xdef /lry xdef /lrx xdef /uly xdef
  /ulx xdef newpath tMatrix currentmatrix pop ulx hradius add uly
  vradius add translate hradius vradius scale 0 0 1 180 270 arc 
  tMatrix setmatrix lrx hradius sub uly vradius add translate
  hradius vradius scale 0 0 1 270 360 arc tMatrix setmatrix
  lrx hradius sub lry vradius sub translate hradius vradius scale
  0 0 1 0 90 arc tMatrix setmatrix ulx hradius add lry vradius sub
  translate hradius vradius scale 0 0 1 90 180 arc tMatrix setmatrix
  closepath} bdef
/FRR {MRR stroke } bdef
/PRR {MRR fill } bdef
/MlrRR {/lry xdef /lrx xdef /uly xdef /ulx xdef /rad lry uly sub 2 div def
  newpath tMatrix currentmatrix pop ulx rad add uly rad add translate
  rad rad scale 0 0 1 90 270 arc tMatrix setmatrix lrx rad sub lry rad
  sub translate rad rad scale 0 0 1 270 90 arc tMatrix setmatrix
  closepath} bdef
/FlrRR {MlrRR stroke } bdef
/PlrRR {MlrRR fill } bdef
/MtbRR {/lry xdef /lrx xdef /uly xdef /ulx xdef /rad lrx ulx sub 2 div def
  newpath tMatrix currentmatrix pop ulx rad add uly rad add translate
  rad rad scale 0 0 1 180 360 arc tMatrix setmatrix lrx rad sub lry rad
  sub translate rad rad scale 0 0 1 0 180 arc tMatrix setmatrix
  closepath} bdef
/FtbRR {MtbRR stroke } bdef
/PtbRR {MtbRR fill } bdef
/stri 6 array def /dtri 6 array def
/smat 6 array def /dmat 6 array def
/tmat1 6 array def /tmat2 6 array def /dif 3 array def
/asub {/ind2 exch def /ind1 exch def dup dup
  ind1 get exch ind2 get sub exch } bdef
/tri_to_matrix {
  2 0 asub 3 1 asub 4 0 asub 5 1 asub
  dup 0 get exch 1 get 7 -1 roll astore } bdef
/compute_transform {
  dmat dtri tri_to_matrix tmat1 invertmatrix 
  smat stri tri_to_matrix tmat2 concatmatrix } bdef
/ds {stri astore pop} bdef
/dt {dtri astore pop} bdef
/db {2 copy /cols xdef /rows xdef mul dup 3 mul string
  currentfile 
  3 index 0 eq {/ASCIIHexDecode filter}
  {/ASCII85Decode filter 3 index 2 eq {/RunLengthDecode filter} if }
  ifelse exch readstring pop
  dup 0 3 index getinterval /rbmap xdef
  dup 2 index dup getinterval /gbmap xdef
  1 index dup 2 mul exch getinterval /bbmap xdef pop pop}bdef
/it {gs np dtri aload pop moveto lineto lineto cp c
  cols rows 8 compute_transform 
  rbmap gbmap bbmap true 3 colorimage gr}bdef
/il {newpath moveto lineto stroke}bdef
currentdict end def
%%EndProlog

%%BeginSetup
MathWorks begin

0 cap

end
%%EndSetup

%%Page: 1 1
%%BeginPageSetup
%%PageBoundingBox:     3   128   608   662
MathWorks begin
bpage
%%EndPageSetup

%%BeginObject: obj1
bplot

/dpi2point 12 def
portraitMode 0036 7944 csm

    0     0  7269  6398 rc
88 dict begin %Colortable dictionary
/c0 { 0.000000 0.000000 0.000000 sr} bdef
/c1 { 1.000000 1.000000 1.000000 sr} bdef
/c2 { 0.900000 0.000000 0.000000 sr} bdef
/c3 { 0.000000 0.820000 0.000000 sr} bdef
/c4 { 0.000000 0.000000 0.800000 sr} bdef
/c5 { 0.910000 0.820000 0.320000 sr} bdef
/c6 { 1.000000 0.260000 0.820000 sr} bdef
/c7 { 0.000000 0.820000 0.820000 sr} bdef
c0
1 j
1 sg
   0    0 7270 6399 rf
6 w
0 5214 5633 0 0 -5214 945 5694 4 MP
PP
-5633 0 0 5214 5633 0 0 -5214 945 5694 5 MP stroke
4 w
DO
0 sg
 945 5694 mt  945  480 L
 945  480 mt  945  480 L
2071 5694 mt 2071  480 L
2071  480 mt 2071  480 L
3198 5694 mt 3198  480 L
3198  480 mt 3198  480 L
4324 5694 mt 4324  480 L
4324  480 mt 4324  480 L
5451 5694 mt 5451  480 L
5451  480 mt 5451  480 L
6578 5694 mt 6578  480 L
6578  480 mt 6578  480 L
 945 5694 mt 6578 5694 L
6578 5694 mt 6578 5694 L
 945 4651 mt 6578 4651 L
6578 4651 mt 6578 4651 L
 945 3608 mt 6578 3608 L
6578 3608 mt 6578 3608 L
 945 2565 mt 6578 2565 L
6578 2565 mt 6578 2565 L
 945 1522 mt 6578 1522 L
6578 1522 mt 6578 1522 L
 945  480 mt 6578  480 L
6578  480 mt 6578  480 L
SO
6 w
 945 5694 mt 6578 5694 L
 945 5694 mt  945  480 L
 945 5694 mt  945 5637 L
%%IncludeResource: font Times-Bold
/Times-Bold /WindowsLatin1Encoding 240 FMSR

 885 5952 mt 
(0) s
2071 5694 mt 2071 5637 L
1921 5952 mt 
(0.1) s
3198 5694 mt 3198 5637 L
3048 5952 mt 
(0.2) s
4324 5694 mt 4324 5637 L
4174 5952 mt 
(0.3) s
5451 5694 mt 5451 5637 L
5301 5952 mt 
(0.4) s
6578 5694 mt 6578 5637 L
6428 5952 mt 
(0.5) s
 945 5694 mt 1001 5694 L
 490 5783 mt 
(0.75) s
 945 4651 mt 1001 4651 L
 610 4740 mt 
(0.8) s
 945 3608 mt 1001 3608 L
 490 3697 mt 
(0.85) s
 945 2565 mt 1001 2565 L
 610 2654 mt 
(0.9) s
 945 1522 mt 1001 1522 L
 490 1611 mt 
(0.95) s
 945  480 mt 1001  480 L
 790  569 mt 
(1) s
gs 945 480 5634 5215 rc
36 w
/c8 { 1.000000 0.000000 0.000000 sr} bdef
c8
92 171 125 213 128 227 138 162 155 140 143 120 182 125 169 134 
164 133 176 90 187 70 184 87 185 75 194 41 196 27 189 48 
200 52 193 55 203 -14 200 20 197 15 203 53 204 -3 204 19 
206 64 188 64 217 -31 198 9 193 134 213 76 53 -27 1100 584 32 MP stroke
gr

36 w
c8
0 j
-41 71 -41 -71 82 0 1059 608 4 MP
DP
-41 71 -41 -71 82 0 1112 581 4 MP
DP
-41 71 -41 -71 82 0 1325 657 4 MP
DP
-41 71 -41 -71 82 0 1518 791 4 MP
DP
-41 71 -41 -71 82 0 1716 800 4 MP
DP
-41 71 -41 -71 82 0 1933 769 4 MP
DP
-41 71 -41 -71 82 0 2121 833 4 MP
DP
-41 71 -41 -71 82 0 2327 897 4 MP
DP
-41 71 -41 -71 82 0 2531 916 4 MP
DP
-41 71 -41 -71 82 0 2735 913 4 MP
DP
-41 71 -41 -71 82 0 2938 966 4 MP
DP
-41 71 -41 -71 82 0 3135 981 4 MP
DP
-41 71 -41 -71 82 0 3335 1001 4 MP
DP
-41 71 -41 -71 82 0 3538 987 4 MP
DP
-41 71 -41 -71 82 0 3731 1042 4 MP
DP
-41 71 -41 -71 82 0 3931 1094 4 MP
DP
-41 71 -41 -71 82 0 4120 1142 4 MP
DP
-41 71 -41 -71 82 0 4316 1169 4 MP
DP
-41 71 -41 -71 82 0 4510 1210 4 MP
DP
-41 71 -41 -71 82 0 4695 1285 4 MP
DP
-41 71 -41 -71 82 0 4879 1372 4 MP
DP
-41 71 -41 -71 82 0 5066 1442 4 MP
DP
-41 71 -41 -71 82 0 5242 1532 4 MP
DP
-41 71 -41 -71 82 0 5406 1665 4 MP
DP
-41 71 -41 -71 82 0 5575 1799 4 MP
DP
-41 71 -41 -71 82 0 5757 1924 4 MP
DP
-41 71 -41 -71 82 0 5900 2044 4 MP
DP
-41 71 -41 -71 82 0 6055 2184 4 MP
DP
-41 71 -41 -71 82 0 6193 2346 4 MP
DP
-41 71 -41 -71 82 0 6321 2573 4 MP
DP
-41 71 -41 -71 82 0 6446 2786 4 MP
DP
gs 945 480 5634 5215 rc
/c9 { 0.000000 1.000000 0.000000 sr} bdef
c9
24 69 66 277 89 236 82 264 87 252 103 235 107 231 112 243 
103 251 120 235 111 213 147 228 149 187 151 158 148 195 159 177 
152 233 166 160 174 142 174 154 182 92 192 108 191 73 193 84 
193 99 196 49 206 59 203 45 208 12 211 30 193 11 218 15 
201 0 199 0 215 0 53 0 1101 480 37 MP stroke
gr

c9
  36   36 1101  480 FO
  36   36 1154  480 FO
  36   36 1369  480 FO
  36   36 1568  480 FO
  36   36 1769  480 FO
  36   36 1987  495 FO
  36   36 2180  506 FO
  36   36 2391  536 FO
  36   36 2599  548 FO
  36   36 2802  593 FO
  36   36 3008  652 FO
  36   36 3204  701 FO
  36   36 3397  800 FO
  36   36 3590  884 FO
  36   36 3781  957 FO
  36   36 3973 1065 FO
  36   36 4155 1157 FO
  36   36 4329 1311 FO
  36   36 4503 1453 FO
  36   36 4669 1613 FO
  36   36 4821 1846 FO
  36   36 4980 2023 FO
  36   36 5128 2218 FO
  36   36 5279 2376 FO
  36   36 5428 2563 FO
  36   36 5575 2791 FO
  36   36 5686 3004 FO
  36   36 5806 3239 FO
  36   36 5909 3490 FO
  36   36 6021 3733 FO
  36   36 6128 3964 FO
  36   36 6231 4199 FO
  36   36 6318 4451 FO
  36   36 6400 4715 FO
  36   36 6489 4951 FO
  36   36 6555 5228 FO
gs 945 480 5634 5215 rc
/c10 { 0.000000 0.000000 1.000000 sr} bdef
c10
83 36 177 67 170 56 178 55 165 40 205 28 179 86 184 36 
178 77 187 55 189 49 186 51 189 52 188 58 183 73 198 52 
190 56 191 72 197 34 198 -4 204 26 200 25 198 77 209 8 
191 -25 212 25 196 4 193 86 210 73 53 -106 1098 897 31 MP stroke
gr

c10
-21 -16 8 -25 -22 15 -21 -15 8 25 -21 16 26 0 8 24 
9 -24 26 0 1063 885 11 MP
DP
-21 -16 8 -25 -22 15 -21 -15 8 25 -21 16 26 0 8 24 
9 -24 26 0 1116 779 11 MP
DP
-21 -16 8 -25 -22 15 -21 -15 8 25 -21 16 26 0 8 24 
9 -24 26 0 1326 852 11 MP
DP
-21 -16 8 -25 -22 15 -21 -15 8 25 -21 16 26 0 8 24 
9 -24 26 0 1519 938 11 MP
DP
-21 -16 8 -25 -22 15 -21 -15 8 25 -21 16 26 0 8 24 
9 -24 26 0 1715 942 11 MP
DP
-21 -16 8 -25 -22 15 -21 -15 8 25 -21 16 26 0 8 24 
9 -24 26 0 1927 967 11 MP
DP
-21 -16 8 -25 -22 15 -21 -15 8 25 -21 16 26 0 8 24 
9 -24 26 0 2118 942 11 MP
DP
-21 -16 8 -25 -22 15 -21 -15 8 25 -21 16 26 0 8 24 
9 -24 26 0 2327 950 11 MP
DP
-21 -16 8 -25 -22 15 -21 -15 8 25 -21 16 26 0 8 24 
9 -24 26 0 2525 1027 11 MP
DP
-21 -16 8 -25 -22 15 -21 -15 8 25 -21 16 26 0 8 24 
9 -24 26 0 2725 1052 11 MP
DP
-21 -16 8 -25 -22 15 -21 -15 8 25 -21 16 26 0 8 24 
9 -24 26 0 2929 1078 11 MP
DP
-21 -16 8 -25 -22 15 -21 -15 8 25 -21 16 26 0 8 24 
9 -24 26 0 3127 1074 11 MP
DP
-21 -16 8 -25 -22 15 -21 -15 8 25 -21 16 26 0 8 24 
9 -24 26 0 3324 1108 11 MP
DP
-21 -16 8 -25 -22 15 -21 -15 8 25 -21 16 26 0 8 24 
9 -24 26 0 3515 1180 11 MP
DP
-21 -16 8 -25 -22 15 -21 -15 8 25 -21 16 26 0 8 24 
9 -24 26 0 3705 1236 11 MP
DP
-21 -16 8 -25 -22 15 -21 -15 8 25 -21 16 26 0 8 24 
9 -24 26 0 3903 1288 11 MP
DP
-21 -16 8 -25 -22 15 -21 -15 8 25 -21 16 26 0 8 24 
9 -24 26 0 4086 1361 11 MP
DP
-21 -16 8 -25 -22 15 -21 -15 8 25 -21 16 26 0 8 24 
9 -24 26 0 4274 1419 11 MP
DP
-21 -16 8 -25 -22 15 -21 -15 8 25 -21 16 26 0 8 24 
9 -24 26 0 4463 1471 11 MP
DP
-21 -16 8 -25 -22 15 -21 -15 8 25 -21 16 26 0 8 24 
9 -24 26 0 4649 1522 11 MP
DP
-21 -16 8 -25 -22 15 -21 -15 8 25 -21 16 26 0 8 24 
9 -24 26 0 4838 1571 11 MP
DP
-21 -16 8 -25 -22 15 -21 -15 8 25 -21 16 26 0 8 24 
9 -24 26 0 5025 1626 11 MP
DP
-21 -16 8 -25 -22 15 -21 -15 8 25 -21 16 26 0 8 24 
9 -24 26 0 5203 1703 11 MP
DP
-21 -16 8 -25 -22 15 -21 -15 8 25 -21 16 26 0 8 24 
9 -24 26 0 5387 1739 11 MP
DP
-21 -16 8 -25 -22 15 -21 -15 8 25 -21 16 26 0 8 24 
9 -24 26 0 5566 1825 11 MP
DP
-21 -16 8 -25 -22 15 -21 -15 8 25 -21 16 26 0 8 24 
9 -24 26 0 5771 1853 11 MP
DP
-21 -16 8 -25 -22 15 -21 -15 8 25 -21 16 26 0 8 24 
9 -24 26 0 5936 1893 11 MP
DP
-21 -16 8 -25 -22 15 -21 -15 8 25 -21 16 26 0 8 24 
9 -24 26 0 6114 1948 11 MP
DP
-21 -16 8 -25 -22 15 -21 -15 8 25 -21 16 26 0 8 24 
9 -24 26 0 6284 2004 11 MP
DP
-21 -16 8 -25 -22 15 -21 -15 8 25 -21 16 26 0 8 24 
9 -24 26 0 6461 2071 11 MP
DP
gs 945 480 5634 5215 rc
/c11 { 0.000000 1.000000 1.000000 sr} bdef
c11
165 70 161 117 157 91 167 95 151 84 190 88 173 112 173 88 
169 114 174 125 182 93 180 96 186 83 193 45 188 51 198 62 
193 61 191 85 197 56 197 37 207 26 200 54 205 35 207 85 
192 12 217 14 200 27 198 14 214 38 53 0 1101 480 31 MP stroke
gr

c11
0 -58 -58 0 0 58 58 0 1072 451 5 MP
DP
0 -58 -58 0 0 58 58 0 1125 451 5 MP
DP
0 -58 -58 0 0 58 58 0 1339 489 5 MP
DP
0 -58 -58 0 0 58 58 0 1537 503 5 MP
DP
0 -58 -58 0 0 58 58 0 1737 530 5 MP
DP
0 -58 -58 0 0 58 58 0 1954 544 5 MP
DP
0 -58 -58 0 0 58 58 0 2146 556 5 MP
DP
0 -58 -58 0 0 58 58 0 2353 641 5 MP
DP
0 -58 -58 0 0 58 58 0 2558 676 5 MP
DP
0 -58 -58 0 0 58 58 0 2758 730 5 MP
DP
0 -58 -58 0 0 58 58 0 2965 756 5 MP
DP
0 -58 -58 0 0 58 58 0 3162 793 5 MP
DP
0 -58 -58 0 0 58 58 0 3359 849 5 MP
DP
0 -58 -58 0 0 58 58 0 3550 934 5 MP
DP
0 -58 -58 0 0 58 58 0 3743 995 5 MP
DP
0 -58 -58 0 0 58 58 0 3941 1057 5 MP
DP
0 -58 -58 0 0 58 58 0 4129 1108 5 MP
DP
0 -58 -58 0 0 58 58 0 4322 1153 5 MP
DP
0 -58 -58 0 0 58 58 0 4508 1236 5 MP
DP
0 -58 -58 0 0 58 58 0 4688 1332 5 MP
DP
0 -58 -58 0 0 58 58 0 4870 1425 5 MP
DP
0 -58 -58 0 0 58 58 0 5044 1550 5 MP
DP
0 -58 -58 0 0 58 58 0 5213 1664 5 MP
DP
0 -58 -58 0 0 58 58 0 5386 1752 5 MP
DP
0 -58 -58 0 0 58 58 0 5559 1864 5 MP
DP
0 -58 -58 0 0 58 58 0 5749 1952 5 MP
DP
0 -58 -58 0 0 58 58 0 5900 2036 5 MP
DP
0 -58 -58 0 0 58 58 0 6067 2131 5 MP
DP
0 -58 -58 0 0 58 58 0 6224 2222 5 MP
DP
0 -58 -58 0 0 58 58 0 6385 2339 5 MP
DP
gs 945 480 5634 5215 rc
/c12 { 1.000000 0.000000 1.000000 sr} bdef
c12
40 39 132 129 147 103 154 86 146 134 139 123 151 113 137 108 
173 116 161 116 161 99 170 67 168 107 170 106 176 58 179 65 
178 77 178 54 190 50 179 86 182 80 182 94 181 107 197 38 
189 81 196 46 195 138 180 99 206 124 190 150 191 138 210 73 
52 103 1099 688 34 MP stroke
gr

c12
0 sg
3440 6173 mt 
(Recall) s
 383 3559 mt  -90 rotate
(Precision) s
90 rotate
%%IncludeResource: font Helvetica
/Helvetica /WindowsLatin1Encoding 120 FMSR

 928 5737 mt 
( ) s
6562  522 mt 
( ) s
6 w
1 sg
0 1524 2575 0 0 -1524 1212 5436 4 MP
PP
-2575 0 0 1524 2575 0 0 -1524 1212 5436 5 MP stroke
4 w
DO
SO
6 w
0 sg
1212 3912 mt 3787 3912 L
1212 5436 mt 3787 5436 L
3787 5436 mt 3787 3912 L
1212 5436 mt 1212 3912 L
1212 5436 mt 3787 5436 L
1212 5436 mt 1212 3912 L
1212 3912 mt 3787 3912 L
1212 5436 mt 3787 5436 L
3787 5436 mt 3787 3912 L
1212 5436 mt 1212 3912 L
%%IncludeResource: font Times-Bold
/Times-Bold /WindowsLatin1Encoding 240 FMSR

1693 4167 mt 
(WN-Resnik) s
gs 1212 3912 2576 1525 rc
36 w
c8
370 0 1285 4081 2 MP stroke
gs 1360 3971 221 221 rc
-41 71 -41 -71 82 0 1429 4105 4 MP
DP
gr

gr

36 w
c8
0 sg
1693 4464 mt 
(NGD-Google) s
gs 1212 3912 2576 1525 rc
c9
370 0 1285 4377 2 MP stroke
gs 1360 4267 221 221 rc
  36   36 1470 4377 FO
gr

gr

c9
0 sg
1693 4761 mt 
(BDA-3-5000) s
gs 1212 3912 2576 1525 rc
c10
370 0 1285 4674 2 MP stroke
gs 1360 4564 221 221 rc
-21 -16 8 -25 -22 15 -21 -15 8 25 -21 16 26 0 8 24 
9 -24 26 0 1435 4662 11 MP
DP
gr

gr

c10
0 sg
1693 5057 mt 
(SDA-21-100000) s
gs 1212 3912 2576 1525 rc
c11
370 0 1285 4970 2 MP stroke
gs 1360 4860 221 221 rc
0 -58 -58 0 0 58 58 0 1441 4941 5 MP
DP
gr

gr

c11
0 sg
1693 5354 mt 
(Def-WktWiki-1000) s
gs 1212 3912 2576 1525 rc
c12
370 0 1285 5266 2 MP stroke
6 w
gr

6 w
c12

end %%Color Dict

eplot
%%EndObject

epage
end

showpage

%%Trailer
%%EOF
