\beamer@endinputifotherversion {3.10pt}
\beamer@sectionintoc {1}{Introduction}{3}{0}{1}
\beamer@sectionintoc {2}{Methodology}{9}{0}{2}
\beamer@sectionintoc {3}{Results}{17}{0}{3}
\beamer@sectionintoc {4}{Discussion}{29}{0}{4}
