\beamer@endinputifotherversion {3.10pt}
\beamer@sectionintoc {1}{Introduction}{3}{0}{1}
\beamer@sectionintoc {2}{Methodology}{24}{0}{2}
\beamer@sectionintoc {3}{Results}{57}{0}{3}
\beamer@sectionintoc {4}{Discussion}{75}{0}{4}
