\relax 
\providecommand\HyperFirstAtBeginDocument{\AtBeginDocument}
\HyperFirstAtBeginDocument{\ifx\hyper@anchor\@undefined
\global\let\oldcontentsline\contentsline
\gdef\contentsline#1#2#3#4{\oldcontentsline{#1}{#2}{#3}}
\global\let\oldnewlabel\newlabel
\gdef\newlabel#1#2{\newlabelxx{#1}#2}
\gdef\newlabelxx#1#2#3#4#5#6{\oldnewlabel{#1}{{#2}{#3}}}
\AtEndDocument{\ifx\hyper@anchor\@undefined
\let\contentsline\oldcontentsline
\let\newlabel\oldnewlabel
\fi}
\fi}
\global\let\hyper@last\relax 
\gdef\HyperFirstAtBeginDocument#1{#1}
\providecommand\HyField@AuxAddToFields[1]{}
\@writefile{toc}{\beamer@endinputifotherversion {3.10pt}}
\@writefile{nav}{\beamer@endinputifotherversion {3.10pt}}
\@writefile{nav}{\headcommand {\slideentry {0}{0}{1}{1/1}{}{0}}}
\@writefile{nav}{\headcommand {\beamer@framepages {1}{1}}}
\@writefile{nav}{\headcommand {\slideentry {0}{0}{2}{2/2}{}{0}}}
\@writefile{nav}{\headcommand {\beamer@framepages {2}{2}}}
\@writefile{toc}{\beamer@sectionintoc {1}{Introduction}{3}{0}{1}}
\@writefile{nav}{\headcommand {\sectionentry {1}{Introduction}{3}{Introduction}{0}}}
\@writefile{nav}{\headcommand {\beamer@sectionpages {1}{2}}}
\@writefile{nav}{\headcommand {\beamer@subsectionpages {1}{2}}}
\@writefile{nav}{\headcommand {\slideentry {1}{0}{3}{3/3}{}{0}}}
\@writefile{nav}{\headcommand {\beamer@framepages {3}{3}}}
\@writefile{nav}{\headcommand {\slideentry {1}{0}{4}{4/5}{}{0}}}
\@writefile{nav}{\headcommand {\beamer@framepages {4}{5}}}
\@writefile{nav}{\headcommand {\slideentry {1}{0}{5}{6/7}{}{0}}}
\@writefile{nav}{\headcommand {\beamer@framepages {6}{7}}}
\@writefile{nav}{\headcommand {\slideentry {1}{0}{6}{8/13}{}{0}}}
\@writefile{nav}{\headcommand {\beamer@framepages {8}{13}}}
\@writefile{nav}{\headcommand {\slideentry {1}{0}{7}{14/18}{}{0}}}
\@writefile{nav}{\headcommand {\beamer@framepages {14}{18}}}
\@writefile{nav}{\headcommand {\slideentry {1}{0}{8}{19/23}{}{0}}}
\@writefile{nav}{\headcommand {\beamer@framepages {19}{23}}}
\@writefile{toc}{\beamer@sectionintoc {2}{Methodology}{24}{0}{2}}
\@writefile{nav}{\headcommand {\sectionentry {2}{Methodology}{24}{Methodology}{0}}}
\@writefile{nav}{\headcommand {\beamer@sectionpages {3}{23}}}
\@writefile{nav}{\headcommand {\beamer@subsectionpages {3}{23}}}
\@writefile{nav}{\headcommand {\slideentry {2}{0}{9}{24/27}{}{0}}}
\@writefile{nav}{\headcommand {\beamer@framepages {24}{27}}}
\@writefile{nav}{\headcommand {\slideentry {2}{0}{10}{28/33}{}{0}}}
\@writefile{nav}{\headcommand {\beamer@framepages {28}{33}}}
\@writefile{nav}{\headcommand {\slideentry {2}{0}{11}{34/37}{}{0}}}
\@writefile{nav}{\headcommand {\beamer@framepages {34}{37}}}
\@writefile{nav}{\headcommand {\slideentry {2}{0}{12}{38/43}{}{0}}}
\@writefile{nav}{\headcommand {\beamer@framepages {38}{43}}}
\@writefile{nav}{\headcommand {\slideentry {2}{0}{13}{44/48}{}{0}}}
\@writefile{nav}{\headcommand {\beamer@framepages {44}{48}}}
\@writefile{nav}{\headcommand {\slideentry {2}{0}{14}{49/49}{}{0}}}
\@writefile{nav}{\headcommand {\beamer@framepages {49}{49}}}
\@writefile{nav}{\headcommand {\slideentry {2}{0}{15}{50/55}{}{0}}}
\@writefile{nav}{\headcommand {\beamer@framepages {50}{55}}}
\@writefile{nav}{\headcommand {\slideentry {2}{0}{16}{56/56}{}{0}}}
\@writefile{nav}{\headcommand {\beamer@framepages {56}{56}}}
\@writefile{toc}{\beamer@sectionintoc {3}{Results}{57}{0}{3}}
\@writefile{nav}{\headcommand {\sectionentry {3}{Results}{57}{Results}{0}}}
\@writefile{nav}{\headcommand {\beamer@sectionpages {24}{56}}}
\@writefile{nav}{\headcommand {\beamer@subsectionpages {24}{56}}}
\@writefile{nav}{\headcommand {\slideentry {3}{0}{17}{57/58}{}{0}}}
\@writefile{nav}{\headcommand {\beamer@framepages {57}{58}}}
\@writefile{nav}{\headcommand {\slideentry {3}{0}{18}{59/59}{}{0}}}
\@writefile{nav}{\headcommand {\beamer@framepages {59}{59}}}
\@writefile{nav}{\headcommand {\slideentry {3}{0}{19}{60/63}{}{0}}}
\@writefile{nav}{\headcommand {\beamer@framepages {60}{63}}}
\@writefile{nav}{\headcommand {\slideentry {3}{0}{20}{64/64}{}{0}}}
\@writefile{nav}{\headcommand {\beamer@framepages {64}{64}}}
\@writefile{nav}{\headcommand {\slideentry {3}{0}{21}{65/66}{}{0}}}
\@writefile{nav}{\headcommand {\beamer@framepages {65}{66}}}
\@writefile{nav}{\headcommand {\slideentry {3}{0}{22}{67/67}{}{0}}}
\@writefile{nav}{\headcommand {\beamer@framepages {67}{67}}}
\@writefile{nav}{\headcommand {\slideentry {3}{0}{23}{68/68}{}{0}}}
\@writefile{nav}{\headcommand {\beamer@framepages {68}{68}}}
\@writefile{nav}{\headcommand {\slideentry {3}{0}{24}{69/70}{}{0}}}
\@writefile{nav}{\headcommand {\beamer@framepages {69}{70}}}
\@writefile{nav}{\headcommand {\slideentry {3}{0}{25}{71/71}{}{0}}}
\@writefile{nav}{\headcommand {\beamer@framepages {71}{71}}}
\@writefile{nav}{\headcommand {\slideentry {3}{0}{26}{72/72}{}{0}}}
\@writefile{nav}{\headcommand {\beamer@framepages {72}{72}}}
\@writefile{nav}{\headcommand {\slideentry {3}{0}{27}{73/73}{}{0}}}
\@writefile{nav}{\headcommand {\beamer@framepages {73}{73}}}
\@writefile{nav}{\headcommand {\slideentry {3}{0}{28}{74/74}{}{0}}}
\@writefile{nav}{\headcommand {\beamer@framepages {74}{74}}}
\@writefile{toc}{\beamer@sectionintoc {4}{Discussion}{75}{0}{4}}
\@writefile{nav}{\headcommand {\sectionentry {4}{Discussion}{75}{Discussion}{0}}}
\@writefile{nav}{\headcommand {\beamer@sectionpages {57}{74}}}
\@writefile{nav}{\headcommand {\beamer@subsectionpages {57}{74}}}
\@writefile{nav}{\headcommand {\slideentry {4}{0}{29}{75/75}{}{0}}}
\@writefile{nav}{\headcommand {\beamer@framepages {75}{75}}}
\@writefile{nav}{\headcommand {\slideentry {4}{0}{30}{76/77}{}{0}}}
\@writefile{nav}{\headcommand {\beamer@framepages {76}{77}}}
\@writefile{nav}{\headcommand {\slideentry {4}{0}{31}{78/78}{}{0}}}
\@writefile{nav}{\headcommand {\beamer@framepages {78}{78}}}
\@writefile{nav}{\headcommand {\beamer@partpages {1}{78}}}
\@writefile{nav}{\headcommand {\beamer@subsectionpages {75}{78}}}
\@writefile{nav}{\headcommand {\beamer@sectionpages {75}{78}}}
\@writefile{nav}{\headcommand {\beamer@documentpages {78}}}
\@writefile{nav}{\headcommand {\def \inserttotalframenumber {31}}}
