\relax 
\ifx\hyper@anchor\@undefined
\global \let \oldcontentsline\contentsline
\gdef \contentsline#1#2#3#4{\oldcontentsline{#1}{#2}{#3}}
\global \let \oldnewlabel\newlabel
\gdef \newlabel#1#2{\newlabelxx{#1}#2}
\gdef \newlabelxx#1#2#3#4#5#6{\oldnewlabel{#1}{{#2}{#3}}}
\AtEndDocument{\let \contentsline\oldcontentsline
\let \newlabel\oldnewlabel}
\else
\global \let \hyper@last\relax 
\fi

\@writefile{toc}{\beamer@endinputifotherversion {3.10pt}}
\@writefile{nav}{\beamer@endinputifotherversion {3.10pt}}
\select@language{english}
\@writefile{toc}{\select@language{english}}
\@writefile{lof}{\select@language{english}}
\@writefile{lot}{\select@language{english}}
\@writefile{nav}{\headcommand {\slideentry {0}{0}{1}{1/1}{}{0}}}
\@writefile{nav}{\headcommand {\beamer@framepages {1}{1}}}
\@writefile{nav}{\headcommand {\slideentry {0}{0}{2}{2/2}{}{0}}}
\@writefile{nav}{\headcommand {\beamer@framepages {2}{2}}}
\@writefile{toc}{\beamer@sectionintoc {1}{Introduction}{3}{0}{1}}
\@writefile{nav}{\headcommand {\sectionentry {1}{Introduction}{3}{Introduction}{0}}}
\@writefile{nav}{\headcommand {\beamer@sectionpages {1}{2}}}
\@writefile{nav}{\headcommand {\beamer@subsectionpages {1}{2}}}
\@writefile{nav}{\headcommand {\beamer@subsectionentry {0}{1}{1}{3}{}}\headcommand {\beamer@subsectionpages {3}{2}}}
\@writefile{nav}{\headcommand {\slideentry {1}{1}{1}{3/4}{}{0}}}
\@writefile{nav}{\headcommand {\beamer@framepages {3}{4}}}
\@writefile{nav}{\headcommand {\slideentry {1}{1}{2}{5/6}{}{0}}}
\@writefile{nav}{\headcommand {\beamer@framepages {5}{6}}}
\@writefile{nav}{\headcommand {\slideentry {1}{1}{3}{7/9}{}{0}}}
\@writefile{nav}{\headcommand {\beamer@framepages {7}{9}}}
\@writefile{nav}{\headcommand {\slideentry {1}{1}{4}{10/10}{}{0}}}
\@writefile{nav}{\headcommand {\beamer@framepages {10}{10}}}
\@writefile{toc}{\beamer@sectionintoc {2}{Similarity Measures}{11}{0}{2}}
\@writefile{nav}{\headcommand {\sectionentry {2}{Similarity Measures}{11}{Similarity Measures}{0}}}
\@writefile{nav}{\headcommand {\beamer@sectionpages {3}{10}}}
\@writefile{nav}{\headcommand {\beamer@subsectionpages {3}{10}}}
\@writefile{nav}{\headcommand {\beamer@subsectionentry {0}{2}{1}{11}{}}\headcommand {\beamer@subsectionpages {11}{10}}}
\@writefile{nav}{\headcommand {\slideentry {2}{1}{1}{11/11}{}{0}}}
\@writefile{nav}{\headcommand {\beamer@framepages {11}{11}}}
\@writefile{nav}{\headcommand {\slideentry {2}{1}{2}{12/12}{}{0}}}
\@writefile{nav}{\headcommand {\beamer@framepages {12}{12}}}
\@writefile{nav}{\headcommand {\slideentry {2}{1}{3}{13/13}{}{0}}}
\@writefile{nav}{\headcommand {\beamer@framepages {13}{13}}}
\@writefile{nav}{\headcommand {\slideentry {2}{1}{4}{14/14}{}{0}}}
\@writefile{nav}{\headcommand {\beamer@framepages {14}{14}}}
\@writefile{nav}{\headcommand {\slideentry {2}{1}{5}{15/15}{}{0}}}
\@writefile{nav}{\headcommand {\beamer@framepages {15}{15}}}
\@writefile{nav}{\headcommand {\slideentry {2}{1}{6}{16/16}{}{0}}}
\@writefile{nav}{\headcommand {\beamer@framepages {16}{16}}}
\@writefile{nav}{\headcommand {\slideentry {2}{1}{7}{17/17}{}{0}}}
\@writefile{nav}{\headcommand {\beamer@framepages {17}{17}}}
\@writefile{nav}{\headcommand {\slideentry {2}{1}{8}{18/18}{}{0}}}
\@writefile{nav}{\headcommand {\beamer@framepages {18}{18}}}
\@writefile{nav}{\headcommand {\slideentry {2}{1}{9}{19/19}{}{0}}}
\@writefile{nav}{\headcommand {\beamer@framepages {19}{19}}}
\@writefile{nav}{\headcommand {\slideentry {2}{1}{10}{20/20}{}{0}}}
\@writefile{nav}{\headcommand {\beamer@framepages {20}{20}}}
\@writefile{nav}{\headcommand {\slideentry {2}{1}{11}{21/21}{}{0}}}
\@writefile{nav}{\headcommand {\beamer@framepages {21}{21}}}
\newlabel{rfusion}{{1}{22}{\relax }{}{}}
\@writefile{snm}{\beamer@slide {rfusion}{22}}
\@writefile{nav}{\headcommand {\slideentry {2}{1}{12}{22/22}{}{0}}}
\@writefile{nav}{\headcommand {\beamer@framepages {22}{22}}}
\@writefile{nav}{\headcommand {\slideentry {2}{1}{13}{23/23}{}{0}}}
\@writefile{nav}{\headcommand {\beamer@framepages {23}{23}}}
\@writefile{toc}{\beamer@sectionintoc {3}{Evaluation}{24}{0}{3}}
\@writefile{nav}{\headcommand {\sectionentry {3}{Evaluation}{24}{Evaluation}{0}}}
\@writefile{nav}{\headcommand {\beamer@sectionpages {11}{23}}}
\@writefile{nav}{\headcommand {\beamer@subsectionpages {11}{23}}}
\@writefile{nav}{\headcommand {\beamer@subsectionentry {0}{3}{1}{24}{}}\headcommand {\beamer@subsectionpages {24}{23}}}
\@writefile{nav}{\headcommand {\slideentry {3}{1}{1}{24/24}{}{0}}}
\@writefile{nav}{\headcommand {\beamer@framepages {24}{24}}}
\@writefile{nav}{\headcommand {\slideentry {3}{1}{2}{25/25}{}{0}}}
\@writefile{nav}{\headcommand {\beamer@framepages {25}{25}}}
\@writefile{nav}{\headcommand {\slideentry {3}{1}{3}{26/26}{}{0}}}
\@writefile{nav}{\headcommand {\beamer@framepages {26}{26}}}
\@writefile{nav}{\headcommand {\slideentry {3}{1}{4}{27/27}{}{0}}}
\@writefile{nav}{\headcommand {\beamer@framepages {27}{27}}}
\@writefile{toc}{\beamer@sectionintoc {4}{Results}{28}{0}{4}}
\@writefile{nav}{\headcommand {\sectionentry {4}{Results}{28}{Results}{0}}}
\@writefile{nav}{\headcommand {\beamer@sectionpages {24}{27}}}
\@writefile{nav}{\headcommand {\beamer@subsectionpages {24}{27}}}
\@writefile{nav}{\headcommand {\beamer@subsectionentry {0}{4}{1}{28}{}}\headcommand {\beamer@subsectionpages {28}{27}}}
\@writefile{nav}{\headcommand {\slideentry {4}{1}{1}{28/28}{}{0}}}
\@writefile{nav}{\headcommand {\beamer@framepages {28}{28}}}
\@writefile{nav}{\headcommand {\slideentry {4}{1}{2}{29/29}{}{0}}}
\@writefile{nav}{\headcommand {\beamer@framepages {29}{29}}}
\@writefile{nav}{\headcommand {\slideentry {4}{1}{3}{30/30}{}{0}}}
\@writefile{nav}{\headcommand {\beamer@framepages {30}{30}}}
\@writefile{nav}{\headcommand {\slideentry {4}{1}{4}{31/31}{}{0}}}
\@writefile{nav}{\headcommand {\beamer@framepages {31}{31}}}
\@writefile{toc}{\beamer@sectionintoc {5}{Conclusion}{32}{0}{5}}
\@writefile{nav}{\headcommand {\sectionentry {5}{Conclusion}{32}{Conclusion}{0}}}
\@writefile{nav}{\headcommand {\beamer@sectionpages {28}{31}}}
\@writefile{nav}{\headcommand {\beamer@subsectionpages {28}{31}}}
\@writefile{nav}{\headcommand {\beamer@subsectionentry {0}{5}{1}{32}{}}\headcommand {\beamer@subsectionpages {32}{31}}}
\@writefile{nav}{\headcommand {\slideentry {5}{1}{1}{32/32}{}{0}}}
\@writefile{nav}{\headcommand {\beamer@framepages {32}{32}}}
\@writefile{nav}{\headcommand {\slideentry {5}{1}{2}{33/33}{}{0}}}
\@writefile{nav}{\headcommand {\beamer@framepages {33}{33}}}
\@writefile{nav}{\headcommand {\beamer@partpages {1}{33}}}
\@writefile{nav}{\headcommand {\beamer@subsectionpages {32}{33}}}
\@writefile{nav}{\headcommand {\beamer@sectionpages {32}{33}}}
\@writefile{nav}{\headcommand {\beamer@documentpages {33}}}
\@writefile{nav}{\headcommand {\def \inserttotalframenumber {29}}}
