%!PS-Adobe-3.0 EPSF-3.0
%%Creator: MATLAB, The Mathworks, Inc. Version 7.10.0.499 (R2010a). Operating System: Microsoft Windows Server 2008 R2.
%%Title: C:\Users\Alexander\Desktop\16vs1.eps
%%CreationDate: 02/05/2012  20:14:38
%%DocumentNeededFonts: Helvetica
%%+ Times-Bold
%%DocumentProcessColors: Cyan Magenta Yellow Black
%%LanguageLevel: 2
%%Pages: 1
%%BoundingBox:   -91   126   703   665
%%EndComments

%%BeginProlog
% MathWorks dictionary
/MathWorks 160 dict begin
% definition operators
/bdef {bind def} bind def
/ldef {load def} bind def
/xdef {exch def} bdef
/xstore {exch store} bdef
% operator abbreviations
/c  /clip ldef
/cc /concat ldef
/cp /closepath ldef
/gr /grestore ldef
/gs /gsave ldef
/mt /moveto ldef
/np /newpath ldef
/cm /currentmatrix ldef
/sm /setmatrix ldef
/rm /rmoveto ldef
/rl /rlineto ldef
/s {show newpath} bdef
/sc {setcmykcolor} bdef
/sr /setrgbcolor ldef
/sg /setgray ldef
/w /setlinewidth ldef
/j /setlinejoin ldef
/cap /setlinecap ldef
/rc {rectclip} bdef
/rf {rectfill} bdef
% page state control
/pgsv () def
/bpage {/pgsv save def} bdef
/epage {pgsv restore} bdef
/bplot /gsave ldef
/eplot {stroke grestore} bdef
% orientation switch
/portraitMode 0 def /landscapeMode 1 def /rotateMode 2 def
% coordinate system mappings
/dpi2point 0 def
% font control
/FontSize 0 def
/FMS {/FontSize xstore findfont [FontSize 0 0 FontSize neg 0 0]
  makefont setfont} bdef
/ISOLatin1Encoding where {pop /WindowsLatin1Encoding 256 array bdef
ISOLatin1Encoding WindowsLatin1Encoding copy pop
/.notdef/.notdef/quotesinglbase/florin/quotedblbase/ellipsis/dagger
/daggerdbl/circumflex/perthousand/Scaron/guilsinglleft/OE/.notdef/.notdef
/.notdef/.notdef/quoteleft/quoteright/quotedblleft/quotedblright/bullet
/endash/emdash/tilde/trademark/scaron/guilsinglright/oe/.notdef/.notdef
/Ydieresis WindowsLatin1Encoding 128 32 getinterval astore pop}
{/WindowsLatin1Encoding StandardEncoding bdef} ifelse
/reencode {exch dup where {pop load} {pop StandardEncoding} ifelse
  exch dup 3 1 roll findfont dup length dict begin
  { 1 index /FID ne {def}{pop pop} ifelse } forall
  /Encoding exch def currentdict end definefont pop} bdef
/isroman {findfont /CharStrings get /Agrave known} bdef
/FMSR {3 1 roll 1 index dup isroman {reencode} {pop pop} ifelse
  exch FMS} bdef
/csm {1 dpi2point div -1 dpi2point div scale neg translate
 dup landscapeMode eq {pop -90 rotate}
  {rotateMode eq {90 rotate} if} ifelse} bdef
% line types: solid, dotted, dashed, dotdash
/SO { [] 0 setdash } bdef
/DO { [.5 dpi2point mul 4 dpi2point mul] 0 setdash } bdef
/DA { [6 dpi2point mul] 0 setdash } bdef
/DD { [.5 dpi2point mul 4 dpi2point mul 6 dpi2point mul 4
  dpi2point mul] 0 setdash } bdef
% macros for lines and objects
/L {lineto stroke} bdef
/MP {3 1 roll moveto 1 sub {rlineto} repeat} bdef
/AP {{rlineto} repeat} bdef
/PDlw -1 def
/W {/PDlw currentlinewidth def setlinewidth} def
/PP {closepath eofill} bdef
/DP {closepath stroke} bdef
/MR {4 -2 roll moveto dup  0 exch rlineto exch 0 rlineto
  neg 0 exch rlineto closepath} bdef
/FR {MR stroke} bdef
/PR {MR fill} bdef
/L1i {{currentfile picstr readhexstring pop} image} bdef
/tMatrix matrix def
/MakeOval {newpath tMatrix currentmatrix pop translate scale
0 0 1 0 360 arc tMatrix setmatrix} bdef
/FO {MakeOval stroke} bdef
/PO {MakeOval fill} bdef
/PD {currentlinewidth 2 div 0 360 arc fill
   PDlw -1 eq not {PDlw w /PDlw -1 def} if} def
/FA {newpath tMatrix currentmatrix pop translate scale
  0 0 1 5 -2 roll arc tMatrix setmatrix stroke} bdef
/PA {newpath tMatrix currentmatrix pop	translate 0 0 moveto scale
  0 0 1 5 -2 roll arc closepath tMatrix setmatrix fill} bdef
/FAn {newpath tMatrix currentmatrix pop translate scale
  0 0 1 5 -2 roll arcn tMatrix setmatrix stroke} bdef
/PAn {newpath tMatrix currentmatrix pop translate 0 0 moveto scale
  0 0 1 5 -2 roll arcn closepath tMatrix setmatrix fill} bdef
/vradius 0 def /hradius 0 def /lry 0 def
/lrx 0 def /uly 0 def /ulx 0 def /rad 0 def
/MRR {/vradius xdef /hradius xdef /lry xdef /lrx xdef /uly xdef
  /ulx xdef newpath tMatrix currentmatrix pop ulx hradius add uly
  vradius add translate hradius vradius scale 0 0 1 180 270 arc 
  tMatrix setmatrix lrx hradius sub uly vradius add translate
  hradius vradius scale 0 0 1 270 360 arc tMatrix setmatrix
  lrx hradius sub lry vradius sub translate hradius vradius scale
  0 0 1 0 90 arc tMatrix setmatrix ulx hradius add lry vradius sub
  translate hradius vradius scale 0 0 1 90 180 arc tMatrix setmatrix
  closepath} bdef
/FRR {MRR stroke } bdef
/PRR {MRR fill } bdef
/MlrRR {/lry xdef /lrx xdef /uly xdef /ulx xdef /rad lry uly sub 2 div def
  newpath tMatrix currentmatrix pop ulx rad add uly rad add translate
  rad rad scale 0 0 1 90 270 arc tMatrix setmatrix lrx rad sub lry rad
  sub translate rad rad scale 0 0 1 270 90 arc tMatrix setmatrix
  closepath} bdef
/FlrRR {MlrRR stroke } bdef
/PlrRR {MlrRR fill } bdef
/MtbRR {/lry xdef /lrx xdef /uly xdef /ulx xdef /rad lrx ulx sub 2 div def
  newpath tMatrix currentmatrix pop ulx rad add uly rad add translate
  rad rad scale 0 0 1 180 360 arc tMatrix setmatrix lrx rad sub lry rad
  sub translate rad rad scale 0 0 1 0 180 arc tMatrix setmatrix
  closepath} bdef
/FtbRR {MtbRR stroke } bdef
/PtbRR {MtbRR fill } bdef
/stri 6 array def /dtri 6 array def
/smat 6 array def /dmat 6 array def
/tmat1 6 array def /tmat2 6 array def /dif 3 array def
/asub {/ind2 exch def /ind1 exch def dup dup
  ind1 get exch ind2 get sub exch } bdef
/tri_to_matrix {
  2 0 asub 3 1 asub 4 0 asub 5 1 asub
  dup 0 get exch 1 get 7 -1 roll astore } bdef
/compute_transform {
  dmat dtri tri_to_matrix tmat1 invertmatrix 
  smat stri tri_to_matrix tmat2 concatmatrix } bdef
/ds {stri astore pop} bdef
/dt {dtri astore pop} bdef
/db {2 copy /cols xdef /rows xdef mul dup 3 mul string
  currentfile 
  3 index 0 eq {/ASCIIHexDecode filter}
  {/ASCII85Decode filter 3 index 2 eq {/RunLengthDecode filter} if }
  ifelse exch readstring pop
  dup 0 3 index getinterval /rbmap xdef
  dup 2 index dup getinterval /gbmap xdef
  1 index dup 2 mul exch getinterval /bbmap xdef pop pop}bdef
/it {gs np dtri aload pop moveto lineto lineto cp c
  cols rows 8 compute_transform 
  rbmap gbmap bbmap true 3 colorimage gr}bdef
/il {newpath moveto lineto stroke}bdef
currentdict end def
%%EndProlog

%%BeginSetup
MathWorks begin

0 cap

end
%%EndSetup

%%Page: 1 1
%%BeginPageSetup
%%PageBoundingBox:   -91   126   703   665
MathWorks begin
bpage
%%EndPageSetup

%%BeginObject: obj1
bplot

/dpi2point 12 def
portraitMode -1092 7980 csm

    0     0  9532  6465 rc
91 dict begin %Colortable dictionary
/c0 { 0.000000 0.000000 0.000000 sr} bdef
/c1 { 1.000000 1.000000 1.000000 sr} bdef
/c2 { 0.900000 0.000000 0.000000 sr} bdef
/c3 { 0.000000 0.820000 0.000000 sr} bdef
/c4 { 0.000000 0.000000 0.800000 sr} bdef
/c5 { 0.910000 0.820000 0.320000 sr} bdef
/c6 { 1.000000 0.260000 0.820000 sr} bdef
/c7 { 0.000000 0.820000 0.820000 sr} bdef
c0
1 j
1 sg
   0    0 9533 6466 rf
6 w
0 5269 7387 0 0 -5269 1239 5754 4 MP
PP
-7387 0 0 5269 7387 0 0 -5269 1239 5754 5 MP stroke
4 w
DO
0 sg
1239 5754 mt 1239  485 L
1239  485 mt 1239  485 L
1977 5754 mt 1977  485 L
1977  485 mt 1977  485 L
2716 5754 mt 2716  485 L
2716  485 mt 2716  485 L
3455 5754 mt 3455  485 L
3455  485 mt 3455  485 L
4193 5754 mt 4193  485 L
4193  485 mt 4193  485 L
4932 5754 mt 4932  485 L
4932  485 mt 4932  485 L
5671 5754 mt 5671  485 L
5671  485 mt 5671  485 L
6409 5754 mt 6409  485 L
6409  485 mt 6409  485 L
7148 5754 mt 7148  485 L
7148  485 mt 7148  485 L
7887 5754 mt 7887  485 L
7887  485 mt 7887  485 L
8626 5754 mt 8626  485 L
8626  485 mt 8626  485 L
1239 5754 mt 8626 5754 L
8626 5754 mt 8626 5754 L
1239 5227 mt 8626 5227 L
8626 5227 mt 8626 5227 L
1239 4700 mt 8626 4700 L
8626 4700 mt 8626 4700 L
1239 4173 mt 8626 4173 L
8626 4173 mt 8626 4173 L
1239 3646 mt 8626 3646 L
8626 3646 mt 8626 3646 L
1239 3119 mt 8626 3119 L
8626 3119 mt 8626 3119 L
1239 2592 mt 8626 2592 L
8626 2592 mt 8626 2592 L
1239 2065 mt 8626 2065 L
8626 2065 mt 8626 2065 L
1239 1538 mt 8626 1538 L
8626 1538 mt 8626 1538 L
1239 1011 mt 8626 1011 L
8626 1011 mt 8626 1011 L
1239  485 mt 8626  485 L
8626  485 mt 8626  485 L
SO
6 w
1239 5754 mt 8626 5754 L
1239 5754 mt 1239  485 L
1239 5754 mt 1239 5680 L
%%IncludeResource: font Times-Bold
/Times-Bold /WindowsLatin1Encoding 240 FMSR

1179 6012 mt 
(0) s
1977 5754 mt 1977 5680 L
1827 6012 mt 
(0.1) s
2716 5754 mt 2716 5680 L
2566 6012 mt 
(0.2) s
3455 5754 mt 3455 5680 L
3305 6012 mt 
(0.3) s
4193 5754 mt 4193 5680 L
4043 6012 mt 
(0.4) s
4932 5754 mt 4932 5680 L
4782 6012 mt 
(0.5) s
5671 5754 mt 5671 5680 L
5521 6012 mt 
(0.6) s
6409 5754 mt 6409 5680 L
6259 6012 mt 
(0.7) s
7148 5754 mt 7148 5680 L
6998 6012 mt 
(0.8) s
7887 5754 mt 7887 5680 L
7737 6012 mt 
(0.9) s
8626 5754 mt 8626 5680 L
8566 6012 mt 
(1) s
1239 5754 mt 1312 5754 L
 904 5843 mt 
(0.5) s
1239 5227 mt 1312 5227 L
 784 5316 mt 
(0.55) s
1239 4700 mt 1312 4700 L
 904 4789 mt 
(0.6) s
1239 4173 mt 1312 4173 L
 784 4262 mt 
(0.65) s
1239 3646 mt 1312 3646 L
 904 3735 mt 
(0.7) s
1239 3119 mt 1312 3119 L
 784 3208 mt 
(0.75) s
1239 2592 mt 1312 2592 L
 904 2681 mt 
(0.8) s
1239 2065 mt 1312 2065 L
 784 2154 mt 
(0.85) s
1239 1538 mt 1312 1538 L
 904 1627 mt 
(0.9) s
1239 1011 mt 1312 1011 L
 784 1100 mt 
(0.95) s
1239  485 mt 1312  485 L
1084  574 mt 
(1) s
gs 1239 485 7388 5270 rc
24 w
/c8 { 0.000000 1.000000 0.000000 sr} bdef
c8
4 44 7 47 8 53 9 55 9 54 8 61 9 60 9 59 
13 56 14 61 13 61 12 62 13 62 13 64 20 62 25 56 
20 62 22 63 26 61 26 62 30 58 29 61 27 69 26 55 
36 71 34 64 29 68 33 69 35 63 43 68 38 68 41 66 
43 68 50 57 38 76 45 71 54 64 47 74 57 58 57 65 
56 68 60 63 70 57 65 55 74 57 59 76 70 60 72 62 
63 48 95 61 83 53 86 43 85 51 88 52 89 48 92 48 
101 31 101 35 100 39 92 48 99 46 98 50 101 48 101 35 
105 39 108 40 110 34 105 44 111 39 112 37 117 34 111 29 
117 27 108 20 134 15 118 43 120 18 117 39 123 28 124 25 
121 25 124 26 124 30 120 37 129 26 125 28 125 37 129 17 
130 -2 134 13 131 13 130 38 137 5 125 -13 139 13 129 2 
126 43 138 37 35 -53 1339 695 100 MP stroke
gr

24 w
c8
0 j
36 47 -36 47 -36 -47 36 -47 1339 742 5 MP
gs
PP
gr
DP
36 47 -36 47 -36 -47 36 -47 1374 689 5 MP
gs
PP
gr
DP
36 47 -36 47 -36 -47 36 -47 1512 726 5 MP
gs
PP
gr
DP
36 47 -36 47 -36 -47 36 -47 1638 769 5 MP
gs
PP
gr
DP
36 47 -36 47 -36 -47 36 -47 1767 771 5 MP
gs
PP
gr
DP
36 47 -36 47 -36 -47 36 -47 1906 784 5 MP
gs
PP
gr
DP
36 47 -36 47 -36 -47 36 -47 2031 771 5 MP
gs
PP
gr
DP
36 47 -36 47 -36 -47 36 -47 2168 776 5 MP
gs
PP
gr
DP
36 47 -36 47 -36 -47 36 -47 2298 814 5 MP
gs
PP
gr
DP
36 47 -36 47 -36 -47 36 -47 2429 827 5 MP
gs
PP
gr
DP
36 47 -36 47 -36 -47 36 -47 2563 840 5 MP
gs
PP
gr
DP
36 47 -36 47 -36 -47 36 -47 2693 838 5 MP
gs
PP
gr
DP
36 47 -36 47 -36 -47 36 -47 2822 855 5 MP
gs
PP
gr
DP
36 47 -36 47 -36 -47 36 -47 2947 892 5 MP
gs
PP
gr
DP
36 47 -36 47 -36 -47 36 -47 3072 920 5 MP
gs
PP
gr
DP
36 47 -36 47 -36 -47 36 -47 3201 946 5 MP
gs
PP
gr
DP
36 47 -36 47 -36 -47 36 -47 3321 983 5 MP
gs
PP
gr
DP
36 47 -36 47 -36 -47 36 -47 3445 1013 5 MP
gs
PP
gr
DP
36 47 -36 47 -36 -47 36 -47 3569 1039 5 MP
gs
PP
gr
DP
36 47 -36 47 -36 -47 36 -47 3690 1064 5 MP
gs
PP
gr
DP
36 47 -36 47 -36 -47 36 -47 3814 1089 5 MP
gs
PP
gr
DP
36 47 -36 47 -36 -47 36 -47 3937 1117 5 MP
gs
PP
gr
DP
36 47 -36 47 -36 -47 36 -47 4054 1156 5 MP
gs
PP
gr
DP
36 47 -36 47 -36 -47 36 -47 4174 1174 5 MP
gs
PP
gr
DP
36 47 -36 47 -36 -47 36 -47 4292 1217 5 MP
gs
PP
gr
DP
36 47 -36 47 -36 -47 36 -47 4426 1232 5 MP
gs
PP
gr
DP
36 47 -36 47 -36 -47 36 -47 4534 1252 5 MP
gs
PP
gr
DP
36 47 -36 47 -36 -47 36 -47 4651 1279 5 MP
gs
PP
gr
DP
36 47 -36 47 -36 -47 36 -47 4762 1308 5 MP
gs
PP
gr
DP
36 47 -36 47 -36 -47 36 -47 4879 1342 5 MP
gs
PP
gr
DP
36 47 -36 47 -36 -47 36 -47 4991 1379 5 MP
gs
PP
gr
DP
36 47 -36 47 -36 -47 36 -47 5102 1418 5 MP
gs
PP
gr
DP
36 47 -36 47 -36 -47 36 -47 5207 1462 5 MP
gs
PP
gr
DP
36 47 -36 47 -36 -47 36 -47 5317 1496 5 MP
gs
PP
gr
DP
36 47 -36 47 -36 -47 36 -47 5425 1536 5 MP
gs
PP
gr
DP
36 47 -36 47 -36 -47 36 -47 5530 1575 5 MP
gs
PP
gr
DP
36 47 -36 47 -36 -47 36 -47 5631 1610 5 MP
gs
PP
gr
DP
36 47 -36 47 -36 -47 36 -47 5732 1658 5 MP
gs
PP
gr
DP
36 47 -36 47 -36 -47 36 -47 5830 1708 5 MP
gs
PP
gr
DP
36 47 -36 47 -36 -47 36 -47 5929 1754 5 MP
gs
PP
gr
DP
36 47 -36 47 -36 -47 36 -47 6021 1802 5 MP
gs
PP
gr
DP
36 47 -36 47 -36 -47 36 -47 6121 1841 5 MP
gs
PP
gr
DP
36 47 -36 47 -36 -47 36 -47 6222 1876 5 MP
gs
PP
gr
DP
36 47 -36 47 -36 -47 36 -47 6323 1907 5 MP
gs
PP
gr
DP
36 47 -36 47 -36 -47 36 -47 6415 1955 5 MP
gs
PP
gr
DP
36 47 -36 47 -36 -47 36 -47 6504 2003 5 MP
gs
PP
gr
DP
36 47 -36 47 -36 -47 36 -47 6592 2055 5 MP
gs
PP
gr
DP
36 47 -36 47 -36 -47 36 -47 6677 2106 5 MP
gs
PP
gr
DP
36 47 -36 47 -36 -47 36 -47 6763 2149 5 MP
gs
PP
gr
DP
36 47 -36 47 -36 -47 36 -47 6846 2202 5 MP
gs
PP
gr
DP
36 47 -36 47 -36 -47 36 -47 6941 2263 5 MP
gs
PP
gr
DP
36 47 -36 47 -36 -47 36 -47 7004 2311 5 MP
gs
PP
gr
DP
36 47 -36 47 -36 -47 36 -47 7076 2373 5 MP
gs
PP
gr
DP
36 47 -36 47 -36 -47 36 -47 7146 2433 5 MP
gs
PP
gr
DP
36 47 -36 47 -36 -47 36 -47 7205 2509 5 MP
gs
PP
gr
DP
36 47 -36 47 -36 -47 36 -47 7279 2566 5 MP
gs
PP
gr
DP
36 47 -36 47 -36 -47 36 -47 7344 2621 5 MP
gs
PP
gr
DP
36 47 -36 47 -36 -47 36 -47 7414 2678 5 MP
gs
PP
gr
DP
36 47 -36 47 -36 -47 36 -47 7474 2741 5 MP
gs
PP
gr
DP
36 47 -36 47 -36 -47 36 -47 7530 2809 5 MP
gs
PP
gr
DP
36 47 -36 47 -36 -47 36 -47 7587 2874 5 MP
gs
PP
gr
DP
36 47 -36 47 -36 -47 36 -47 7644 2932 5 MP
gs
PP
gr
DP
36 47 -36 47 -36 -47 36 -47 7691 3006 5 MP
gs
PP
gr
DP
36 47 -36 47 -36 -47 36 -47 7745 3070 5 MP
gs
PP
gr
DP
36 47 -36 47 -36 -47 36 -47 7790 3141 5 MP
gs
PP
gr
DP
36 47 -36 47 -36 -47 36 -47 7828 3217 5 MP
gs
PP
gr
DP
36 47 -36 47 -36 -47 36 -47 7878 3274 5 MP
gs
PP
gr
DP
36 47 -36 47 -36 -47 36 -47 7921 3342 5 MP
gs
PP
gr
DP
36 47 -36 47 -36 -47 36 -47 7962 3408 5 MP
gs
PP
gr
DP
36 47 -36 47 -36 -47 36 -47 8000 3476 5 MP
gs
PP
gr
DP
36 47 -36 47 -36 -47 36 -47 8043 3544 5 MP
gs
PP
gr
DP
36 47 -36 47 -36 -47 36 -47 8078 3607 5 MP
gs
PP
gr
DP
36 47 -36 47 -36 -47 36 -47 8111 3676 5 MP
gs
PP
gr
DP
36 47 -36 47 -36 -47 36 -47 8140 3744 5 MP
gs
PP
gr
DP
36 47 -36 47 -36 -47 36 -47 8174 3808 5 MP
gs
PP
gr
DP
36 47 -36 47 -36 -47 36 -47 8210 3879 5 MP
gs
PP
gr
DP
36 47 -36 47 -36 -47 36 -47 8236 3934 5 MP
gs
PP
gr
DP
36 47 -36 47 -36 -47 36 -47 8263 4003 5 MP
gs
PP
gr
DP
36 47 -36 47 -36 -47 36 -47 8292 4064 5 MP
gs
PP
gr
DP
36 47 -36 47 -36 -47 36 -47 8322 4122 5 MP
gs
PP
gr
DP
36 47 -36 47 -36 -47 36 -47 8348 4184 5 MP
gs
PP
gr
DP
36 47 -36 47 -36 -47 36 -47 8374 4245 5 MP
gs
PP
gr
DP
36 47 -36 47 -36 -47 36 -47 8396 4308 5 MP
gs
PP
gr
DP
36 47 -36 47 -36 -47 36 -47 8416 4370 5 MP
gs
PP
gr
DP
36 47 -36 47 -36 -47 36 -47 8441 4426 5 MP
gs
PP
gr
DP
36 47 -36 47 -36 -47 36 -47 8461 4488 5 MP
gs
PP
gr
DP
36 47 -36 47 -36 -47 36 -47 8474 4552 5 MP
gs
PP
gr
DP
36 47 -36 47 -36 -47 36 -47 8487 4614 5 MP
gs
PP
gr
DP
36 47 -36 47 -36 -47 36 -47 8499 4676 5 MP
gs
PP
gr
DP
36 47 -36 47 -36 -47 36 -47 8512 4737 5 MP
gs
PP
gr
DP
36 47 -36 47 -36 -47 36 -47 8526 4798 5 MP
gs
PP
gr
DP
36 47 -36 47 -36 -47 36 -47 8539 4854 5 MP
gs
PP
gr
DP
36 47 -36 47 -36 -47 36 -47 8548 4913 5 MP
gs
PP
gr
DP
36 47 -36 47 -36 -47 36 -47 8557 4973 5 MP
gs
PP
gr
DP
36 47 -36 47 -36 -47 36 -47 8565 5034 5 MP
gs
PP
gr
DP
36 47 -36 47 -36 -47 36 -47 8574 5088 5 MP
gs
PP
gr
DP
36 47 -36 47 -36 -47 36 -47 8583 5143 5 MP
gs
PP
gr
DP
36 47 -36 47 -36 -47 36 -47 8591 5196 5 MP
gs
PP
gr
DP
36 47 -36 47 -36 -47 36 -47 8598 5243 5 MP
gs
PP
gr
DP
36 47 -36 47 -36 -47 36 -47 8602 5287 5 MP
gs
PP
gr
DP
gs 1239 485 7388 5270 rc
18 w
1 1 1 2 0 1 2 1 2 4 3 4 3 6 3 7 
4 8 2 11 7 8 6 10 9 11 10 11 10 18 13 14 
11 18 18 16 16 19 23 20 26 22 21 28 36 19 27 28 
32 30 32 34 35 35 41 30 41 28 43 32 40 38 48 32 
50 38 44 43 59 37 60 34 53 51 59 48 57 29 75 52 
66 47 57 58 67 50 73 44 64 60 69 56 70 54 72 57 
79 49 71 60 82 49 82 55 87 48 84 47 83 60 86 64 
84 67 85 66 96 52 100 44 94 68 89 63 99 58 90 54 
113 59 106 59 106 50 111 33 110 54 111 54 116 29 118 33 
116 39 117 27 124 25 117 44 120 40 120 48 118 54 129 19 
124 41 128 23 129 70 118 50 135 63 124 75 125 70 138 37 
34 52 1340 590 90 MP stroke
/c9 { 0.000000 0.000000 1.000000 sr} bdef
c9
8 6 17 10 25 14 29 19 33 21 33 28 36 28 32 33 
24 41 33 39 34 38 28 42 33 40 34 41 34 43 31 44 
40 39 34 45 40 42 38 44 39 43 38 47 40 48 38 37 
49 49 52 38 41 46 44 49 47 42 52 48 48 46 49 48 
52 48 51 45 55 45 53 50 55 50 62 43 65 35 63 44 
67 38 65 42 59 55 64 41 71 45 64 52 72 39 74 39 
60 38 86 51 73 48 76 39 79 41 83 36 79 43 83 41 
74 54 84 41 89 38 77 51 88 41 94 32 82 60 92 26 
95 33 92 45 90 50 92 44 98 37 104 25 104 29 99 27 
98 48 85 53 104 68 102 55 107 23 106 34 110 33 110 33 
109 29 110 41 112 26 106 50 115 45 112 39 117 16 114 51 
116 23 121 27 116 62 120 39 126 22 111 66 128 70 118 77 
120 34 128 247 33 103 1337 853 100 MP stroke
24 w
3 40 4 45 8 51 9 54 14 49 16 54 18 52 13 56 
18 52 15 60 22 52 19 56 24 52 25 53 23 58 25 55 
27 54 25 59 26 61 30 57 36 51 28 61 38 56 26 55 
41 63 36 60 37 58 39 61 42 53 45 64 45 58 49 55 
44 64 49 55 46 65 49 63 53 60 52 66 58 54 61 56 
53 68 64 54 69 53 58 61 75 52 68 59 71 53 73 56 
65 41 98 49 78 55 86 37 79 57 80 58 78 63 86 53 
88 48 88 52 91 54 86 53 91 57 95 52 95 55 99 36 
93 59 104 46 105 42 107 33 106 47 111 36 106 59 103 46 
109 48 99 43 125 45 113 56 113 44 112 58 114 63 119 47 
118 49 122 42 126 22 124 26 130 31 126 31 125 43 129 29 
129 18 136 13 132 27 134 18 136 43 126 6 142 8 131 13 
130 7 140 19 35 0 1341 485 100 MP stroke
gr

c9
  36   36 1341  485 PO
  36   36 1376  485 PO
  36   36 1516  504 PO
  36   36 1646  511 PO
  36   36 1777  524 PO
  36   36 1919  532 PO
  36   36 2045  538 PO
  36   36 2181  581 PO
  36   36 2315  599 PO
  36   36 2447  626 PO
  36   36 2583  639 PO
  36   36 2712  657 PO
  36   36 2841  686 PO
  36   36 2966  729 PO
  36   36 3092  760 PO
  36   36 3222  791 PO
  36   36 3346  817 PO
  36   36 3472  839 PO
  36   36 3594  881 PO
  36   36 3712  930 PO
  36   36 3831  977 PO
  36   36 3945 1040 PO
  36   36 4057 1098 PO
  36   36 4170 1142 PO
  36   36 4283 1198 PO
  36   36 4408 1243 PO
  36   36 4507 1286 PO
  36   36 4616 1334 PO
  36   36 4719 1380 PO
  36   36 4825 1439 PO
  36   36 4936 1475 PO
  36   36 5042 1522 PO
  36   36 5149 1555 PO
  36   36 5254 1597 PO
  36   36 5358 1643 PO
  36   36 5451 1702 PO
  36   36 5550 1738 PO
  36   36 5645 1793 PO
  36   36 5740 1845 PO
  36   36 5831 1902 PO
  36   36 5917 1955 PO
  36   36 6008 2009 PO
  36   36 6096 2061 PO
  36   36 6184 2109 PO
  36   36 6270 2162 PO
  36   36 6348 2225 PO
  36   36 6428 2283 PO
  36   36 6507 2340 PO
  36   36 6593 2377 PO
  36   36 6671 2432 PO
  36   36 6769 2481 PO
  36   36 6834 2522 PO
  36   36 6907 2578 PO
  36   36 6978 2631 PO
  36   36 7046 2690 PO
  36   36 7121 2742 PO
  36   36 7179 2803 PO
  36   36 7248 2856 PO
  36   36 7312 2910 PO
  36   36 7365 2978 PO
  36   36 7426 3034 PO
  36   36 7484 3088 PO
  36   36 7536 3154 PO
  36   36 7589 3214 PO
  36   36 7638 3277 PO
  36   36 7684 3342 PO
  36   36 7733 3397 PO
  36   36 7777 3461 PO
  36   36 7826 3516 PO
  36   36 7871 3574 PO
  36   36 7916 3638 PO
  36   36 7958 3691 PO
  36   36 7997 3752 PO
  36   36 8034 3810 PO
  36   36 8070 3870 PO
  36   36 8111 3933 PO
  36   36 8137 3988 PO
  36   36 8175 4044 PO
  36   36 8203 4105 PO
  36   36 8239 4156 PO
  36   36 8269 4213 PO
  36   36 8295 4274 PO
  36   36 8320 4333 PO
  36   36 8347 4387 PO
  36   36 8372 4442 PO
  36   36 8395 4500 PO
  36   36 8420 4553 PO
  36   36 8444 4605 PO
  36   36 8463 4661 PO
  36   36 8485 4713 PO
  36   36 8500 4773 PO
  36   36 8518 4825 PO
  36   36 8531 4881 PO
  36   36 8549 4933 PO
  36   36 8565 4987 PO
  36   36 8579 5036 PO
  36   36 8588 5090 PO
  36   36 8596 5141 PO
  36   36 8600 5186 PO
  36   36 8603 5226 PO
  36   36 1341  485 FO
  36   36 1376  485 FO
  36   36 1516  504 FO
  36   36 1646  511 FO
  36   36 1777  524 FO
  36   36 1919  532 FO
  36   36 2045  538 FO
  36   36 2181  581 FO
  36   36 2315  599 FO
  36   36 2447  626 FO
  36   36 2583  639 FO
  36   36 2712  657 FO
  36   36 2841  686 FO
  36   36 2966  729 FO
  36   36 3092  760 FO
  36   36 3222  791 FO
  36   36 3346  817 FO
  36   36 3472  839 FO
  36   36 3594  881 FO
  36   36 3712  930 FO
  36   36 3831  977 FO
  36   36 3945 1040 FO
  36   36 4057 1098 FO
  36   36 4170 1142 FO
  36   36 4283 1198 FO
  36   36 4408 1243 FO
  36   36 4507 1286 FO
  36   36 4616 1334 FO
  36   36 4719 1380 FO
  36   36 4825 1439 FO
  36   36 4936 1475 FO
  36   36 5042 1522 FO
  36   36 5149 1555 FO
  36   36 5254 1597 FO
  36   36 5358 1643 FO
  36   36 5451 1702 FO
  36   36 5550 1738 FO
  36   36 5645 1793 FO
  36   36 5740 1845 FO
  36   36 5831 1902 FO
  36   36 5917 1955 FO
  36   36 6008 2009 FO
  36   36 6096 2061 FO
  36   36 6184 2109 FO
  36   36 6270 2162 FO
  36   36 6348 2225 FO
  36   36 6428 2283 FO
  36   36 6507 2340 FO
  36   36 6593 2377 FO
  36   36 6671 2432 FO
  36   36 6769 2481 FO
  36   36 6834 2522 FO
  36   36 6907 2578 FO
  36   36 6978 2631 FO
  36   36 7046 2690 FO
  36   36 7121 2742 FO
  36   36 7179 2803 FO
  36   36 7248 2856 FO
  36   36 7312 2910 FO
  36   36 7365 2978 FO
  36   36 7426 3034 FO
  36   36 7484 3088 FO
  36   36 7536 3154 FO
  36   36 7589 3214 FO
  36   36 7638 3277 FO
  36   36 7684 3342 FO
  36   36 7733 3397 FO
  36   36 7777 3461 FO
  36   36 7826 3516 FO
  36   36 7871 3574 FO
  36   36 7916 3638 FO
  36   36 7958 3691 FO
  36   36 7997 3752 FO
  36   36 8034 3810 FO
  36   36 8070 3870 FO
  36   36 8111 3933 FO
  36   36 8137 3988 FO
  36   36 8175 4044 FO
  36   36 8203 4105 FO
  36   36 8239 4156 FO
  36   36 8269 4213 FO
  36   36 8295 4274 FO
  36   36 8320 4333 FO
  36   36 8347 4387 FO
  36   36 8372 4442 FO
  36   36 8395 4500 FO
  36   36 8420 4553 FO
  36   36 8444 4605 FO
  36   36 8463 4661 FO
  36   36 8485 4713 FO
  36   36 8500 4773 FO
  36   36 8518 4825 FO
  36   36 8531 4881 FO
  36   36 8549 4933 FO
  36   36 8565 4987 FO
  36   36 8579 5036 FO
  36   36 8588 5090 FO
  36   36 8596 5141 FO
  36   36 8600 5186 FO
  36   36 8603 5226 FO
gs 1239 485 7388 5270 rc
/c10 { 1.000000 0.000000 1.000000 sr} bdef
c10
1 0 1 1 2 0 2 3 4 1 6 4 3 8 4 12 
10 11 8 18 9 19 14 23 11 31 17 38 12 42 24 40 
23 45 24 51 23 54 26 62 28 47 34 65 30 63 35 55 
34 64 40 54 39 68 34 67 47 56 45 61 40 63 48 60 
50 59 51 62 50 64 53 58 52 65 57 62 59 59 58 65 
55 64 67 61 66 60 69 54 70 58 60 48 91 57 78 54 
77 51 77 56 82 54 84 50 82 59 90 42 91 47 97 38 
80 62 96 45 96 45 93 56 91 50 94 57 98 57 98 53 
101 48 108 39 103 54 109 46 104 41 112 37 99 38 127 32 
119 33 114 36 115 39 116 47 118 46 120 27 122 31 122 29 
118 42 128 26 121 47 125 32 129 15 125 31 134 6 129 22 
130 34 135 39 123 11 140 -1 127 31 128 24 138 17 34 52 
1340 590 97 MP stroke
gr

c10
-41 71 -41 -71 82 0 1299 614 4 MP
gs
PP
gr
DP
-41 71 -41 -71 82 0 1333 666 4 MP
gs
PP
gr
DP
-41 71 -41 -71 82 0 1471 683 4 MP
gs
PP
gr
DP
-41 71 -41 -71 82 0 1599 707 4 MP
gs
PP
gr
DP
-41 71 -41 -71 82 0 1726 738 4 MP
gs
PP
gr
DP
-41 71 -41 -71 82 0 1866 737 4 MP
gs
PP
gr
DP
-41 71 -41 -71 82 0 1989 748 4 MP
gs
PP
gr
DP
-41 71 -41 -71 82 0 2124 787 4 MP
gs
PP
gr
DP
-41 71 -41 -71 82 0 2254 821 4 MP
gs
PP
gr
DP
-41 71 -41 -71 82 0 2383 843 4 MP
gs
PP
gr
DP
-41 71 -41 -71 82 0 2517 849 4 MP
gs
PP
gr
DP
-41 71 -41 -71 82 0 2642 880 4 MP
gs
PP
gr
DP
-41 71 -41 -71 82 0 2771 895 4 MP
gs
PP
gr
DP
-41 71 -41 -71 82 0 2896 927 4 MP
gs
PP
gr
DP
-41 71 -41 -71 82 0 3017 974 4 MP
gs
PP
gr
DP
-41 71 -41 -71 82 0 3145 1000 4 MP
gs
PP
gr
DP
-41 71 -41 -71 82 0 3263 1042 4 MP
gs
PP
gr
DP
-41 71 -41 -71 82 0 3385 1071 4 MP
gs
PP
gr
DP
-41 71 -41 -71 82 0 3507 1102 4 MP
gs
PP
gr
DP
-41 71 -41 -71 82 0 3627 1129 4 MP
gs
PP
gr
DP
-41 71 -41 -71 82 0 3745 1175 4 MP
gs
PP
gr
DP
-41 71 -41 -71 82 0 3861 1222 4 MP
gs
PP
gr
DP
-41 71 -41 -71 82 0 3976 1261 4 MP
gs
PP
gr
DP
-41 71 -41 -71 82 0 4090 1297 4 MP
gs
PP
gr
DP
-41 71 -41 -71 82 0 4209 1330 4 MP
gs
PP
gr
DP
-41 71 -41 -71 82 0 4336 1362 4 MP
gs
PP
gr
DP
-41 71 -41 -71 82 0 4435 1400 4 MP
gs
PP
gr
DP
-41 71 -41 -71 82 0 4547 1437 4 MP
gs
PP
gr
DP
-41 71 -41 -71 82 0 4651 1478 4 MP
gs
PP
gr
DP
-41 71 -41 -71 82 0 4760 1524 4 MP
gs
PP
gr
DP
-41 71 -41 -71 82 0 4863 1578 4 MP
gs
PP
gr
DP
-41 71 -41 -71 82 0 4971 1617 4 MP
gs
PP
gr
DP
-41 71 -41 -71 82 0 5072 1665 4 MP
gs
PP
gr
DP
-41 71 -41 -71 82 0 5170 1718 4 MP
gs
PP
gr
DP
-41 71 -41 -71 82 0 5268 1775 4 MP
gs
PP
gr
DP
-41 71 -41 -71 82 0 5362 1832 4 MP
gs
PP
gr
DP
-41 71 -41 -71 82 0 5453 1882 4 MP
gs
PP
gr
DP
-41 71 -41 -71 82 0 5546 1938 4 MP
gs
PP
gr
DP
-41 71 -41 -71 82 0 5642 1983 4 MP
gs
PP
gr
DP
-41 71 -41 -71 82 0 5738 2028 4 MP
gs
PP
gr
DP
-41 71 -41 -71 82 0 5818 2090 4 MP
gs
PP
gr
DP
-41 71 -41 -71 82 0 5915 2128 4 MP
gs
PP
gr
DP
-41 71 -41 -71 82 0 6006 2175 4 MP
gs
PP
gr
DP
-41 71 -41 -71 82 0 6096 2217 4 MP
gs
PP
gr
DP
-41 71 -41 -71 82 0 6178 2276 4 MP
gs
PP
gr
DP
-41 71 -41 -71 82 0 6262 2326 4 MP
gs
PP
gr
DP
-41 71 -41 -71 82 0 6344 2380 4 MP
gs
PP
gr
DP
-41 71 -41 -71 82 0 6421 2436 4 MP
gs
PP
gr
DP
-41 71 -41 -71 82 0 6498 2487 4 MP
gs
PP
gr
DP
-41 71 -41 -71 82 0 6576 2541 4 MP
gs
PP
gr
DP
-41 71 -41 -71 82 0 6667 2598 4 MP
gs
PP
gr
DP
-41 71 -41 -71 82 0 6727 2646 4 MP
gs
PP
gr
DP
-41 71 -41 -71 82 0 6797 2704 4 MP
gs
PP
gr
DP
-41 71 -41 -71 82 0 6866 2758 4 MP
gs
PP
gr
DP
-41 71 -41 -71 82 0 6932 2818 4 MP
gs
PP
gr
DP
-41 71 -41 -71 82 0 6999 2879 4 MP
gs
PP
gr
DP
-41 71 -41 -71 82 0 7054 2943 4 MP
gs
PP
gr
DP
-41 71 -41 -71 82 0 7112 3008 4 MP
gs
PP
gr
DP
-41 71 -41 -71 82 0 7171 3067 4 MP
gs
PP
gr
DP
-41 71 -41 -71 82 0 7228 3129 4 MP
gs
PP
gr
DP
-41 71 -41 -71 82 0 7280 3194 4 MP
gs
PP
gr
DP
-41 71 -41 -71 82 0 7333 3252 4 MP
gs
PP
gr
DP
-41 71 -41 -71 82 0 7383 3316 4 MP
gs
PP
gr
DP
-41 71 -41 -71 82 0 7434 3378 4 MP
gs
PP
gr
DP
-41 71 -41 -71 82 0 7484 3437 4 MP
gs
PP
gr
DP
-41 71 -41 -71 82 0 7532 3497 4 MP
gs
PP
gr
DP
-41 71 -41 -71 82 0 7572 3560 4 MP
gs
PP
gr
DP
-41 71 -41 -71 82 0 7617 3621 4 MP
gs
PP
gr
DP
-41 71 -41 -71 82 0 7664 3677 4 MP
gs
PP
gr
DP
-41 71 -41 -71 82 0 7698 3744 4 MP
gs
PP
gr
DP
-41 71 -41 -71 82 0 7737 3812 4 MP
gs
PP
gr
DP
-41 71 -41 -71 82 0 7777 3866 4 MP
gs
PP
gr
DP
-41 71 -41 -71 82 0 7811 3930 4 MP
gs
PP
gr
DP
-41 71 -41 -71 82 0 7846 3985 4 MP
gs
PP
gr
DP
-41 71 -41 -71 82 0 7876 4048 4 MP
gs
PP
gr
DP
-41 71 -41 -71 82 0 7910 4113 4 MP
gs
PP
gr
DP
-41 71 -41 -71 82 0 7938 4160 4 MP
gs
PP
gr
DP
-41 71 -41 -71 82 0 7964 4222 4 MP
gs
PP
gr
DP
-41 71 -41 -71 82 0 7987 4276 4 MP
gs
PP
gr
DP
-41 71 -41 -71 82 0 8011 4327 4 MP
gs
PP
gr
DP
-41 71 -41 -71 82 0 8034 4372 4 MP
gs
PP
gr
DP
-41 71 -41 -71 82 0 8058 4412 4 MP
gs
PP
gr
DP
-41 71 -41 -71 82 0 8070 4454 4 MP
gs
PP
gr
DP
-41 71 -41 -71 82 0 8087 4492 4 MP
gs
PP
gr
DP
-41 71 -41 -71 82 0 8098 4523 4 MP
gs
PP
gr
DP
-41 71 -41 -71 82 0 8112 4546 4 MP
gs
PP
gr
DP
-41 71 -41 -71 82 0 8121 4565 4 MP
gs
PP
gr
DP
-41 71 -41 -71 82 0 8129 4583 4 MP
gs
PP
gr
DP
-41 71 -41 -71 82 0 8139 4594 4 MP
gs
PP
gr
DP
-41 71 -41 -71 82 0 8143 4606 4 MP
gs
PP
gr
DP
-41 71 -41 -71 82 0 8146 4614 4 MP
gs
PP
gr
DP
-41 71 -41 -71 82 0 8152 4618 4 MP
gs
PP
gr
DP
-41 71 -41 -71 82 0 8156 4619 4 MP
gs
PP
gr
DP
-41 71 -41 -71 82 0 8158 4622 4 MP
gs
PP
gr
DP
-41 71 -41 -71 82 0 8160 4622 4 MP
gs
PP
gr
DP
-41 71 -41 -71 82 0 8161 4623 4 MP
gs
PP
gr
DP
-41 71 -41 -71 82 0 8162 4623 4 MP
gs
PP
gr
DP
gs 1239 485 7388 5270 rc
18 w
0 sg
11 8 17 14 28 16 32 21 33 22 41 25 35 32 39 30 
39 32 41 34 43 32 44 30 37 37 39 38 36 42 37 40 
35 44 42 38 44 39 41 42 44 37 43 41 46 43 38 36 
59 39 48 41 54 32 56 35 55 32 67 30 56 37 56 37 
64 31 59 33 62 34 57 43 65 32 69 31 66 31 67 34 
69 32 70 31 74 29 63 37 81 26 71 35 67 40 71 38 
57 36 90 37 86 20 73 36 74 40 75 42 78 38 73 48 
75 45 78 44 77 48 81 36 76 56 83 45 83 46 78 50 
81 53 86 50 82 61 87 46 90 48 80 79 88 64 84 64 
87 71 80 64 95 91 96 70 90 81 93 78 96 85 104 64 
95 97 97 102 105 77 108 60 115 65 108 84 113 74 114 80 
119 46 120 92 126 28 120 115 130 53 119 65 135 78 128 5 
126 69 138 77 35 -27 1340 590 100 MP stroke
/c11 { 1.000000 1.000000 0.000000 sr} bdef
c11
1 0 1 1 1 1 1 2 2 0 2 2 0 3 3 4 
1 5 3 4 4 5 4 6 3 10 5 10 6 12 9 11 
12 11 9 21 11 17 18 11 16 17 16 21 16 25 16 20 
18 29 25 21 26 22 27 26 29 26 35 23 32 31 36 28 
44 32 33 39 59 41 54 40 46 50 61 41 63 39 73 30 
75 31 72 41 72 47 78 44 68 54 85 39 82 47 83 51 
82 43 88 44 96 32 87 55 91 47 99 40 98 43 95 62 
92 57 95 71 92 45 114 56 108 49 109 37 107 49 115 39 
115 45 108 65 122 20 118 40 116 38 126 27 117 54 119 57 
121 53 121 51 129 44 128 30 132 6 133 32 117 98 139 22 
129 15 126 68 139 38 35 26 1340 537 85 MP stroke
DA
/c12 { 1.000000 0.000000 0.000000 sr} bdef
c12
12 46 13 44 16 43 17 46 16 46 19 49 24 45 21 48 
25 43 24 49 21 52 26 48 32 44 24 52 27 52 30 48 
36 45 31 50 35 50 40 46 36 50 35 52 43 49 37 41 
41 61 40 55 37 54 44 54 38 55 42 65 52 46 45 58 
51 53 47 55 50 56 52 57 54 55 57 55 55 54 61 53 
66 46 60 56 66 52 59 56 72 50 75 45 70 49 77 44 
66 35 89 55 82 44 74 51 80 49 89 35 85 44 85 45 
86 44 89 44 88 47 92 34 94 41 93 46 95 43 91 43 
88 59 97 50 104 32 97 43 103 43 104 39 106 42 97 50 
108 37 96 37 117 47 113 37 110 37 110 40 110 55 114 44 
114 39 115 43 118 31 115 40 123 36 122 16 120 42 123 28 
121 30 130 12 126 22 124 56 133 7 116 59 139 -36 125 21 
121 139 135 35 34 -2 1338 801 100 MP stroke
/c13 { 0.168627 0.505882 0.337255 sr} bdef
c13
0 1 1 1 1 1 4 2 5 4 10 2 11 8 15 7 
18 16 19 17 28 17 37 14 38 21 28 25 46 31 44 29 
42 34 43 40 43 37 49 43 38 49 48 40 45 48 47 41 
48 47 40 57 44 54 47 54 51 45 51 51 57 43 54 48 
56 51 55 46 59 52 61 48 54 55 53 64 47 49 74 60 
61 59 57 61 52 78 55 77 63 65 55 83 59 78 60 81 
67 74 64 75 70 74 70 79 74 76 69 79 60 111 67 109 
77 87 70 104 81 92 81 97 80 110 86 81 91 87 87 69 
113 66 107 61 101 76 106 61 105 85 112 65 112 62 116 52 
118 52 118 43 127 39 123 34 122 53 127 29 123 48 132 32 
130 34 133 22 135 35 124 20 140 27 130 7 129 34 140 19 
35 -13 1340 537 90 MP stroke
c9
0 1 1 1 1 1 3 2 6 3 10 4 10 7 15 8 
19 14 20 17 27 18 32 20 36 22 28 26 45 32 44 29 
42 34 44 38 40 41 52 39 40 48 43 45 48 46 42 47 
43 52 50 46 58 37 39 63 46 52 56 44 56 45 58 43 
50 58 54 48 57 55 53 59 62 45 61 51 46 51 68 69 
62 57 64 52 61 62 63 62 63 63 72 53 57 81 63 73 
73 60 66 69 66 80 69 81 65 91 69 77 78 68 80 75 
87 60 75 84 83 81 83 85 89 76 86 74 94 68 84 65 
103 88 104 62 101 62 103 62 107 64 107 68 113 39 110 62 
114 55 111 58 117 69 116 58 119 54 124 34 121 46 123 80 
125 52 130 33 132 50 124 3 139 7 125 71 127 63 138 57 
35 -27 1340 590 90 MP stroke
/c14 { 0.000000 1.000000 1.000000 sr} bdef
c14
1 1 0 2 2 0 2 2 4 2 4 1 8 4 10 5 
8 9 11 8 12 10 15 8 9 12 14 14 16 14 15 16 
16 17 14 17 24 13 20 15 18 19 20 22 23 20 20 25 
30 17 33 21 31 30 40 22 41 30 41 36 43 41 53 36 
49 43 56 47 58 45 66 36 55 57 46 50 65 72 53 72 
65 50 55 72 55 77 55 78 47 98 52 90 66 72 69 72 
60 80 67 84 68 84 70 85 64 89 68 97 78 83 81 79 
77 87 81 92 80 99 78 117 90 69 92 85 84 74 107 86 
101 84 103 68 99 92 111 66 111 69 111 67 120 41 118 51 
120 35 126 44 123 40 127 20 129 17 129 8 132 30 131 10 
133 11 134 42 121 46 142 -16 129 -9 127 43 139 38 34 65 
1340 537 89 MP stroke
c10
2 -1 0 1 1 1 1 1 1 3 3 1 7 4 7 7 
12 8 15 10 16 14 19 18 26 13 27 17 26 26 31 23 
31 33 35 33 33 42 31 48 32 50 41 43 33 58 40 45 
40 52 33 44 49 57 38 65 40 54 41 64 48 49 46 55 
45 58 39 80 39 80 53 52 50 51 51 66 45 77 53 68 
45 81 48 83 54 70 60 64 53 76 56 88 55 83 52 116 
57 82 61 91 49 98 61 135 54 148 63 107 70 93 71 98 
65 138 73 100 74 107 84 79 80 65 91 58 82 98 86 87 
90 66 89 84 100 17 100 2 99 25 105 -36 96 -69 107 -79 
101 -165 100 -321 105 -685 29 -495 1319 2750 77 MP stroke
0 sg
0 1 1 1 1 2 2 1 4 2 5 2 3 5 6 1 
4 6 6 7 6 5 5 7 8 6 10 8 7 8 8 12 
7 13 10 9 8 15 11 16 12 16 10 18 28 8 27 16 
30 19 33 24 39 23 39 35 37 45 48 37 45 45 51 45 
47 45 53 53 50 62 46 84 49 69 46 90 53 73 56 75 
52 81 60 78 58 75 64 73 53 95 57 109 46 107 67 116 
55 146 55 146 61 135 67 121 75 96 75 90 83 62 85 73 
82 53 91 56 88 51 86 89 92 49 90 60 101 2 99 4 
99 20 101 7 94 -48 107 -75 100 -140 99 -276 107 -771 28 -454 
1319 2750 73 MP stroke
c11
37 17 40 16 44 18 57 13 48 17 56 18 63 12 55 15 
55 17 60 16 58 18 55 17 57 18 49 25 53 25 51 24 
53 23 60 18 52 27 46 33 46 32 50 31 53 30 40 31 
57 36 48 36 52 30 53 33 50 34 52 41 41 48 50 40 
49 44 45 46 49 45 52 43 48 50 49 51 56 40 56 45 
54 47 62 39 57 49 60 40 52 61 50 64 59 50 65 45 
51 45 76 56 66 52 65 48 63 59 73 45 67 56 68 58 
72 50 70 61 84 38 74 49 84 41 81 50 82 51 79 47 
79 59 94 34 91 38 92 35 96 33 88 55 95 45 91 41 
95 44 85 45 109 41 98 55 97 47 101 38 104 42 100 61 
102 52 105 46 105 51 110 21 116 19 110 37 110 44 110 58 
116 4 120 17 115 44 122 -18 120 44 112 -1 125 41 111 129 
119 -56 128 -172 30 86 1329 1696 100 MP stroke
DD
c12
18 46 20 43 26 38 26 41 27 40 25 45 28 43 34 37 
33 38 31 45 32 42 33 41 35 41 33 43 36 44 40 40 
38 42 36 45 37 47 44 41 43 40 45 41 52 38 44 33 
60 38 65 26 62 24 69 23 66 21 83 13 84 6 83 6 
87 5 83 4 96 -7 89 1 97 -9 93 -4 94 -8 90 -1 
95 -8 101 -17 103 -17 93 -12 99 -11 94 -6 85 2 84 7 
72 3 94 15 88 3 87 -1 85 6 82 12 85 7 80 17 
77 22 77 23 80 22 75 24 82 20 81 21 85 15 71 37 
86 11 80 32 80 31 81 23 84 25 92 7 89 16 75 44 
85 27 77 22 91 43 87 35 92 7 92 10 93 17 92 19 
91 18 93 15 86 51 95 3 97 13 91 35 93 31 91 53 
102 -43 100 9 104 -45 104 -61 103 -27 95 -74 96 106 98 -94 
95 -131 99 -81 23 88 1310 3699 100 MP stroke
SO
24 w
/c15 { 0.870588 0.490196 0.000000 sr} bdef
c15
2 0 0 5 1 -1 1 0 2 2 3 1 5 3 6 1 
12 13 13 -1 20 9 27 5 31 14 33 23 45 -1 46 11 
48 20 54 19 59 28 64 22 71 46 72 29 79 39 95 1 
94 11 99 24 108 53 115 47 125 34 118 15 138 20 129 7 
128 73 140 19 35 0 1341 485 36 MP stroke
gr

c15
0 -58 -58 0 0 58 58 0 1312 456 5 MP
gs
PP
gr
DP
0 -58 -58 0 0 58 58 0 1347 456 5 MP
gs
PP
gr
DP
0 -58 -58 0 0 58 58 0 1487 475 5 MP
gs
PP
gr
DP
0 -58 -58 0 0 58 58 0 1615 548 5 MP
gs
PP
gr
DP
0 -58 -58 0 0 58 58 0 1744 555 5 MP
gs
PP
gr
DP
0 -58 -58 0 0 58 58 0 1882 575 5 MP
gs
PP
gr
DP
0 -58 -58 0 0 58 58 0 2000 590 5 MP
gs
PP
gr
DP
0 -58 -58 0 0 58 58 0 2125 624 5 MP
gs
PP
gr
DP
0 -58 -58 0 0 58 58 0 2240 671 5 MP
gs
PP
gr
DP
0 -58 -58 0 0 58 58 0 2348 724 5 MP
gs
PP
gr
DP
0 -58 -58 0 0 58 58 0 2447 748 5 MP
gs
PP
gr
DP
0 -58 -58 0 0 58 58 0 2541 759 5 MP
gs
PP
gr
DP
0 -58 -58 0 0 58 58 0 2636 760 5 MP
gs
PP
gr
DP
0 -58 -58 0 0 58 58 0 2715 799 5 MP
gs
PP
gr
DP
0 -58 -58 0 0 58 58 0 2787 828 5 MP
gs
PP
gr
DP
0 -58 -58 0 0 58 58 0 2858 874 5 MP
gs
PP
gr
DP
0 -58 -58 0 0 58 58 0 2922 896 5 MP
gs
PP
gr
DP
0 -58 -58 0 0 58 58 0 2981 924 5 MP
gs
PP
gr
DP
0 -58 -58 0 0 58 58 0 3035 943 5 MP
gs
PP
gr
DP
0 -58 -58 0 0 58 58 0 3083 963 5 MP
gs
PP
gr
DP
0 -58 -58 0 0 58 58 0 3129 974 5 MP
gs
PP
gr
DP
0 -58 -58 0 0 58 58 0 3174 973 5 MP
gs
PP
gr
DP
0 -58 -58 0 0 58 58 0 3207 996 5 MP
gs
PP
gr
DP
0 -58 -58 0 0 58 58 0 3238 1010 5 MP
gs
PP
gr
DP
0 -58 -58 0 0 58 58 0 3265 1015 5 MP
gs
PP
gr
DP
0 -58 -58 0 0 58 58 0 3285 1024 5 MP
gs
PP
gr
DP
0 -58 -58 0 0 58 58 0 3298 1023 5 MP
gs
PP
gr
DP
0 -58 -58 0 0 58 58 0 3310 1036 5 MP
gs
PP
gr
DP
0 -58 -58 0 0 58 58 0 3316 1037 5 MP
gs
PP
gr
DP
0 -58 -58 0 0 58 58 0 3321 1040 5 MP
gs
PP
gr
DP
0 -58 -58 0 0 58 58 0 3324 1041 5 MP
gs
PP
gr
DP
0 -58 -58 0 0 58 58 0 3326 1043 5 MP
gs
PP
gr
DP
0 -58 -58 0 0 58 58 0 3327 1043 5 MP
gs
PP
gr
DP
0 -58 -58 0 0 58 58 0 3328 1042 5 MP
gs
PP
gr
DP
0 -58 -58 0 0 58 58 0 3328 1047 5 MP
gs
PP
gr
DP
0 -58 -58 0 0 58 58 0 3330 1047 5 MP
gs
PP
gr
DP
gs 1239 485 7388 5270 rc
72 w
c12
0 61 2 57 4 56 4 61 3 59 5 63 5 64 4 64 
4 65 4 70 4 69 8 67 9 67 7 71 15 66 9 73 
13 71 12 72 17 72 14 76 17 73 16 77 20 77 17 68 
25 86 24 77 25 75 28 78 29 73 32 85 30 80 30 84 
32 87 29 85 36 85 39 85 43 83 51 76 52 72 49 82 
60 70 47 89 62 75 64 65 69 73 66 76 70 69 75 66 
72 45 94 73 88 57 81 62 86 64 94 52 97 48 103 41 
98 48 107 38 101 52 104 38 111 38 110 41 111 42 107 36 
117 29 120 29 116 37 115 33 122 30 124 23 130 15 118 26 
127 17 112 23 139 23 132 15 130 6 127 22 131 18 131 17 
131 9 131 16 134 7 130 4 138 5 132 9 134 4 134 8 
131 10 138 3 136 4 134 22 141 -4 126 3 142 23 132 0 
130 0 141 0 35 0 1341 485 100 MP stroke
gr

72 w
c12
0 sg
4611 6233 mt 
(Recall) s
 677 3591 mt  -90 rotate
(Precision) s
90 rotate
%%IncludeResource: font Helvetica
/Helvetica /WindowsLatin1Encoding 120 FMSR

1222 5797 mt 
( ) s
8610  527 mt 
( ) s
6 w
1 sg
0 3563 2094 0 0 -3563 1490 5648 4 MP
PP
-2094 0 0 3563 2094 0 0 -3563 1490 5648 5 MP stroke
4 w
DO
SO
6 w
0 sg
1490 2085 mt 3584 2085 L
1490 5648 mt 3584 5648 L
3584 5648 mt 3584 2085 L
1490 5648 mt 1490 2085 L
1490 5648 mt 3584 5648 L
1490 5648 mt 1490 2085 L
1490 2085 mt 3584 2085 L
1490 5648 mt 3584 5648 L
3584 5648 mt 3584 2085 L
1490 5648 mt 1490 2085 L
%%IncludeResource: font Times-Bold
/Times-Bold /WindowsLatin1Encoding 168 FMSR

1971 2271 mt 
(C-BowDA) s
gs 1490 2085 2095 3564 rc
24 w
c8
370 0 1563 2209 2 MP stroke
gs 1650 2111 197 197 rc
36 47 -36 47 -36 -47 36 -47 1748 2256 5 MP
gs
PP
gr
DP
gr

gr

24 w
c8
0 sg
1971 2478 mt 
(D-WktWiki) s
gs 1490 2085 2095 3564 rc
18 w
c8
370 0 1563 2416 2 MP stroke
gr

18 w
c8
0 sg
1971 2685 mt 
(N-GlossVectors) s
gs 1490 2085 2095 3564 rc
c9
370 0 1563 2623 2 MP stroke
gr

c9
0 sg
1971 2892 mt 
(C-SynDA) s
gs 1490 2085 2095 3564 rc
24 w
c9
370 0 1563 2830 2 MP stroke
gs 1650 2732 197 197 rc
  36   36 1748 2830 PO
  36   36 1748 2830 FO
gr

gr

24 w
c9
0 sg
1971 3099 mt 
(C-LSA-Tasa) s
gs 1490 2085 2095 3564 rc
c10
370 0 1563 3038 2 MP stroke
gs 1650 2940 197 197 rc
-41 71 -41 -71 82 0 1707 3062 4 MP
gs
PP
gr
DP
gr

gr

c10
0 sg
1971 3306 mt 
(N-ExtendedLesk) s
gs 1490 2085 2095 3564 rc
18 w
370 0 1563 3245 2 MP stroke
gr

18 w
1971 3514 mt 
(W-NGD-Factiva) s
gs 1490 2085 2095 3564 rc
c11
370 0 1563 3452 2 MP stroke
gr

c11
0 sg
1971 3721 mt 
(W-NGD-Yahoo) s
gs 1490 2085 2095 3564 rc
DA
c12
370 0 1563 3659 2 MP stroke
SO
gr

c12
0 sg
1971 3928 mt 
(N-WuPalmer) s
gs 1490 2085 2095 3564 rc
DA
c13
370 0 1563 3866 2 MP stroke
SO
gr

c13
0 sg
1971 4135 mt 
(N-Leack.Chod.) s
gs 1490 2085 2095 3564 rc
DA
c9
370 0 1563 4073 2 MP stroke
SO
gr

c9
0 sg
1971 4342 mt 
(N-Resnik) s
gs 1490 2085 2095 3564 rc
DA
c14
370 0 1563 4280 2 MP stroke
SO
gr

c14
0 sg
1971 4550 mt 
(N-JiangConrath) s
gs 1490 2085 2095 3564 rc
DA
c10
370 0 1563 4487 2 MP stroke
SO
gr

c10
0 sg
1971 4757 mt 
(N-Lin) s
gs 1490 2085 2095 3564 rc
DA
370 0 1563 4694 2 MP stroke
SO
gr

1971 4964 mt 
(W-NGD-GoogleWiki) s
gs 1490 2085 2095 3564 rc
DA
c11
370 0 1563 4902 2 MP stroke
SO
gr

c11
0 sg
1971 5171 mt 
(W-NGD-Bing) s
gs 1490 2085 2095 3564 rc
DD
c12
370 0 1563 5109 2 MP stroke
SO
gr

c12
0 sg
1971 5378 mt 
(C-PatternWiki) s
gs 1490 2085 2095 3564 rc
24 w
c15
370 0 1563 5316 2 MP stroke
gs 1650 5218 197 197 rc
0 -58 -58 0 0 58 58 0 1719 5287 5 MP
gs
PP
gr
DP
gr

gr

24 w
c15
0 sg
1971 5585 mt 
(H-Logit-E15) s
gs 1490 2085 2095 3564 rc
72 w
c12
370 0 1563 5523 2 MP stroke
6 w
gr

6 w
c12

end %%Color Dict

eplot
%%EndObject

epage
end

showpage

%%Trailer
%%EOF
