This is BibTeX, Version 0.99dThe top-level auxiliary file: eacl2012.aux
The style file: acl.bst
Database file #1: biblio.bib
Warning--empty journal in manning2008introduction
Warning--empty booktitle in treetagger
Warning--can't use both volume and number fields in strube2006wikirelate
(There were 3 warnings)
