\relax 
\citation{Patwardhan2003wsd}
\citation{hsu2006query}
\citation{tikk2003hierarchical}
\citation{Sun05usingsyntactic}
\citation{hearst1992}
\citation{snow2005learning}
\citation{grefenstette1994explorations,curran2002improvements}
\citation{resnik1995}
\citation{lin1998automatic}
\citation{cilibrasi2007google}
\citation{sahlgren2006}
\citation{peirsman2008putting}
\citation{miller1995wordnet}
\citation{jurafsky2009speech}
\citation{leacock1998}
\citation{resnik1995}
\citation{jiang1997}
\citation{lin1998measure}
\citation{wu1994verbs}
\citation{miller1993semantic}
\citation{pedersen2004wordnet}
\citation{cilibrasi2007google}
\citation{turney2001mining}
\citation{sahlgren2006,curran2003distributional}
\citation{cruys2010mining}
\citation{lin1998automatic,cruys2010mining}
\newlabel{single-relation-extraction}{{2.1}{2}}
\newlabel{alg:unsup}{{1}{2}}
\newlabel{similaritymeasures}{{2.2}{2}}
\newlabel{networkbased-measures}{{2.2}{2}}
\newlabel{webbased-measures}{{2.2}{2}}
\newlabel{corpusbased-measures}{{2.2}{2}}
\newlabel{distributional-measures}{{2.2}{2}}
\newlabel{pmi}{{1}{2}}
\newlabel{cos}{{2}{2}}
\citation{baroni2009wacky}
\citation{treetagger}
\citation{maltparser2011}
\citation{veksler2008defining}
\citation{landauer1997solution}
\citation{veksler2008defining}
\newlabel{alg:da}{{2}{3}}
\newlabel{fig:prcomb}{{1}{3}}
\newlabel{patternbased-measures}{{2.2}{3}}
\newlabel{alg:da}{{3}{3}}
\newlabel{definitionbased-measures}{{2.2}{3}}
\citation{zesch2008extracting}
\citation{banerjee2003extended}
\citation{patwardhan2006using}
\newlabel{alg:wkt}{{4}{4}}
\newlabel{hybrid-relation-extraction}{{2.3}{4}}
\newlabel{relationfusion}{{2.3}{4}}
\newlabel{similarity-fusion}{{2.3}{4}}
\newlabel{fig:single-and-hybrid}{{2}{5}}
\newlabel{rfusion}{{5}{5}}
\citation{rubenstein1965}
\citation{miller91}
\citation{finkelstein2001placing}
\citation{howell2010fundamental}
\citation{baroniwe}
\citation{miller1995wordnet}
\citation{kennedy10244evaluating}
\citation{manning2008introduction}
\newlabel{feature-fusion}{{2.3}{6}}
\newlabel{evaluationp}{{3}{6}}
\citation{curran2002improvements}
\citation{sahlgren2006}
\citation{cruys2010mining}
\citation{budiu2007modeling}
\newlabel{sect:previous}{{5}{7}}
\newlabel{tbl:relations}{{1}{8}}
\newlabel{tbl:results}{{1}{8}}
\newlabel{fig:prgraph}{{3}{8}}
\citation{agirre2009study}
\citation{mihalcea2006corpus}
\citation{budanitsky2001semantic}
\citation{patwardhan2006using}
\citation{zesch2007comparing,zesch2008using}
\citation{navarro2009wiktionary}
\citation{strube2006wikirelate}
\citation{gabrilovich2007computing}
\bibstyle{acl}
\bibdata{biblio}
\bibcite{agirre2009study}{\citename {Agirre \bgroup et al.\egroup }2009}
\bibcite{banerjee2003extended}{\citename {Banerjee and Pedersen}2003}
\bibcite{baroniwe}{\citename {Baroni and Lenci}2011}
\bibcite{baroni2009wacky}{\citename {Baroni \bgroup et al.\egroup }2009}
\bibcite{budanitsky2001semantic}{\citename {Budanitsky and Hirst}2001}
\bibcite{budiu2007modeling}{\citename {Budiu \bgroup et al.\egroup }2007}
\bibcite{cilibrasi2007google}{\citename {Cilibrasi and Vitanyi}2007}
\bibcite{curran2002improvements}{\citename {Curran and Moens}2002}
\bibcite{curran2003distributional}{\citename {Curran}2003}
\bibcite{finkelstein2001placing}{\citename {Finkelstein \bgroup et al.\egroup }2001}
\bibcite{gabrilovich2007computing}{\citename {Gabrilovich and Markovitch}2007}
\bibcite{grefenstette1994explorations}{\citename {Grefenstette}1994}
\bibcite{maltparser2011}{\citename {Hall \bgroup et al.\egroup }2011}
\bibcite{hearst1992}{\citename {Hearst}1992}
\bibcite{peirsman2008putting}{\citename {Heylen \bgroup et al.\egroup }2008}
\bibcite{howell2010fundamental}{\citename {Howell}2010}
\bibcite{hsu2006query}{\citename {Hsu \bgroup et al.\egroup }2006}
\bibcite{jiang1997}{\citename {Jiang and Conrath}1997}
\bibcite{jurafsky2009speech}{\citename {Jurafsky and Martin}2009}
\bibcite{kennedy10244evaluating}{\citename {Kennedy and Szpakowicz}2008}
\bibcite{landauer1997solution}{\citename {Landauer and Dumais}1997}
\bibcite{leacock1998}{\citename {Leacock and Chodorow}1998}
\bibcite{lin1998measure}{\citename {Lin}1998a}
\bibcite{lin1998automatic}{\citename {Lin}1998b}
\bibcite{manning2008introduction}{\citename {Manning \bgroup et al.\egroup }2008}
\bibcite{mihalcea2006corpus}{\citename {Mihalcea \bgroup et al.\egroup }2006}
\bibcite{miller91}{\citename {Miller and Charles}1991}
\bibcite{miller1993semantic}{\citename {Miller \bgroup et al.\egroup }1993}
\bibcite{miller1995wordnet}{\citename {Miller}1995}
\bibcite{navarro2009wiktionary}{\citename {Navarro \bgroup et al.\egroup }2009}
\bibcite{patwardhan2006using}{\citename {Patwardhan and Pedersen}2006}
\bibcite{Patwardhan2003wsd}{\citename {Patwardhan \bgroup et al.\egroup }2003}
\bibcite{pedersen2004wordnet}{\citename {Pedersen \bgroup et al.\egroup }2004}
\bibcite{resnik1995}{\citename {Resnik}1995}
\bibcite{rubenstein1965}{\citename {Rubenstein and Goodenough}1965}
\bibcite{sahlgren2006}{\citename {Sahlgren}2006}
\bibcite{treetagger}{\citename {Schmid}1994}
\bibcite{snow2005learning}{\citename {Snow \bgroup et al.\egroup }2004}
\bibcite{strube2006wikirelate}{\citename {Strube and Ponzetto}2006}
\bibcite{Sun05usingsyntactic}{\citename {Sun \bgroup et al.\egroup }2005}
\bibcite{tikk2003hierarchical}{\citename {Tikk \bgroup et al.\egroup }2003}
\bibcite{turney2001mining}{\citename {Turney}2001}
\bibcite{cruys2010mining}{\citename {Van\nobreakspace  {}de Cruys}2010}
\bibcite{veksler2008defining}{\citename {Veksler \bgroup et al.\egroup }2008}
\bibcite{wu1994verbs}{\citename {Wu and Palmer}1994}
\bibcite{zesch2007comparing}{\citename {Zesch \bgroup et al.\egroup }2007}
\bibcite{zesch2008extracting}{\citename {Zesch \bgroup et al.\egroup }2008a}
\bibcite{zesch2008using}{\citename {Zesch \bgroup et al.\egroup }2008b}
