\relax 
\citation{hearst1992}
\citation{miller1995wordnet}
\citation{wu1994verbs}
\citation{leacock1998}
\citation{resnik1995}
\citation{banerjee2003extended}
\citation{patwardhan2006using}
\citation{zesch2008extracting}
\citation{cruys2010mining}
\citation{lin1998automatic}
\citation{landauer1997solution}
\citation{bollegala2007measuring}
\citation{hearst1992}
\citation{hearst1992}
\citation{paumier2003}
\newlabel{tbl:corpora}{{1}{2}}
\newlabel{alg:patterns}{{1}{2}}
\citation{miller91}
\citation{rubenstein1965}
\citation{finkelstein2001placing}
\citation{baroniwe}
\citation{panchenko2012study}
\newlabel{sec:length}{{4}{3}}
\newlabel{fig:prgraph}{{1}{4}}
\newlabel{fig:openextr}{{2}{4}}
\bibstyle{konvens2012}
\bibdata{biblio2}
\bibcite{banerjee2003extended}{\citename {Banerjee and Pedersen}2003}
\bibcite{baroniwe}{\citename {Baroni and Lenci}2011}
\bibcite{bollegala2007measuring}{\citename {Bollegala \bgroup et al.\egroup }2007}
\bibcite{finkelstein2001placing}{\citename {Finkelstein \bgroup et al.\egroup }2001}
\bibcite{hearst1992}{\citename {Hearst}1992}
\bibcite{landauer1997solution}{\citename {Landauer and Dumais}1997}
\bibcite{leacock1998}{\citename {Leacock and Chodorow}1998}
\bibcite{lin1998automatic}{\citename {Lin}1998}
\bibcite{miller91}{\citename {Miller and Charles}1991}
\bibcite{miller1995wordnet}{\citename {Miller}1995}
\bibcite{panchenko2012study}{\citename {Panchenko and Morozova}2012}
\bibcite{patwardhan2006using}{\citename {Patwardhan and Pedersen}2006}
\bibcite{paumier2003}{\citename {Paumier}2003}
\bibcite{resnik1995}{\citename {Resnik}1995}
\bibcite{rubenstein1965}{\citename {Rubenstein and Goodenough}1965}
\bibcite{cruys2010mining}{\citename {Van\nobreakspace  {}de Cruys}2010}
\bibcite{wu1994verbs}{\citename {Wu and Palmer}1994}
\bibcite{zesch2008extracting}{\citename {Zesch \bgroup et al.\egroup }2008}
\newlabel{tbl:results}{{2}{5}}
