%!PS-Adobe-3.0 EPSF-3.0
%%Creator: MATLAB, The MathWorks, Inc. Version 8.0.0.783 (R2012b). Operating System: Linux 3.2.0-37-generic #58-Ubuntu SMP Thu Jan 24 15:28:10 UTC 2013 x86_64.
%%Title: /home/sasha/Desktop/thesis/figures/papers/7/figures/learning-curve-gray-2.eps
%%CreationDate: 02/08/2013  12:50:23
%%DocumentNeededFonts: Helvetica
%%+ Times-Roman
%%+ Times-Bold
%%DocumentProcessColors: Cyan Magenta Yellow Black
%%LanguageLevel: 2
%%Pages: 1
%%BoundingBox:    -3   218   615   573
%%EndComments

%%BeginProlog
% MathWorks dictionary
/MathWorks 160 dict begin
% definition operators
/bdef {bind def} bind def
/ldef {load def} bind def
/xdef {exch def} bdef
/xstore {exch store} bdef
% operator abbreviations
/c  /clip ldef
/cc /concat ldef
/cp /closepath ldef
/gr /grestore ldef
/gs /gsave ldef
/mt /moveto ldef
/np /newpath ldef
/cm /currentmatrix ldef
/sm /setmatrix ldef
/rm /rmoveto ldef
/rl /rlineto ldef
/s {show newpath} bdef
/sc {setcmykcolor} bdef
/sr /setrgbcolor ldef
/sg /setgray ldef
/w /setlinewidth ldef
/j /setlinejoin ldef
/cap /setlinecap ldef
/rc {rectclip} bdef
/rf {rectfill} bdef
% page state control
/pgsv () def
/bpage {/pgsv save def} bdef
/epage {pgsv restore} bdef
/bplot /gsave ldef
/eplot {stroke grestore} bdef
% orientation switch
/portraitMode 0 def /landscapeMode 1 def /rotateMode 2 def
% coordinate system mappings
/dpi2point 0 def
% font control
/FontSize 0 def
/FMS {/FontSize xstore findfont [FontSize 0 0 FontSize neg 0 0]
  makefont setfont} bdef
/reencode {exch dup where {pop load} {pop StandardEncoding} ifelse
  exch dup 3 1 roll findfont dup length dict begin
  { 1 index /FID ne {def}{pop pop} ifelse } forall
  /Encoding exch def currentdict end definefont pop} bdef
/isroman {findfont /CharStrings get /Agrave known} bdef
/FMSR {3 1 roll 1 index dup isroman {reencode} {pop pop} ifelse
  exch FMS} bdef
/csm {1 dpi2point div -1 dpi2point div scale neg translate
 dup landscapeMode eq {pop -90 rotate}
  {rotateMode eq {90 rotate} if} ifelse} bdef
% line types: solid, dotted, dashed, dotdash
/SO { [] 0 setdash } bdef
/DO { [.5 dpi2point mul 4 dpi2point mul] 0 setdash } bdef
/DA { [6 dpi2point mul] 0 setdash } bdef
/DD { [.5 dpi2point mul 4 dpi2point mul 6 dpi2point mul 4
  dpi2point mul] 0 setdash } bdef
% macros for lines and objects
/L {lineto stroke} bdef
/MP {3 1 roll moveto 1 sub {rlineto} repeat} bdef
/AP {{rlineto} repeat} bdef
/PDlw -1 def
/W {/PDlw currentlinewidth def setlinewidth} def
/PP {closepath eofill} bdef
/DP {closepath stroke} bdef
/MR {4 -2 roll moveto dup  0 exch rlineto exch 0 rlineto
  neg 0 exch rlineto closepath} bdef
/FR {MR stroke} bdef
/PR {MR fill} bdef
/L1i {{currentfile picstr readhexstring pop} image} bdef
/tMatrix matrix def
/MakeOval {newpath tMatrix currentmatrix pop translate scale
0 0 1 0 360 arc tMatrix setmatrix} bdef
/FO {MakeOval stroke} bdef
/PO {MakeOval fill} bdef
/PD {currentlinewidth 2 div 0 360 arc fill
   PDlw -1 eq not {PDlw w /PDlw -1 def} if} def
/FA {newpath tMatrix currentmatrix pop translate scale
  0 0 1 5 -2 roll arc tMatrix setmatrix stroke} bdef
/PA {newpath tMatrix currentmatrix pop	translate 0 0 moveto scale
  0 0 1 5 -2 roll arc closepath tMatrix setmatrix fill} bdef
/FAn {newpath tMatrix currentmatrix pop translate scale
  0 0 1 5 -2 roll arcn tMatrix setmatrix stroke} bdef
/PAn {newpath tMatrix currentmatrix pop translate 0 0 moveto scale
  0 0 1 5 -2 roll arcn closepath tMatrix setmatrix fill} bdef
/vradius 0 def /hradius 0 def /lry 0 def
/lrx 0 def /uly 0 def /ulx 0 def /rad 0 def
/MRR {/vradius xdef /hradius xdef /lry xdef /lrx xdef /uly xdef
  /ulx xdef newpath tMatrix currentmatrix pop ulx hradius add uly
  vradius add translate hradius vradius scale 0 0 1 180 270 arc 
  tMatrix setmatrix lrx hradius sub uly vradius add translate
  hradius vradius scale 0 0 1 270 360 arc tMatrix setmatrix
  lrx hradius sub lry vradius sub translate hradius vradius scale
  0 0 1 0 90 arc tMatrix setmatrix ulx hradius add lry vradius sub
  translate hradius vradius scale 0 0 1 90 180 arc tMatrix setmatrix
  closepath} bdef
/FRR {MRR stroke } bdef
/PRR {MRR fill } bdef
/MlrRR {/lry xdef /lrx xdef /uly xdef /ulx xdef /rad lry uly sub 2 div def
  newpath tMatrix currentmatrix pop ulx rad add uly rad add translate
  rad rad scale 0 0 1 90 270 arc tMatrix setmatrix lrx rad sub lry rad
  sub translate rad rad scale 0 0 1 270 90 arc tMatrix setmatrix
  closepath} bdef
/FlrRR {MlrRR stroke } bdef
/PlrRR {MlrRR fill } bdef
/MtbRR {/lry xdef /lrx xdef /uly xdef /ulx xdef /rad lrx ulx sub 2 div def
  newpath tMatrix currentmatrix pop ulx rad add uly rad add translate
  rad rad scale 0 0 1 180 360 arc tMatrix setmatrix lrx rad sub lry rad
  sub translate rad rad scale 0 0 1 0 180 arc tMatrix setmatrix
  closepath} bdef
/FtbRR {MtbRR stroke } bdef
/PtbRR {MtbRR fill } bdef
/stri 6 array def /dtri 6 array def
/smat 6 array def /dmat 6 array def
/tmat1 6 array def /tmat2 6 array def /dif 3 array def
/asub {/ind2 exch def /ind1 exch def dup dup
  ind1 get exch ind2 get sub exch } bdef
/tri_to_matrix {
  2 0 asub 3 1 asub 4 0 asub 5 1 asub
  dup 0 get exch 1 get 7 -1 roll astore } bdef
/compute_transform {
  dmat dtri tri_to_matrix tmat1 invertmatrix 
  smat stri tri_to_matrix tmat2 concatmatrix } bdef
/ds {stri astore pop} bdef
/dt {dtri astore pop} bdef
/db {2 copy /cols xdef /rows xdef mul dup 3 mul string
  currentfile 
  3 index 0 eq {/ASCIIHexDecode filter}
  {/ASCII85Decode filter 3 index 2 eq {/RunLengthDecode filter} if }
  ifelse exch readstring pop
  dup 0 3 index getinterval /rbmap xdef
  dup 2 index dup getinterval /gbmap xdef
  1 index dup 2 mul exch getinterval /bbmap xdef pop pop}bdef
/it {gs np dtri aload pop moveto lineto lineto cp c
  cols rows 8 compute_transform 
  rbmap gbmap bbmap true 3 colorimage gr}bdef
/il {newpath moveto lineto stroke}bdef
currentdict end def
%%EndProlog

%%BeginSetup
MathWorks begin

0 cap

end
%%EndSetup

%%Page: 1 1
%%BeginPageSetup
%%PageBoundingBox:    -3   218   615   573
MathWorks begin
bpage
%%EndPageSetup

%%BeginObject: obj1
bplot

/dpi2point 12 def
portraitMode -0036 6876 csm

    0     0  7420  4253 rc
87 dict begin %Colortable dictionary
/c0 { 0.000000 0.000000 0.000000 sr} bdef
/c1 { 1.000000 1.000000 1.000000 sr} bdef
/c2 { 0.900000 0.000000 0.000000 sr} bdef
/c3 { 0.000000 0.820000 0.000000 sr} bdef
/c4 { 0.000000 0.000000 0.800000 sr} bdef
/c5 { 0.910000 0.820000 0.320000 sr} bdef
/c6 { 1.000000 0.260000 0.820000 sr} bdef
/c7 { 0.000000 0.820000 0.820000 sr} bdef
c0
1 j
1 sg
   0    0 7421 4254 rf
6 w
0 3324 5750 0 0 -3324 965 3643 4 MP
PP
-5750 0 0 3324 5750 0 0 -3324 965 3643 5 MP stroke
4 w
DO
0 sg
 965 3643 mt  965  319 L
 965  319 mt  965  319 L
2295 3643 mt 2295  319 L
2295  319 mt 2295  319 L
3625 3643 mt 3625  319 L
3625  319 mt 3625  319 L
4956 3643 mt 4956  319 L
4956  319 mt 4956  319 L
6686 3643 mt 6686  319 L
6686  319 mt 6686  319 L
 965 3643 mt 6715 3643 L
6715 3643 mt 6715 3643 L
 965 2812 mt 6715 2812 L
6715 2812 mt 6715 2812 L
 965 1981 mt 6715 1981 L
6715 1981 mt 6715 1981 L
 965 1149 mt 6715 1149 L
6715 1149 mt 6715 1149 L
 965  319 mt 6715  319 L
6715  319 mt 6715  319 L
SO
6 w
 965 3643 mt 6715 3643 L
 965 3643 mt  965  319 L
 965 3643 mt  965 3614 L
DO
 965 3643 mt  965  319 L
 965  319 mt  965  319 L
SO
 965 3643 mt  965 3585 L
%%IncludeResource: font Times-Roman
/Times-Roman /ISOLatin1Encoding 288 FMSR

 785 3935 mt 
(0.1) s
1365 3643 mt 1365 3614 L
DO
1365 3643 mt 1365  319 L
1365  319 mt 1365  319 L
SO
1599 3643 mt 1599 3614 L
DO
1599 3643 mt 1599  319 L
1599  319 mt 1599  319 L
SO
1765 3643 mt 1765 3614 L
DO
1765 3643 mt 1765  319 L
1765  319 mt 1765  319 L
SO
1894 3643 mt 1894 3614 L
DO
1894 3643 mt 1894  319 L
1894  319 mt 1894  319 L
SO
2000 3643 mt 2000 3614 L
DO
2000 3643 mt 2000  319 L
2000  319 mt 2000  319 L
SO
2089 3643 mt 2089 3614 L
DO
2089 3643 mt 2089  319 L
2089  319 mt 2089  319 L
SO
2166 3643 mt 2166 3614 L
DO
2166 3643 mt 2166  319 L
2166  319 mt 2166  319 L
SO
2234 3643 mt 2234 3614 L
DO
2234 3643 mt 2234  319 L
2234  319 mt 2234  319 L
SO
2295 3643 mt 2295 3614 L
DO
2295 3643 mt 2295  319 L
2295  319 mt 2295  319 L
SO
2295 3643 mt 2295 3585 L
2223 3935 mt 
(1) s
2695 3643 mt 2695 3614 L
DO
2695 3643 mt 2695  319 L
2695  319 mt 2695  319 L
SO
2930 3643 mt 2930 3614 L
DO
2930 3643 mt 2930  319 L
2930  319 mt 2930  319 L
SO
3096 3643 mt 3096 3614 L
DO
3096 3643 mt 3096  319 L
3096  319 mt 3096  319 L
SO
3225 3643 mt 3225 3614 L
DO
3225 3643 mt 3225  319 L
3225  319 mt 3225  319 L
SO
3330 3643 mt 3330 3614 L
DO
3330 3643 mt 3330  319 L
3330  319 mt 3330  319 L
SO
3419 3643 mt 3419 3614 L
DO
3419 3643 mt 3419  319 L
3419  319 mt 3419  319 L
SO
3496 3643 mt 3496 3614 L
DO
3496 3643 mt 3496  319 L
3496  319 mt 3496  319 L
SO
3564 3643 mt 3564 3614 L
DO
3564 3643 mt 3564  319 L
3564  319 mt 3564  319 L
SO
3625 3643 mt 3625 3614 L
DO
3625 3643 mt 3625  319 L
3625  319 mt 3625  319 L
SO
3625 3643 mt 3625 3585 L
3481 3935 mt 
(10) s
4026 3643 mt 4026 3614 L
DO
4026 3643 mt 4026  319 L
4026  319 mt 4026  319 L
SO
4260 3643 mt 4260 3614 L
DO
4260 3643 mt 4260  319 L
4260  319 mt 4260  319 L
SO
4426 3643 mt 4426 3614 L
DO
4426 3643 mt 4426  319 L
4426  319 mt 4426  319 L
SO
4555 3643 mt 4555 3614 L
DO
4555 3643 mt 4555  319 L
4555  319 mt 4555  319 L
SO
4660 3643 mt 4660 3614 L
DO
4660 3643 mt 4660  319 L
4660  319 mt 4660  319 L
SO
4749 3643 mt 4749 3614 L
DO
4749 3643 mt 4749  319 L
4749  319 mt 4749  319 L
SO
4827 3643 mt 4827 3614 L
DO
4827 3643 mt 4827  319 L
4827  319 mt 4827  319 L
SO
4895 3643 mt 4895 3614 L
DO
4895 3643 mt 4895  319 L
4895  319 mt 4895  319 L
SO
4956 3643 mt 4956 3614 L
DO
4956 3643 mt 4956  319 L
4956  319 mt 4956  319 L
SO
4956 3643 mt 4956 3585 L
4740 3935 mt 
(100) s
5356 3643 mt 5356 3614 L
DO
5356 3643 mt 5356  319 L
5356  319 mt 5356  319 L
SO
5590 3643 mt 5590 3614 L
DO
5590 3643 mt 5590  319 L
5590  319 mt 5590  319 L
SO
5756 3643 mt 5756 3614 L
DO
5756 3643 mt 5756  319 L
5756  319 mt 5756  319 L
SO
5885 3643 mt 5885 3614 L
DO
5885 3643 mt 5885  319 L
5885  319 mt 5885  319 L
SO
5991 3643 mt 5991 3614 L
DO
5991 3643 mt 5991  319 L
5991  319 mt 5991  319 L
SO
6080 3643 mt 6080 3614 L
DO
6080 3643 mt 6080  319 L
6080  319 mt 6080  319 L
SO
6157 3643 mt 6157 3614 L
DO
6157 3643 mt 6157  319 L
6157  319 mt 6157  319 L
SO
6225 3643 mt 6225 3614 L
DO
6225 3643 mt 6225  319 L
6225  319 mt 6225  319 L
SO
6286 3643 mt 6286 3614 L
DO
6286 3643 mt 6286  319 L
6286  319 mt 6286  319 L
SO
6686 3643 mt 6686 3585 L
6398 3935 mt 
(2000) s
 965 3643 mt 1022 3643 L
 786 3746 mt 
(0) s
 965 2812 mt 1022 2812 L
 570 2915 mt 
(0.2) s
 965 1981 mt 1022 1981 L
 570 2084 mt 
(0.4) s
 965 1149 mt 1022 1149 L
 570 1252 mt 
(0.6) s
 965  319 mt 1022  319 L
 570  422 mt 
(0.8) s
gs 965 319 5751 3325 rc
36 w
400 36 401 -2 575 -98 129 28 167 -34 234 -111 400 -153 401 -303 
1330 -1433 1330 -940 965 3501 11 MP stroke
DA
166 -45 234 38 401 -26 354 -6 575 -76 129 -33 167 -35 234 -112 
400 -209 401 -287 1330 -1830 1330 -392 965 3426 13 MP stroke
gr

36 w
DA
%%IncludeResource: font Helvetica
/Helvetica /ISOLatin1Encoding 120 FMSR

 948 3686 mt 
( ) s
6699  361 mt 
( ) s
%%IncludeResource: font Times-Bold
/Times-Bold /ISOLatin1Encoding 288 FMSR

2226 4189 mt 
(Corpus size, milion tokens) s
 453 3821 mt  -90 rotate
(F-measure for Precision = 0.8) s
90 rotate
SO
6 w
1 sg
0 740 1978 0 0 -740 4925 1406 4 MP
PP
-1978 0 0 740 1978 0 0 -740 4925 1406 5 MP stroke
4 w
DO
SO
6 w
0 sg
4925 1406 mt 6903 1406 L
4925  666 mt 6903  666 L
4925 1406 mt 4925  666 L
6903 1406 mt 6903  666 L
4925 1406 mt 6903 1406 L
4925 1406 mt 4925  666 L
4925 1406 mt 6903 1406 L
4925  666 mt 6903  666 L
4925 1406 mt 4925  666 L
6903 1406 mt 6903  666 L
5814  978 mt 
(WaCypedia) s
gs 4925 666 1979 741 rc
36 w
684 0 5061 873 2 MP stroke
gr

36 w
5814 1303 mt 
(PukWaC) s
gs 4925 666 1979 741 rc
DA
684 0 5061 1198 2 MP stroke
SO
6 w
gr

6 w
%%IncludeResource: font Times-Roman
/Times-Roman /ISOLatin1Encoding 288 FMSR

1036  798 mt 
(0.03) s
24 w
/c8 { 1.000000 0.000000 0.000000 sr} bdef
c8
-5 3228 4960 554 2 MP stroke
-3 3296 6685 486 2 MP stroke
-4003 0 4969 538 2 MP stroke
-5637 -9 6600 438 2 MP stroke
6 w

end %%Color Dict

eplot
%%EndObject

epage
end

showpage

%%Trailer
%%EOF
