%!PS-Adobe-3.0 EPSF-3.0
%%Creator: MATLAB, The Mathworks, Inc. Version 7.10.0.499 (R2010a). Operating System: Microsoft Windows Server 2008 R2.
%%Title: C:\Users\Alexander\Desktop\bda\plot-k10_final.eps
%%CreationDate: 05/11/2011  16:52:15
%%DocumentNeededFonts: Helvetica
%%+ Times-Roman
%%DocumentProcessColors: Cyan Magenta Yellow Black
%%LanguageLevel: 2
%%Pages: 1
%%BoundingBox:  -135   162   747   630
%%EndComments

%%BeginProlog
% MathWorks dictionary
/MathWorks 160 dict begin
% definition operators
/bdef {bind def} bind def
/ldef {load def} bind def
/xdef {exch def} bdef
/xstore {exch store} bdef
% operator abbreviations
/c  /clip ldef
/cc /concat ldef
/cp /closepath ldef
/gr /grestore ldef
/gs /gsave ldef
/mt /moveto ldef
/np /newpath ldef
/cm /currentmatrix ldef
/sm /setmatrix ldef
/rm /rmoveto ldef
/rl /rlineto ldef
/s {show newpath} bdef
/sc {setcmykcolor} bdef
/sr /setrgbcolor ldef
/sg /setgray ldef
/w /setlinewidth ldef
/j /setlinejoin ldef
/cap /setlinecap ldef
/rc {rectclip} bdef
/rf {rectfill} bdef
% page state control
/pgsv () def
/bpage {/pgsv save def} bdef
/epage {pgsv restore} bdef
/bplot /gsave ldef
/eplot {stroke grestore} bdef
% orientation switch
/portraitMode 0 def /landscapeMode 1 def /rotateMode 2 def
% coordinate system mappings
/dpi2point 0 def
% font control
/FontSize 0 def
/FMS {/FontSize xstore findfont [FontSize 0 0 FontSize neg 0 0]
  makefont setfont} bdef
/ISOLatin1Encoding where {pop /WindowsLatin1Encoding 256 array bdef
ISOLatin1Encoding WindowsLatin1Encoding copy pop
/.notdef/.notdef/quotesinglbase/florin/quotedblbase/ellipsis/dagger
/daggerdbl/circumflex/perthousand/Scaron/guilsinglleft/OE/.notdef/.notdef
/.notdef/.notdef/quoteleft/quoteright/quotedblleft/quotedblright/bullet
/endash/emdash/tilde/trademark/scaron/guilsinglright/oe/.notdef/.notdef
/Ydieresis WindowsLatin1Encoding 128 32 getinterval astore pop}
{/WindowsLatin1Encoding StandardEncoding bdef} ifelse
/reencode {exch dup where {pop load} {pop StandardEncoding} ifelse
  exch dup 3 1 roll findfont dup length dict begin
  { 1 index /FID ne {def}{pop pop} ifelse } forall
  /Encoding exch def currentdict end definefont pop} bdef
/isroman {findfont /CharStrings get /Agrave known} bdef
/FMSR {3 1 roll 1 index dup isroman {reencode} {pop pop} ifelse
  exch FMS} bdef
/csm {1 dpi2point div -1 dpi2point div scale neg translate
 dup landscapeMode eq {pop -90 rotate}
  {rotateMode eq {90 rotate} if} ifelse} bdef
% line types: solid, dotted, dashed, dotdash
/SO { [] 0 setdash } bdef
/DO { [.5 dpi2point mul 4 dpi2point mul] 0 setdash } bdef
/DA { [6 dpi2point mul] 0 setdash } bdef
/DD { [.5 dpi2point mul 4 dpi2point mul 6 dpi2point mul 4
  dpi2point mul] 0 setdash } bdef
% macros for lines and objects
/L {lineto stroke} bdef
/MP {3 1 roll moveto 1 sub {rlineto} repeat} bdef
/AP {{rlineto} repeat} bdef
/PDlw -1 def
/W {/PDlw currentlinewidth def setlinewidth} def
/PP {closepath eofill} bdef
/DP {closepath stroke} bdef
/MR {4 -2 roll moveto dup  0 exch rlineto exch 0 rlineto
  neg 0 exch rlineto closepath} bdef
/FR {MR stroke} bdef
/PR {MR fill} bdef
/L1i {{currentfile picstr readhexstring pop} image} bdef
/tMatrix matrix def
/MakeOval {newpath tMatrix currentmatrix pop translate scale
0 0 1 0 360 arc tMatrix setmatrix} bdef
/FO {MakeOval stroke} bdef
/PO {MakeOval fill} bdef
/PD {currentlinewidth 2 div 0 360 arc fill
   PDlw -1 eq not {PDlw w /PDlw -1 def} if} def
/FA {newpath tMatrix currentmatrix pop translate scale
  0 0 1 5 -2 roll arc tMatrix setmatrix stroke} bdef
/PA {newpath tMatrix currentmatrix pop	translate 0 0 moveto scale
  0 0 1 5 -2 roll arc closepath tMatrix setmatrix fill} bdef
/FAn {newpath tMatrix currentmatrix pop translate scale
  0 0 1 5 -2 roll arcn tMatrix setmatrix stroke} bdef
/PAn {newpath tMatrix currentmatrix pop translate 0 0 moveto scale
  0 0 1 5 -2 roll arcn closepath tMatrix setmatrix fill} bdef
/vradius 0 def /hradius 0 def /lry 0 def
/lrx 0 def /uly 0 def /ulx 0 def /rad 0 def
/MRR {/vradius xdef /hradius xdef /lry xdef /lrx xdef /uly xdef
  /ulx xdef newpath tMatrix currentmatrix pop ulx hradius add uly
  vradius add translate hradius vradius scale 0 0 1 180 270 arc 
  tMatrix setmatrix lrx hradius sub uly vradius add translate
  hradius vradius scale 0 0 1 270 360 arc tMatrix setmatrix
  lrx hradius sub lry vradius sub translate hradius vradius scale
  0 0 1 0 90 arc tMatrix setmatrix ulx hradius add lry vradius sub
  translate hradius vradius scale 0 0 1 90 180 arc tMatrix setmatrix
  closepath} bdef
/FRR {MRR stroke } bdef
/PRR {MRR fill } bdef
/MlrRR {/lry xdef /lrx xdef /uly xdef /ulx xdef /rad lry uly sub 2 div def
  newpath tMatrix currentmatrix pop ulx rad add uly rad add translate
  rad rad scale 0 0 1 90 270 arc tMatrix setmatrix lrx rad sub lry rad
  sub translate rad rad scale 0 0 1 270 90 arc tMatrix setmatrix
  closepath} bdef
/FlrRR {MlrRR stroke } bdef
/PlrRR {MlrRR fill } bdef
/MtbRR {/lry xdef /lrx xdef /uly xdef /ulx xdef /rad lrx ulx sub 2 div def
  newpath tMatrix currentmatrix pop ulx rad add uly rad add translate
  rad rad scale 0 0 1 180 360 arc tMatrix setmatrix lrx rad sub lry rad
  sub translate rad rad scale 0 0 1 0 180 arc tMatrix setmatrix
  closepath} bdef
/FtbRR {MtbRR stroke } bdef
/PtbRR {MtbRR fill } bdef
/stri 6 array def /dtri 6 array def
/smat 6 array def /dmat 6 array def
/tmat1 6 array def /tmat2 6 array def /dif 3 array def
/asub {/ind2 exch def /ind1 exch def dup dup
  ind1 get exch ind2 get sub exch } bdef
/tri_to_matrix {
  2 0 asub 3 1 asub 4 0 asub 5 1 asub
  dup 0 get exch 1 get 7 -1 roll astore } bdef
/compute_transform {
  dmat dtri tri_to_matrix tmat1 invertmatrix 
  smat stri tri_to_matrix tmat2 concatmatrix } bdef
/ds {stri astore pop} bdef
/dt {dtri astore pop} bdef
/db {2 copy /cols xdef /rows xdef mul dup 3 mul string
  currentfile 
  3 index 0 eq {/ASCIIHexDecode filter}
  {/ASCII85Decode filter 3 index 2 eq {/RunLengthDecode filter} if }
  ifelse exch readstring pop
  dup 0 3 index getinterval /rbmap xdef
  dup 2 index dup getinterval /gbmap xdef
  1 index dup 2 mul exch getinterval /bbmap xdef pop pop}bdef
/it {gs np dtri aload pop moveto lineto lineto cp c
  cols rows 8 compute_transform 
  rbmap gbmap bbmap true 3 colorimage gr}bdef
/il {newpath moveto lineto stroke}bdef
currentdict end def
%%EndProlog

%%BeginSetup
MathWorks begin

0 cap

end
%%EndSetup

%%Page: 1 1
%%BeginPageSetup
%%PageBoundingBox:  -135   162   747   630
MathWorks begin
bpage
%%EndPageSetup

%%BeginObject: obj1
bplot

/dpi2point 12 def
portraitMode -1620 7560 csm

    0     0 10590  5609 rc
85 dict begin %Colortable dictionary
/c0 { 0.000000 0.000000 0.000000 sr} bdef
/c1 { 1.000000 1.000000 1.000000 sr} bdef
/c2 { 0.900000 0.000000 0.000000 sr} bdef
/c3 { 0.000000 0.820000 0.000000 sr} bdef
/c4 { 0.000000 0.000000 0.800000 sr} bdef
/c5 { 0.910000 0.820000 0.320000 sr} bdef
/c6 { 1.000000 0.260000 0.820000 sr} bdef
/c7 { 0.000000 0.820000 0.820000 sr} bdef
c0
1 j
1 sg
   0    0 10591 5610 rf
6 w
0 4571 8207 0 0 -4571 1377 4992 4 MP
PP
-8207 0 0 4571 8207 0 0 -4571 1377 4992 5 MP stroke
4 w
DO
0 sg
1377 4992 mt 1377  421 L
1377  421 mt 1377  421 L
3275 4992 mt 3275  421 L
3275  421 mt 3275  421 L
5174 4992 mt 5174  421 L
5174  421 mt 5174  421 L
7073 4992 mt 7073  421 L
7073  421 mt 7073  421 L
8972 4992 mt 8972  421 L
8972  421 mt 8972  421 L
9543 4992 mt 9543  421 L
9543  421 mt 9543  421 L
1377 4992 mt 9584 4992 L
9584 4992 mt 9584 4992 L
1377 4576 mt 9584 4576 L
9584 4576 mt 9584 4576 L
1377 4160 mt 9584 4160 L
9584 4160 mt 9584 4160 L
1377 3745 mt 9584 3745 L
9584 3745 mt 9584 3745 L
1377 3329 mt 9584 3329 L
9584 3329 mt 9584 3329 L
1377 2914 mt 9584 2914 L
9584 2914 mt 9584 2914 L
1377 2498 mt 9584 2498 L
9584 2498 mt 9584 2498 L
1377 2083 mt 9584 2083 L
9584 2083 mt 9584 2083 L
1377 1667 mt 9584 1667 L
9584 1667 mt 9584 1667 L
1377 1252 mt 9584 1252 L
9584 1252 mt 9584 1252 L
1377  836 mt 9584  836 L
9584  836 mt 9584  836 L
1377  421 mt 9584  421 L
9584  421 mt 9584  421 L
SO
6 w
1377 4992 mt 9584 4992 L
1377 4992 mt 1377  421 L
1377 4992 mt 1377 4950 L
DO
1377 4992 mt 1377  421 L
1377  421 mt 1377  421 L
SO
1377 4992 mt 1377 4909 L
%%IncludeResource: font Times-Roman
/Times-Roman /WindowsLatin1Encoding 240 FMSR

1227 5241 mt 
(0.1) s
1948 4992 mt 1948 4950 L
DO
1948 4992 mt 1948  421 L
1948  421 mt 1948  421 L
SO
2282 4992 mt 2282 4950 L
DO
2282 4992 mt 2282  421 L
2282  421 mt 2282  421 L
SO
2520 4992 mt 2520 4950 L
DO
2520 4992 mt 2520  421 L
2520  421 mt 2520  421 L
SO
2704 4992 mt 2704 4950 L
DO
2704 4992 mt 2704  421 L
2704  421 mt 2704  421 L
SO
2854 4992 mt 2854 4950 L
DO
2854 4992 mt 2854  421 L
2854  421 mt 2854  421 L
SO
2981 4992 mt 2981 4950 L
DO
2981 4992 mt 2981  421 L
2981  421 mt 2981  421 L
SO
3091 4992 mt 3091 4950 L
DO
3091 4992 mt 3091  421 L
3091  421 mt 3091  421 L
SO
3188 4992 mt 3188 4950 L
DO
3188 4992 mt 3188  421 L
3188  421 mt 3188  421 L
SO
3275 4992 mt 3275 4950 L
DO
3275 4992 mt 3275  421 L
3275  421 mt 3275  421 L
SO
3275 4992 mt 3275 4909 L
3215 5241 mt 
(1) s
3847 4992 mt 3847 4950 L
DO
3847 4992 mt 3847  421 L
3847  421 mt 3847  421 L
SO
4181 4992 mt 4181 4950 L
DO
4181 4992 mt 4181  421 L
4181  421 mt 4181  421 L
SO
4418 4992 mt 4418 4950 L
DO
4418 4992 mt 4418  421 L
4418  421 mt 4418  421 L
SO
4602 4992 mt 4602 4950 L
DO
4602 4992 mt 4602  421 L
4602  421 mt 4602  421 L
SO
4753 4992 mt 4753 4950 L
DO
4753 4992 mt 4753  421 L
4753  421 mt 4753  421 L
SO
4880 4992 mt 4880 4950 L
DO
4880 4992 mt 4880  421 L
4880  421 mt 4880  421 L
SO
4990 4992 mt 4990 4950 L
DO
4990 4992 mt 4990  421 L
4990  421 mt 4990  421 L
SO
5087 4992 mt 5087 4950 L
DO
5087 4992 mt 5087  421 L
5087  421 mt 5087  421 L
SO
5174 4992 mt 5174 4950 L
DO
5174 4992 mt 5174  421 L
5174  421 mt 5174  421 L
SO
5174 4992 mt 5174 4909 L
5054 5241 mt 
(10) s
5746 4992 mt 5746 4950 L
DO
5746 4992 mt 5746  421 L
5746  421 mt 5746  421 L
SO
6080 4992 mt 6080 4950 L
DO
6080 4992 mt 6080  421 L
6080  421 mt 6080  421 L
SO
6317 4992 mt 6317 4950 L
DO
6317 4992 mt 6317  421 L
6317  421 mt 6317  421 L
SO
6501 4992 mt 6501 4950 L
DO
6501 4992 mt 6501  421 L
6501  421 mt 6501  421 L
SO
6652 4992 mt 6652 4950 L
DO
6652 4992 mt 6652  421 L
6652  421 mt 6652  421 L
SO
6779 4992 mt 6779 4950 L
DO
6779 4992 mt 6779  421 L
6779  421 mt 6779  421 L
SO
6889 4992 mt 6889 4950 L
DO
6889 4992 mt 6889  421 L
6889  421 mt 6889  421 L
SO
6986 4992 mt 6986 4950 L
DO
6986 4992 mt 6986  421 L
6986  421 mt 6986  421 L
SO
7073 4992 mt 7073 4950 L
DO
7073 4992 mt 7073  421 L
7073  421 mt 7073  421 L
SO
7073 4992 mt 7073 4909 L
6893 5241 mt 
(100) s
7644 4992 mt 7644 4950 L
DO
7644 4992 mt 7644  421 L
7644  421 mt 7644  421 L
SO
7979 4992 mt 7979 4950 L
DO
7979 4992 mt 7979  421 L
7979  421 mt 7979  421 L
SO
8216 4992 mt 8216 4950 L
DO
8216 4992 mt 8216  421 L
8216  421 mt 8216  421 L
SO
8400 4992 mt 8400 4950 L
DO
8400 4992 mt 8400  421 L
8400  421 mt 8400  421 L
SO
8550 4992 mt 8550 4950 L
DO
8550 4992 mt 8550  421 L
8550  421 mt 8550  421 L
SO
8678 4992 mt 8678 4950 L
DO
8678 4992 mt 8678  421 L
8678  421 mt 8678  421 L
SO
8788 4992 mt 8788 4950 L
DO
8788 4992 mt 8788  421 L
8788  421 mt 8788  421 L
SO
8885 4992 mt 8885 4950 L
DO
8885 4992 mt 8885  421 L
8885  421 mt 8885  421 L
SO
8972 4992 mt 8972 4950 L
DO
8972 4992 mt 8972  421 L
8972  421 mt 8972  421 L
SO
8972 4992 mt 8972 4909 L
8702 5241 mt 
(1,000) s
9543 4992 mt 9543 4950 L
DO
9543 4992 mt 9543  421 L
9543  421 mt 9543  421 L
SO
9543 4992 mt 9543 4950 L
DO
9543 4992 mt 9543  421 L
9543  421 mt 9543  421 L
SO
9543 4992 mt 9543 4950 L
DO
9543 4992 mt 9543  421 L
9543  421 mt 9543  421 L
SO
9543 4992 mt 9543 4950 L
DO
9543 4992 mt 9543  421 L
9543  421 mt 9543  421 L
SO
9543 4992 mt 9543 4950 L
DO
9543 4992 mt 9543  421 L
9543  421 mt 9543  421 L
SO
9543 4992 mt 9543 4950 L
DO
9543 4992 mt 9543  421 L
9543  421 mt 9543  421 L
SO
9543 4992 mt 9543 4950 L
DO
9543 4992 mt 9543  421 L
9543  421 mt 9543  421 L
SO
9543 4992 mt 9543 4950 L
DO
9543 4992 mt 9543  421 L
9543  421 mt 9543  421 L
SO
9543 4992 mt 9543 4950 L
DO
9543 4992 mt 9543  421 L
9543  421 mt 9543  421 L
SO
9543 4992 mt 9543 4909 L
9303 5241 mt 
(2000) s
1377 4992 mt 1459 4992 L
1222 5078 mt 
(0) s
1377 4576 mt 1459 4576 L
 922 4662 mt 
(0.05) s
1377 4160 mt 1459 4160 L
1042 4246 mt 
(0.1) s
1377 3745 mt 1459 3745 L
 922 3831 mt 
(0.15) s
1377 3329 mt 1459 3329 L
1042 3415 mt 
(0.2) s
1377 2914 mt 1459 2914 L
 922 3000 mt 
(0.25) s
1377 2498 mt 1459 2498 L
1042 2584 mt 
(0.3) s
1377 2083 mt 1459 2083 L
 922 2169 mt 
(0.35) s
1377 1667 mt 1459 1667 L
1042 1753 mt 
(0.4) s
1377 1252 mt 1459 1252 L
 922 1338 mt 
(0.45) s
1377  836 mt 1459  836 L
1042  922 mt 
(0.5) s
1377  421 mt 1459  421 L
 922  507 mt 
(0.55) s
gs 1377 421 8208 4572 rc
DA
18 w
237 101 334 -119 572 27 505 128 822 113 184 -9 237 -2 335 97 
571 -80 572 171 1899 741 1898 2208 1377 706 13 MP stroke
SO
237 -208 334 173 572 -60 505 98 822 -257 184 -94 237 -53 335 -236 
571 -31 572 -170 1899 -1126 1898 -618 1377 4056 13 MP stroke
DO
237 30 334 -10 572 12 505 -100 822 164 184 133 237 -82 335 202 
571 -99 572 94 1899 674 1898 -954 1377 3055 13 MP stroke
SO
237 167 334 -149 572 40 505 -84 822 -3 184 21 237 37 335 1 
571 80 572 -101 1899 -176 1898 -283 1377 4687 13 MP stroke
gr

18 w
0 j
0 -58 -58 0 0 58 58 0 1348 4658 5 MP
gs
PP
gr
DP
0 -58 -58 0 0 58 58 0 3246 4375 5 MP
gs
PP
gr
DP
0 -58 -58 0 0 58 58 0 5145 4199 5 MP
gs
PP
gr
DP
0 -58 -58 0 0 58 58 0 5717 4098 5 MP
gs
PP
gr
DP
0 -58 -58 0 0 58 58 0 6288 4178 5 MP
gs
PP
gr
DP
0 -58 -58 0 0 58 58 0 6623 4179 5 MP
gs
PP
gr
DP
0 -58 -58 0 0 58 58 0 6860 4216 5 MP
gs
PP
gr
DP
0 -58 -58 0 0 58 58 0 7044 4237 5 MP
gs
PP
gr
DP
0 -58 -58 0 0 58 58 0 7866 4234 5 MP
gs
PP
gr
DP
0 -58 -58 0 0 58 58 0 8371 4150 5 MP
gs
PP
gr
DP
0 -58 -58 0 0 58 58 0 8943 4190 5 MP
gs
PP
gr
DP
0 -58 -58 0 0 58 58 0 9277 4041 5 MP
gs
PP
gr
DP
0 -58 -58 0 0 58 58 0 9514 4208 5 MP
gs
PP
gr
DP
gs 1377 421 8208 4572 rc
237 -89 334 104 572 -18 505 -42 822 -17 184 -51 237 100 335 -64 
571 130 572 6 1899 -114 1898 -353 1377 4143 13 MP stroke
gr

-41 71 -41 -71 82 0 1336 4167 4 MP
gs
PP
gr
DP
-41 71 -41 -71 82 0 3234 3814 4 MP
gs
PP
gr
DP
-41 71 -41 -71 82 0 5133 3700 4 MP
gs
PP
gr
DP
-41 71 -41 -71 82 0 5705 3706 4 MP
gs
PP
gr
DP
-41 71 -41 -71 82 0 6276 3836 4 MP
gs
PP
gr
DP
-41 71 -41 -71 82 0 6611 3772 4 MP
gs
PP
gr
DP
-41 71 -41 -71 82 0 6848 3872 4 MP
gs
PP
gr
DP
-41 71 -41 -71 82 0 7032 3821 4 MP
gs
PP
gr
DP
-41 71 -41 -71 82 0 7854 3804 4 MP
gs
PP
gr
DP
-41 71 -41 -71 82 0 8359 3762 4 MP
gs
PP
gr
DP
-41 71 -41 -71 82 0 8931 3744 4 MP
gs
PP
gr
DP
-41 71 -41 -71 82 0 9265 3848 4 MP
gs
PP
gr
DP
-41 71 -41 -71 82 0 9502 3759 4 MP
gs
PP
gr
DP
gs 1377 421 8208 4572 rc
gr

4165 5476 mt 
(Corpus size, million tokens) s
 815 4953 mt  -90 rotate
(Percent of relations among all correct relations) s
90 rotate
%%IncludeResource: font Helvetica
/Helvetica /WindowsLatin1Encoding 120 FMSR

1360 5035 mt 
( ) s
9568  463 mt 
( ) s
6 w
1 sg
0 1747 1174 0 0 -1747 3848 2197 4 MP
PP
-1174 0 0 1747 1174 0 0 -1747 3848 2197 5 MP stroke
4 w
DO
SO
6 w
0 sg
3848  450 mt 5022  450 L
3848 2197 mt 5022 2197 L
5022 2197 mt 5022  450 L
3848 2197 mt 3848  450 L
3848 2197 mt 5022 2197 L
3848 2197 mt 3848  450 L
3848  450 mt 5022  450 L
3848 2197 mt 5022 2197 L
5022 2197 mt 5022  450 L
3848 2197 mt 3848  450 L
%%IncludeResource: font Times-Roman
/Times-Roman /WindowsLatin1Encoding 240 FMSR

4365  726 mt 
(attri) s
gs 3848 450 1175 1748 rc
DA
18 w
398 0 3927 643 2 MP stroke
SO
gr

18 w
4365 1066 mt 
(coord) s
gs 3848 450 1175 1748 rc
398 0 3927 983 2 MP stroke
gr

4365 1406 mt 
(event) s
gs 3848 450 1175 1748 rc
DO
398 0 3927 1323 2 MP stroke
SO
gr

4365 1746 mt 
(hyper) s
gs 3848 450 1175 1748 rc
398 0 3927 1663 2 MP stroke
gs 4034 1571 185 185 rc
0 -58 -58 0 0 58 58 0 4097 1634 5 MP
gs
PP
gr
DP
gr

gr

4365 2086 mt 
(mero) s
gs 3848 450 1175 1748 rc
398 0 3927 2003 2 MP stroke
gs 4034 1911 185 185 rc
-41 71 -41 -71 82 0 4085 2027 4 MP
gs
PP
gr
DP
gr

6 w
gr

6 w

end %%Color Dict

eplot
%%EndObject

epage
end

showpage

%%Trailer
%%EOF
