%!PS-Adobe-3.0 EPSF-3.0
%%Creator: MATLAB, The MathWorks, Inc. Version 7.14.0.739 (R2012a). Operating System: Linux 3.2.0-26-generic #41-Ubuntu SMP Thu Jun 14 17:49:24 UTC 2012 x86_64.
%%Title: /home/sasha/work/research/phd/mypapers/thesis/figures/papers/5/figures/pr-graph-4best-thesis.eps
%%CreationDate: 07/11/2012  11:06:45
%%DocumentNeededFonts: Helvetica
%%+ Times-Bold
%%DocumentProcessColors: Cyan Magenta Yellow Black
%%LanguageLevel: 2
%%Pages: 1
%%BoundingBox:   -13   149   626   641
%%EndComments

%%BeginProlog
% MathWorks dictionary
/MathWorks 160 dict begin
% definition operators
/bdef {bind def} bind def
/ldef {load def} bind def
/xdef {exch def} bdef
/xstore {exch store} bdef
% operator abbreviations
/c  /clip ldef
/cc /concat ldef
/cp /closepath ldef
/gr /grestore ldef
/gs /gsave ldef
/mt /moveto ldef
/np /newpath ldef
/cm /currentmatrix ldef
/sm /setmatrix ldef
/rm /rmoveto ldef
/rl /rlineto ldef
/s {show newpath} bdef
/sc {setcmykcolor} bdef
/sr /setrgbcolor ldef
/sg /setgray ldef
/w /setlinewidth ldef
/j /setlinejoin ldef
/cap /setlinecap ldef
/rc {rectclip} bdef
/rf {rectfill} bdef
% page state control
/pgsv () def
/bpage {/pgsv save def} bdef
/epage {pgsv restore} bdef
/bplot /gsave ldef
/eplot {stroke grestore} bdef
% orientation switch
/portraitMode 0 def /landscapeMode 1 def /rotateMode 2 def
% coordinate system mappings
/dpi2point 0 def
% font control
/FontSize 0 def
/FMS {/FontSize xstore findfont [FontSize 0 0 FontSize neg 0 0]
  makefont setfont} bdef
/reencode {exch dup where {pop load} {pop StandardEncoding} ifelse
  exch dup 3 1 roll findfont dup length dict begin
  { 1 index /FID ne {def}{pop pop} ifelse } forall
  /Encoding exch def currentdict end definefont pop} bdef
/isroman {findfont /CharStrings get /Agrave known} bdef
/FMSR {3 1 roll 1 index dup isroman {reencode} {pop pop} ifelse
  exch FMS} bdef
/csm {1 dpi2point div -1 dpi2point div scale neg translate
 dup landscapeMode eq {pop -90 rotate}
  {rotateMode eq {90 rotate} if} ifelse} bdef
% line types: solid, dotted, dashed, dotdash
/SO { [] 0 setdash } bdef
/DO { [.5 dpi2point mul 4 dpi2point mul] 0 setdash } bdef
/DA { [6 dpi2point mul] 0 setdash } bdef
/DD { [.5 dpi2point mul 4 dpi2point mul 6 dpi2point mul 4
  dpi2point mul] 0 setdash } bdef
% macros for lines and objects
/L {lineto stroke} bdef
/MP {3 1 roll moveto 1 sub {rlineto} repeat} bdef
/AP {{rlineto} repeat} bdef
/PDlw -1 def
/W {/PDlw currentlinewidth def setlinewidth} def
/PP {closepath eofill} bdef
/DP {closepath stroke} bdef
/MR {4 -2 roll moveto dup  0 exch rlineto exch 0 rlineto
  neg 0 exch rlineto closepath} bdef
/FR {MR stroke} bdef
/PR {MR fill} bdef
/L1i {{currentfile picstr readhexstring pop} image} bdef
/tMatrix matrix def
/MakeOval {newpath tMatrix currentmatrix pop translate scale
0 0 1 0 360 arc tMatrix setmatrix} bdef
/FO {MakeOval stroke} bdef
/PO {MakeOval fill} bdef
/PD {currentlinewidth 2 div 0 360 arc fill
   PDlw -1 eq not {PDlw w /PDlw -1 def} if} def
/FA {newpath tMatrix currentmatrix pop translate scale
  0 0 1 5 -2 roll arc tMatrix setmatrix stroke} bdef
/PA {newpath tMatrix currentmatrix pop	translate 0 0 moveto scale
  0 0 1 5 -2 roll arc closepath tMatrix setmatrix fill} bdef
/FAn {newpath tMatrix currentmatrix pop translate scale
  0 0 1 5 -2 roll arcn tMatrix setmatrix stroke} bdef
/PAn {newpath tMatrix currentmatrix pop translate 0 0 moveto scale
  0 0 1 5 -2 roll arcn closepath tMatrix setmatrix fill} bdef
/vradius 0 def /hradius 0 def /lry 0 def
/lrx 0 def /uly 0 def /ulx 0 def /rad 0 def
/MRR {/vradius xdef /hradius xdef /lry xdef /lrx xdef /uly xdef
  /ulx xdef newpath tMatrix currentmatrix pop ulx hradius add uly
  vradius add translate hradius vradius scale 0 0 1 180 270 arc 
  tMatrix setmatrix lrx hradius sub uly vradius add translate
  hradius vradius scale 0 0 1 270 360 arc tMatrix setmatrix
  lrx hradius sub lry vradius sub translate hradius vradius scale
  0 0 1 0 90 arc tMatrix setmatrix ulx hradius add lry vradius sub
  translate hradius vradius scale 0 0 1 90 180 arc tMatrix setmatrix
  closepath} bdef
/FRR {MRR stroke } bdef
/PRR {MRR fill } bdef
/MlrRR {/lry xdef /lrx xdef /uly xdef /ulx xdef /rad lry uly sub 2 div def
  newpath tMatrix currentmatrix pop ulx rad add uly rad add translate
  rad rad scale 0 0 1 90 270 arc tMatrix setmatrix lrx rad sub lry rad
  sub translate rad rad scale 0 0 1 270 90 arc tMatrix setmatrix
  closepath} bdef
/FlrRR {MlrRR stroke } bdef
/PlrRR {MlrRR fill } bdef
/MtbRR {/lry xdef /lrx xdef /uly xdef /ulx xdef /rad lrx ulx sub 2 div def
  newpath tMatrix currentmatrix pop ulx rad add uly rad add translate
  rad rad scale 0 0 1 180 360 arc tMatrix setmatrix lrx rad sub lry rad
  sub translate rad rad scale 0 0 1 0 180 arc tMatrix setmatrix
  closepath} bdef
/FtbRR {MtbRR stroke } bdef
/PtbRR {MtbRR fill } bdef
/stri 6 array def /dtri 6 array def
/smat 6 array def /dmat 6 array def
/tmat1 6 array def /tmat2 6 array def /dif 3 array def
/asub {/ind2 exch def /ind1 exch def dup dup
  ind1 get exch ind2 get sub exch } bdef
/tri_to_matrix {
  2 0 asub 3 1 asub 4 0 asub 5 1 asub
  dup 0 get exch 1 get 7 -1 roll astore } bdef
/compute_transform {
  dmat dtri tri_to_matrix tmat1 invertmatrix 
  smat stri tri_to_matrix tmat2 concatmatrix } bdef
/ds {stri astore pop} bdef
/dt {dtri astore pop} bdef
/db {2 copy /cols xdef /rows xdef mul dup 3 mul string
  currentfile 
  3 index 0 eq {/ASCIIHexDecode filter}
  {/ASCII85Decode filter 3 index 2 eq {/RunLengthDecode filter} if }
  ifelse exch readstring pop
  dup 0 3 index getinterval /rbmap xdef
  dup 2 index dup getinterval /gbmap xdef
  1 index dup 2 mul exch getinterval /bbmap xdef pop pop}bdef
/it {gs np dtri aload pop moveto lineto lineto cp c
  cols rows 8 compute_transform 
  rbmap gbmap bbmap true 3 colorimage gr}bdef
/il {newpath moveto lineto stroke}bdef
currentdict end def
%%EndProlog

%%BeginSetup
MathWorks begin

0 cap

end
%%EndSetup

%%Page: 1 1
%%BeginPageSetup
%%PageBoundingBox:   -13   149   626   641
MathWorks begin
bpage
%%EndPageSetup

%%BeginObject: obj1
bplot

/dpi2point 12 def
portraitMode -0156 7692 csm

    0     0  7679  5895 rc
87 dict begin %Colortable dictionary
/c0 { 0.000000 0.000000 0.000000 sr} bdef
/c1 { 1.000000 1.000000 1.000000 sr} bdef
/c2 { 0.900000 0.000000 0.000000 sr} bdef
/c3 { 0.000000 0.820000 0.000000 sr} bdef
/c4 { 0.000000 0.000000 0.800000 sr} bdef
/c5 { 0.910000 0.820000 0.320000 sr} bdef
/c6 { 1.000000 0.260000 0.820000 sr} bdef
/c7 { 0.000000 0.820000 0.820000 sr} bdef
c0
1 j
1 sg
   0    0 7680 5896 rf
6 w
0 4805 5951 0 0 -4805 998 5247 4 MP
PP
-5951 0 0 4805 5951 0 0 -4805 998 5247 5 MP stroke
4 w
DO
0 sg
 998 5247 mt  998  442 L
 998  442 mt  998  442 L
2188 5247 mt 2188  442 L
2188  442 mt 2188  442 L
3378 5247 mt 3378  442 L
3378  442 mt 3378  442 L
4568 5247 mt 4568  442 L
4568  442 mt 4568  442 L
5758 5247 mt 5758  442 L
5758  442 mt 5758  442 L
6949 5247 mt 6949  442 L
6949  442 mt 6949  442 L
 998 5247 mt 6949 5247 L
6949 5247 mt 6949 5247 L
 998 4285 mt 6949 4285 L
6949 4285 mt 6949 4285 L
 998 3325 mt 6949 3325 L
6949 3325 mt 6949 3325 L
 998 2363 mt 6949 2363 L
6949 2363 mt 6949 2363 L
 998 1403 mt 6949 1403 L
6949 1403 mt 6949 1403 L
 998  442 mt 6949  442 L
6949  442 mt 6949  442 L
SO
6 w
 998 5247 mt 6949 5247 L
 998 5247 mt  998  442 L
 998 5247 mt  998 5187 L
%%IncludeResource: font Times-Bold
/Times-Bold /ISOLatin1Encoding 240 FMSR

 938 5505 mt 
(0) s
2188 5247 mt 2188 5187 L
2038 5505 mt 
(0.1) s
3378 5247 mt 3378 5187 L
3228 5505 mt 
(0.2) s
4568 5247 mt 4568 5187 L
4418 5505 mt 
(0.3) s
5758 5247 mt 5758 5187 L
5608 5505 mt 
(0.4) s
6949 5247 mt 6949 5187 L
6799 5505 mt 
(0.5) s
 998 5247 mt 1057 5247 L
 543 5336 mt 
(0.75) s
 998 4285 mt 1057 4285 L
 663 4374 mt 
(0.8) s
 998 3325 mt 1057 3325 L
 543 3414 mt 
(0.85) s
 998 2363 mt 1057 2363 L
 663 2452 mt 
(0.9) s
 998 1403 mt 1057 1403 L
 543 1492 mt 
(0.95) s
 998  442 mt 1057  442 L
 843  531 mt 
(1) s
gs 998 442 5952 4806 rc
36 w
/c8 { 1.000000 0.000000 0.000000 sr} bdef
c8
97 158 132 196 136 210 146 149 163 129 151 111 192 115 179 123 
173 123 186 83 198 65 194 79 195 69 205 38 207 25 200 44 
211 48 204 51 214 -13 212 18 209 15 214 48 215 -2 216 17 
218 59 198 59 229 -29 209 9 205 123 224 70 56 -25 1162 538 32 MP stroke
gr

36 w
c8
0 j
-69 119 -69 -119 138 0 1093 578 4 MP
gs
PP
gr
DP
-69 119 -69 -119 138 0 1149 553 4 MP
gs
PP
gr
DP
-69 119 -69 -119 138 0 1373 623 4 MP
gs
PP
gr
DP
-69 119 -69 -119 138 0 1578 746 4 MP
gs
PP
gr
DP
-69 119 -69 -119 138 0 1787 755 4 MP
gs
PP
gr
DP
-69 119 -69 -119 138 0 2016 726 4 MP
gs
PP
gr
DP
-69 119 -69 -119 138 0 2214 785 4 MP
gs
PP
gr
DP
-69 119 -69 -119 138 0 2432 844 4 MP
gs
PP
gr
DP
-69 119 -69 -119 138 0 2648 861 4 MP
gs
PP
gr
DP
-69 119 -69 -119 138 0 2863 859 4 MP
gs
PP
gr
DP
-69 119 -69 -119 138 0 3077 907 4 MP
gs
PP
gr
DP
-69 119 -69 -119 138 0 3286 922 4 MP
gs
PP
gr
DP
-69 119 -69 -119 138 0 3498 940 4 MP
gs
PP
gr
DP
-69 119 -69 -119 138 0 3712 927 4 MP
gs
PP
gr
DP
-69 119 -69 -119 138 0 3916 978 4 MP
gs
PP
gr
DP
-69 119 -69 -119 138 0 4127 1026 4 MP
gs
PP
gr
DP
-69 119 -69 -119 138 0 4327 1070 4 MP
gs
PP
gr
DP
-69 119 -69 -119 138 0 4534 1095 4 MP
gs
PP
gr
DP
-69 119 -69 -119 138 0 4739 1133 4 MP
gs
PP
gr
DP
-69 119 -69 -119 138 0 4934 1202 4 MP
gs
PP
gr
DP
-69 119 -69 -119 138 0 5128 1281 4 MP
gs
PP
gr
DP
-69 119 -69 -119 138 0 5326 1346 4 MP
gs
PP
gr
DP
-69 119 -69 -119 138 0 5512 1429 4 MP
gs
PP
gr
DP
-69 119 -69 -119 138 0 5685 1552 4 MP
gs
PP
gr
DP
-69 119 -69 -119 138 0 5864 1675 4 MP
gs
PP
gr
DP
-69 119 -69 -119 138 0 6056 1790 4 MP
gs
PP
gr
DP
-69 119 -69 -119 138 0 6207 1901 4 MP
gs
PP
gr
DP
-69 119 -69 -119 138 0 6370 2030 4 MP
gs
PP
gr
DP
-69 119 -69 -119 138 0 6516 2179 4 MP
gs
PP
gr
DP
-69 119 -69 -119 138 0 6652 2389 4 MP
gs
PP
gr
DP
-69 119 -69 -119 138 0 6784 2585 4 MP
gs
PP
gr
DP
gs 998 442 5952 4806 rc
/c9 { 0.000000 0.000000 1.000000 sr} bdef
c9
87 33 188 62 179 51 189 51 173 36 217 27 189 79 195 33 
187 71 198 50 200 45 196 47 200 48 199 54 193 67 209 48 
201 52 202 66 208 32 209 -4 216 24 211 23 209 70 221 8 
201 -23 225 23 207 4 204 80 222 67 56 -98 1159 826 31 MP stroke
gr

c9
-35 -26 13 -41 -36 24 -35 -24 13 41 -35 26 43 0 14 41 
15 -41 43 0 1101 807 11 MP
DP
-35 -26 13 -41 -36 24 -35 -24 13 41 -35 26 43 0 14 41 
15 -41 43 0 1157 709 11 MP
DP
-35 -26 13 -41 -36 24 -35 -24 13 41 -35 26 43 0 14 41 
15 -41 43 0 1379 776 11 MP
DP
-35 -26 13 -41 -36 24 -35 -24 13 41 -35 26 43 0 14 41 
15 -41 43 0 1583 856 11 MP
DP
-35 -26 13 -41 -36 24 -35 -24 13 41 -35 26 43 0 14 41 
15 -41 43 0 1790 860 11 MP
DP
-35 -26 13 -41 -36 24 -35 -24 13 41 -35 26 43 0 14 41 
15 -41 43 0 2015 883 11 MP
DP
-35 -26 13 -41 -36 24 -35 -24 13 41 -35 26 43 0 14 41 
15 -41 43 0 2216 860 11 MP
DP
-35 -26 13 -41 -36 24 -35 -24 13 41 -35 26 43 0 14 41 
15 -41 43 0 2437 868 11 MP
DP
-35 -26 13 -41 -36 24 -35 -24 13 41 -35 26 43 0 14 41 
15 -41 43 0 2646 938 11 MP
DP
-35 -26 13 -41 -36 24 -35 -24 13 41 -35 26 43 0 14 41 
15 -41 43 0 2857 961 11 MP
DP
-35 -26 13 -41 -36 24 -35 -24 13 41 -35 26 43 0 14 41 
15 -41 43 0 3073 985 11 MP
DP
-35 -26 13 -41 -36 24 -35 -24 13 41 -35 26 43 0 14 41 
15 -41 43 0 3282 981 11 MP
DP
-35 -26 13 -41 -36 24 -35 -24 13 41 -35 26 43 0 14 41 
15 -41 43 0 3490 1013 11 MP
DP
-35 -26 13 -41 -36 24 -35 -24 13 41 -35 26 43 0 14 41 
15 -41 43 0 3692 1079 11 MP
DP
-35 -26 13 -41 -36 24 -35 -24 13 41 -35 26 43 0 14 41 
15 -41 43 0 3893 1131 11 MP
DP
-35 -26 13 -41 -36 24 -35 -24 13 41 -35 26 43 0 14 41 
15 -41 43 0 4102 1179 11 MP
DP
-35 -26 13 -41 -36 24 -35 -24 13 41 -35 26 43 0 14 41 
15 -41 43 0 4295 1246 11 MP
DP
-35 -26 13 -41 -36 24 -35 -24 13 41 -35 26 43 0 14 41 
15 -41 43 0 4494 1300 11 MP
DP
-35 -26 13 -41 -36 24 -35 -24 13 41 -35 26 43 0 14 41 
15 -41 43 0 4694 1348 11 MP
DP
-35 -26 13 -41 -36 24 -35 -24 13 41 -35 26 43 0 14 41 
15 -41 43 0 4890 1395 11 MP
DP
-35 -26 13 -41 -36 24 -35 -24 13 41 -35 26 43 0 14 41 
15 -41 43 0 5090 1440 11 MP
DP
-35 -26 13 -41 -36 24 -35 -24 13 41 -35 26 43 0 14 41 
15 -41 43 0 5288 1490 11 MP
DP
-35 -26 13 -41 -36 24 -35 -24 13 41 -35 26 43 0 14 41 
15 -41 43 0 5475 1561 11 MP
DP
-35 -26 13 -41 -36 24 -35 -24 13 41 -35 26 43 0 14 41 
15 -41 43 0 5670 1594 11 MP
DP
-35 -26 13 -41 -36 24 -35 -24 13 41 -35 26 43 0 14 41 
15 -41 43 0 5859 1673 11 MP
DP
-35 -26 13 -41 -36 24 -35 -24 13 41 -35 26 43 0 14 41 
15 -41 43 0 6076 1700 11 MP
DP
-35 -26 13 -41 -36 24 -35 -24 13 41 -35 26 43 0 14 41 
15 -41 43 0 6249 1736 11 MP
DP
-35 -26 13 -41 -36 24 -35 -24 13 41 -35 26 43 0 14 41 
15 -41 43 0 6438 1787 11 MP
DP
-35 -26 13 -41 -36 24 -35 -24 13 41 -35 26 43 0 14 41 
15 -41 43 0 6617 1838 11 MP
DP
-35 -26 13 -41 -36 24 -35 -24 13 41 -35 26 43 0 14 41 
15 -41 43 0 6805 1900 11 MP
DP
gs 998 442 5952 4806 rc
/c10 { 0.000000 1.000000 0.000000 sr} bdef
c10
174 65 170 108 167 84 175 87 161 78 200 81 182 103 183 81 
179 106 184 115 192 86 190 88 197 76 203 41 199 48 210 57 
203 56 202 78 208 52 208 34 219 24 212 49 216 33 219 78 
203 11 229 14 211 24 209 13 226 35 56 0 1163 442 31 MP stroke
gr

c10
0 -94 -94 0 0 94 94 0 1116 395 5 MP
gs
PP
gr
DP
0 -94 -94 0 0 94 94 0 1172 395 5 MP
gs
PP
gr
DP
0 -94 -94 0 0 94 94 0 1398 430 5 MP
gs
PP
gr
DP
0 -94 -94 0 0 94 94 0 1607 443 5 MP
gs
PP
gr
DP
0 -94 -94 0 0 94 94 0 1818 467 5 MP
gs
PP
gr
DP
0 -94 -94 0 0 94 94 0 2047 481 5 MP
gs
PP
gr
DP
0 -94 -94 0 0 94 94 0 2250 492 5 MP
gs
PP
gr
DP
0 -94 -94 0 0 94 94 0 2469 570 5 MP
gs
PP
gr
DP
0 -94 -94 0 0 94 94 0 2685 603 5 MP
gs
PP
gr
DP
0 -94 -94 0 0 94 94 0 2897 652 5 MP
gs
PP
gr
DP
0 -94 -94 0 0 94 94 0 3116 676 5 MP
gs
PP
gr
DP
0 -94 -94 0 0 94 94 0 3324 710 5 MP
gs
PP
gr
DP
0 -94 -94 0 0 94 94 0 3532 762 5 MP
gs
PP
gr
DP
0 -94 -94 0 0 94 94 0 3734 840 5 MP
gs
PP
gr
DP
0 -94 -94 0 0 94 94 0 3937 896 5 MP
gs
PP
gr
DP
0 -94 -94 0 0 94 94 0 4147 953 5 MP
gs
PP
gr
DP
0 -94 -94 0 0 94 94 0 4346 1001 5 MP
gs
PP
gr
DP
0 -94 -94 0 0 94 94 0 4549 1042 5 MP
gs
PP
gr
DP
0 -94 -94 0 0 94 94 0 4746 1118 5 MP
gs
PP
gr
DP
0 -94 -94 0 0 94 94 0 4936 1206 5 MP
gs
PP
gr
DP
0 -94 -94 0 0 94 94 0 5128 1292 5 MP
gs
PP
gr
DP
0 -94 -94 0 0 94 94 0 5312 1407 5 MP
gs
PP
gr
DP
0 -94 -94 0 0 94 94 0 5491 1513 5 MP
gs
PP
gr
DP
0 -94 -94 0 0 94 94 0 5674 1594 5 MP
gs
PP
gr
DP
0 -94 -94 0 0 94 94 0 5856 1697 5 MP
gs
PP
gr
DP
0 -94 -94 0 0 94 94 0 6056 1778 5 MP
gs
PP
gr
DP
0 -94 -94 0 0 94 94 0 6217 1856 5 MP
gs
PP
gr
DP
0 -94 -94 0 0 94 94 0 6392 1943 5 MP
gs
PP
gr
DP
0 -94 -94 0 0 94 94 0 6559 2027 5 MP
gs
PP
gr
DP
0 -94 -94 0 0 94 94 0 6729 2135 5 MP
gs
PP
gr
DP
gs 998 442 5952 4806 rc
/c11 { 1.000000 0.000000 1.000000 sr} bdef
c11
42 36 139 119 156 95 163 79 153 123 147 114 160 104 145 99 
182 107 171 108 170 91 180 62 177 98 180 97 186 54 189 60 
187 71 189 50 200 45 189 80 192 74 193 87 191 98 208 35 
201 75 206 42 206 127 191 91 217 115 200 138 203 128 222 67 
54 94 1161 634 34 MP stroke
gr

c11
0 sg
3759 5667 mt 
(Recall) s
 436 3316 mt  -90 rotate
(Precision) s
90 rotate
%%IncludeResource: font Helvetica
/Helvetica /ISOLatin1Encoding 120 FMSR

 981 5290 mt 
( ) s
6933  484 mt 
( ) s
6 w
1 sg
0 1218 3085 0 0 -1218 1235 4764 4 MP
PP
-3085 0 0 1218 3085 0 0 -1218 1235 4764 5 MP stroke
4 w
DO
SO
6 w
0 sg
1235 4764 mt 4320 4764 L
1235 3546 mt 4320 3546 L
1235 4764 mt 1235 3546 L
4320 4764 mt 4320 3546 L
1235 4764 mt 4320 4764 L
1235 4764 mt 1235 3546 L
1235 4764 mt 4320 4764 L
1235 3546 mt 4320 3546 L
1235 4764 mt 1235 3546 L
4320 4764 mt 4320 3546 L
%%IncludeResource: font Times-Bold
/Times-Bold /ISOLatin1Encoding 240 FMSR

2370 3814 mt 
(WN-Resnik) s
gs 1235 3546 3086 1219 rc
36 w
c8
873 0 1409 3728 2 MP stroke
gs 1688 3570 317 317 rc
-69 119 -69 -119 138 0 1777 3768 4 MP
gs
PP
gr
DP
gr

gr

36 w
c8
0 sg
2370 4099 mt 
(BDA-3-5000) s
gs 1235 3546 3086 1219 rc
c9
873 0 1409 4012 2 MP stroke
gs 1688 3854 317 317 rc
-35 -26 13 -41 -36 24 -35 -24 13 41 -35 26 43 0 14 41 
15 -41 43 0 1788 3993 11 MP
DP
gr

gr

c9
0 sg
2370 4384 mt 
(SDA-21-100000) s
gs 1235 3546 3086 1219 rc
c10
873 0 1409 4297 2 MP stroke
gs 1688 4139 317 317 rc
0 -94 -94 0 0 94 94 0 1799 4250 5 MP
gs
PP
gr
DP
gr

gr

c10
0 sg
2370 4669 mt 
(WktWiki-1000) s
gs 1235 3546 3086 1219 rc
c11
873 0 1409 4581 2 MP stroke
6 w
gr

6 w
c11

end %%Color Dict

eplot
%%EndObject

epage
end

showpage

%%Trailer
%%EOF
