%!PS-Adobe-3.0 EPSF-3.0
%%Creator: MATLAB, The MathWorks, Inc. Version 7.14.0.739 (R2012a). Operating System: Linux 3.2.0-26-generic #41-Ubuntu SMP Thu Jun 14 17:49:24 UTC 2012 x86_64.
%%Title: /home/sasha/work/research/phd/mypapers/thesis/figures/papers/5/figures/pr-graph-wiki-thesis.eps
%%CreationDate: 07/11/2012  11:05:34
%%DocumentNeededFonts: Helvetica
%%+ Times-Bold
%%DocumentProcessColors: Cyan Magenta Yellow Black
%%LanguageLevel: 2
%%Pages: 1
%%BoundingBox:   -13   149   626   641
%%EndComments

%%BeginProlog
% MathWorks dictionary
/MathWorks 160 dict begin
% definition operators
/bdef {bind def} bind def
/ldef {load def} bind def
/xdef {exch def} bdef
/xstore {exch store} bdef
% operator abbreviations
/c  /clip ldef
/cc /concat ldef
/cp /closepath ldef
/gr /grestore ldef
/gs /gsave ldef
/mt /moveto ldef
/np /newpath ldef
/cm /currentmatrix ldef
/sm /setmatrix ldef
/rm /rmoveto ldef
/rl /rlineto ldef
/s {show newpath} bdef
/sc {setcmykcolor} bdef
/sr /setrgbcolor ldef
/sg /setgray ldef
/w /setlinewidth ldef
/j /setlinejoin ldef
/cap /setlinecap ldef
/rc {rectclip} bdef
/rf {rectfill} bdef
% page state control
/pgsv () def
/bpage {/pgsv save def} bdef
/epage {pgsv restore} bdef
/bplot /gsave ldef
/eplot {stroke grestore} bdef
% orientation switch
/portraitMode 0 def /landscapeMode 1 def /rotateMode 2 def
% coordinate system mappings
/dpi2point 0 def
% font control
/FontSize 0 def
/FMS {/FontSize xstore findfont [FontSize 0 0 FontSize neg 0 0]
  makefont setfont} bdef
/reencode {exch dup where {pop load} {pop StandardEncoding} ifelse
  exch dup 3 1 roll findfont dup length dict begin
  { 1 index /FID ne {def}{pop pop} ifelse } forall
  /Encoding exch def currentdict end definefont pop} bdef
/isroman {findfont /CharStrings get /Agrave known} bdef
/FMSR {3 1 roll 1 index dup isroman {reencode} {pop pop} ifelse
  exch FMS} bdef
/csm {1 dpi2point div -1 dpi2point div scale neg translate
 dup landscapeMode eq {pop -90 rotate}
  {rotateMode eq {90 rotate} if} ifelse} bdef
% line types: solid, dotted, dashed, dotdash
/SO { [] 0 setdash } bdef
/DO { [.5 dpi2point mul 4 dpi2point mul] 0 setdash } bdef
/DA { [6 dpi2point mul] 0 setdash } bdef
/DD { [.5 dpi2point mul 4 dpi2point mul 6 dpi2point mul 4
  dpi2point mul] 0 setdash } bdef
% macros for lines and objects
/L {lineto stroke} bdef
/MP {3 1 roll moveto 1 sub {rlineto} repeat} bdef
/AP {{rlineto} repeat} bdef
/PDlw -1 def
/W {/PDlw currentlinewidth def setlinewidth} def
/PP {closepath eofill} bdef
/DP {closepath stroke} bdef
/MR {4 -2 roll moveto dup  0 exch rlineto exch 0 rlineto
  neg 0 exch rlineto closepath} bdef
/FR {MR stroke} bdef
/PR {MR fill} bdef
/L1i {{currentfile picstr readhexstring pop} image} bdef
/tMatrix matrix def
/MakeOval {newpath tMatrix currentmatrix pop translate scale
0 0 1 0 360 arc tMatrix setmatrix} bdef
/FO {MakeOval stroke} bdef
/PO {MakeOval fill} bdef
/PD {currentlinewidth 2 div 0 360 arc fill
   PDlw -1 eq not {PDlw w /PDlw -1 def} if} def
/FA {newpath tMatrix currentmatrix pop translate scale
  0 0 1 5 -2 roll arc tMatrix setmatrix stroke} bdef
/PA {newpath tMatrix currentmatrix pop	translate 0 0 moveto scale
  0 0 1 5 -2 roll arc closepath tMatrix setmatrix fill} bdef
/FAn {newpath tMatrix currentmatrix pop translate scale
  0 0 1 5 -2 roll arcn tMatrix setmatrix stroke} bdef
/PAn {newpath tMatrix currentmatrix pop translate 0 0 moveto scale
  0 0 1 5 -2 roll arcn closepath tMatrix setmatrix fill} bdef
/vradius 0 def /hradius 0 def /lry 0 def
/lrx 0 def /uly 0 def /ulx 0 def /rad 0 def
/MRR {/vradius xdef /hradius xdef /lry xdef /lrx xdef /uly xdef
  /ulx xdef newpath tMatrix currentmatrix pop ulx hradius add uly
  vradius add translate hradius vradius scale 0 0 1 180 270 arc 
  tMatrix setmatrix lrx hradius sub uly vradius add translate
  hradius vradius scale 0 0 1 270 360 arc tMatrix setmatrix
  lrx hradius sub lry vradius sub translate hradius vradius scale
  0 0 1 0 90 arc tMatrix setmatrix ulx hradius add lry vradius sub
  translate hradius vradius scale 0 0 1 90 180 arc tMatrix setmatrix
  closepath} bdef
/FRR {MRR stroke } bdef
/PRR {MRR fill } bdef
/MlrRR {/lry xdef /lrx xdef /uly xdef /ulx xdef /rad lry uly sub 2 div def
  newpath tMatrix currentmatrix pop ulx rad add uly rad add translate
  rad rad scale 0 0 1 90 270 arc tMatrix setmatrix lrx rad sub lry rad
  sub translate rad rad scale 0 0 1 270 90 arc tMatrix setmatrix
  closepath} bdef
/FlrRR {MlrRR stroke } bdef
/PlrRR {MlrRR fill } bdef
/MtbRR {/lry xdef /lrx xdef /uly xdef /ulx xdef /rad lrx ulx sub 2 div def
  newpath tMatrix currentmatrix pop ulx rad add uly rad add translate
  rad rad scale 0 0 1 180 360 arc tMatrix setmatrix lrx rad sub lry rad
  sub translate rad rad scale 0 0 1 0 180 arc tMatrix setmatrix
  closepath} bdef
/FtbRR {MtbRR stroke } bdef
/PtbRR {MtbRR fill } bdef
/stri 6 array def /dtri 6 array def
/smat 6 array def /dmat 6 array def
/tmat1 6 array def /tmat2 6 array def /dif 3 array def
/asub {/ind2 exch def /ind1 exch def dup dup
  ind1 get exch ind2 get sub exch } bdef
/tri_to_matrix {
  2 0 asub 3 1 asub 4 0 asub 5 1 asub
  dup 0 get exch 1 get 7 -1 roll astore } bdef
/compute_transform {
  dmat dtri tri_to_matrix tmat1 invertmatrix 
  smat stri tri_to_matrix tmat2 concatmatrix } bdef
/ds {stri astore pop} bdef
/dt {dtri astore pop} bdef
/db {2 copy /cols xdef /rows xdef mul dup 3 mul string
  currentfile 
  3 index 0 eq {/ASCIIHexDecode filter}
  {/ASCII85Decode filter 3 index 2 eq {/RunLengthDecode filter} if }
  ifelse exch readstring pop
  dup 0 3 index getinterval /rbmap xdef
  dup 2 index dup getinterval /gbmap xdef
  1 index dup 2 mul exch getinterval /bbmap xdef pop pop}bdef
/it {gs np dtri aload pop moveto lineto lineto cp c
  cols rows 8 compute_transform 
  rbmap gbmap bbmap true 3 colorimage gr}bdef
/il {newpath moveto lineto stroke}bdef
currentdict end def
%%EndProlog

%%BeginSetup
MathWorks begin

0 cap

end
%%EndSetup

%%Page: 1 1
%%BeginPageSetup
%%PageBoundingBox:   -13   149   626   641
MathWorks begin
bpage
%%EndPageSetup

%%BeginObject: obj1
bplot

/dpi2point 12 def
portraitMode -0156 7692 csm

    0     0  7679  5895 rc
87 dict begin %Colortable dictionary
/c0 { 0.000000 0.000000 0.000000 sr} bdef
/c1 { 1.000000 1.000000 1.000000 sr} bdef
/c2 { 0.900000 0.000000 0.000000 sr} bdef
/c3 { 0.000000 0.820000 0.000000 sr} bdef
/c4 { 0.000000 0.000000 0.800000 sr} bdef
/c5 { 0.910000 0.820000 0.320000 sr} bdef
/c6 { 1.000000 0.260000 0.820000 sr} bdef
/c7 { 0.000000 0.820000 0.820000 sr} bdef
c0
1 j
1 sg
   0    0 7680 5896 rf
6 w
0 4805 5951 0 0 -4805 998 5247 4 MP
PP
-5951 0 0 4805 5951 0 0 -4805 998 5247 5 MP stroke
4 w
DO
0 sg
 998 5247 mt  998  442 L
 998  442 mt  998  442 L
2188 5247 mt 2188  442 L
2188  442 mt 2188  442 L
3378 5247 mt 3378  442 L
3378  442 mt 3378  442 L
4568 5247 mt 4568  442 L
4568  442 mt 4568  442 L
5758 5247 mt 5758  442 L
5758  442 mt 5758  442 L
6949 5247 mt 6949  442 L
6949  442 mt 6949  442 L
 998 5247 mt 6949 5247 L
6949 5247 mt 6949 5247 L
 998 4285 mt 6949 4285 L
6949 4285 mt 6949 4285 L
 998 3325 mt 6949 3325 L
6949 3325 mt 6949 3325 L
 998 2363 mt 6949 2363 L
6949 2363 mt 6949 2363 L
 998 1403 mt 6949 1403 L
6949 1403 mt 6949 1403 L
 998  442 mt 6949  442 L
6949  442 mt 6949  442 L
SO
6 w
 998 5247 mt 6949 5247 L
 998 5247 mt  998  442 L
 998 5247 mt  998 5187 L
%%IncludeResource: font Times-Bold
/Times-Bold /ISOLatin1Encoding 240 FMSR

 938 5505 mt 
(0) s
2188 5247 mt 2188 5187 L
2038 5505 mt 
(0.1) s
3378 5247 mt 3378 5187 L
3228 5505 mt 
(0.2) s
4568 5247 mt 4568 5187 L
4418 5505 mt 
(0.3) s
5758 5247 mt 5758 5187 L
5608 5505 mt 
(0.4) s
6949 5247 mt 6949 5187 L
6799 5505 mt 
(0.5) s
 998 5247 mt 1057 5247 L
 543 5336 mt 
(0.75) s
 998 4285 mt 1057 4285 L
 663 4374 mt 
(0.8) s
 998 3325 mt 1057 3325 L
 543 3414 mt 
(0.85) s
 998 2363 mt 1057 2363 L
 663 2452 mt 
(0.9) s
 998 1403 mt 1057 1403 L
 543 1492 mt 
(0.95) s
 998  442 mt 1057  442 L
 843  531 mt 
(1) s
gs 998 442 5952 4806 rc
36 w
/c8 { 1.000000 0.000000 0.000000 sr} bdef
c8
129 53 153 74 150 102 157 88 159 95 152 87 159 94 152 62 
171 131 165 115 174 62 170 86 179 70 181 70 173 101 177 98 
181 88 181 73 198 36 192 41 186 89 189 99 189 84 204 32 
199 53 201 67 209 24 184 130 217 15 195 154 200 19 214 132 
52 308 1158 922 34 MP stroke
gr

36 w
c8
0 j
0 -94 -94 0 0 94 94 0 1111 875 5 MP
gs
PP
gr
DP
0 -94 -94 0 0 94 94 0 1163 1183 5 MP
gs
PP
gr
DP
0 -94 -94 0 0 94 94 0 1377 1315 5 MP
gs
PP
gr
DP
0 -94 -94 0 0 94 94 0 1577 1334 5 MP
gs
PP
gr
DP
0 -94 -94 0 0 94 94 0 1772 1488 5 MP
gs
PP
gr
DP
0 -94 -94 0 0 94 94 0 1989 1503 5 MP
gs
PP
gr
DP
0 -94 -94 0 0 94 94 0 2173 1633 5 MP
gs
PP
gr
DP
0 -94 -94 0 0 94 94 0 2382 1657 5 MP
gs
PP
gr
DP
0 -94 -94 0 0 94 94 0 2583 1724 5 MP
gs
PP
gr
DP
0 -94 -94 0 0 94 94 0 2782 1777 5 MP
gs
PP
gr
DP
0 -94 -94 0 0 94 94 0 2986 1809 5 MP
gs
PP
gr
DP
0 -94 -94 0 0 94 94 0 3175 1893 5 MP
gs
PP
gr
DP
0 -94 -94 0 0 94 94 0 3364 1992 5 MP
gs
PP
gr
DP
0 -94 -94 0 0 94 94 0 3550 2081 5 MP
gs
PP
gr
DP
0 -94 -94 0 0 94 94 0 3742 2122 5 MP
gs
PP
gr
DP
0 -94 -94 0 0 94 94 0 3940 2158 5 MP
gs
PP
gr
DP
0 -94 -94 0 0 94 94 0 4121 2231 5 MP
gs
PP
gr
DP
0 -94 -94 0 0 94 94 0 4302 2319 5 MP
gs
PP
gr
DP
0 -94 -94 0 0 94 94 0 4479 2417 5 MP
gs
PP
gr
DP
0 -94 -94 0 0 94 94 0 4652 2518 5 MP
gs
PP
gr
DP
0 -94 -94 0 0 94 94 0 4833 2588 5 MP
gs
PP
gr
DP
0 -94 -94 0 0 94 94 0 5012 2658 5 MP
gs
PP
gr
DP
0 -94 -94 0 0 94 94 0 5182 2744 5 MP
gs
PP
gr
DP
0 -94 -94 0 0 94 94 0 5356 2806 5 MP
gs
PP
gr
DP
0 -94 -94 0 0 94 94 0 5521 2921 5 MP
gs
PP
gr
DP
0 -94 -94 0 0 94 94 0 5692 3052 5 MP
gs
PP
gr
DP
0 -94 -94 0 0 94 94 0 5844 3114 5 MP
gs
PP
gr
DP
0 -94 -94 0 0 94 94 0 6003 3208 5 MP
gs
PP
gr
DP
0 -94 -94 0 0 94 94 0 6155 3295 5 MP
gs
PP
gr
DP
0 -94 -94 0 0 94 94 0 6314 3390 5 MP
gs
PP
gr
DP
0 -94 -94 0 0 94 94 0 6471 3478 5 MP
gs
PP
gr
DP
0 -94 -94 0 0 94 94 0 6621 3580 5 MP
gs
PP
gr
DP
0 -94 -94 0 0 94 94 0 6774 3654 5 MP
gs
PP
gr
DP
gs 998 442 5952 4806 rc
/c9 { 0.000000 1.000000 1.000000 sr} bdef
c9
84 31 159 60 168 55 159 82 167 74 151 91 161 91 141 99 
185 85 187 30 173 64 174 65 177 77 175 93 187 26 191 23 
183 62 186 30 186 94 186 64 187 68 188 87 185 92 204 24 
190 116 196 107 199 162 181 178 213 126 198 116 201 51 214 313 
55 46 1159 826 34 MP stroke
/c10 { 0.000000 0.000000 1.000000 sr} bdef
c10
42 36 139 119 156 95 163 79 153 123 147 114 160 104 145 99 
182 107 171 108 170 91 180 62 177 98 180 97 186 54 189 60 
187 71 189 50 200 45 189 80 192 74 193 87 191 98 208 35 
201 75 206 42 206 127 191 91 217 115 200 138 203 128 222 67 
54 94 1161 634 34 MP stroke
gr

c10
  60   60 1161  634 PO
  60   60 1215  728 PO
  60   60 1437  795 PO
  60   60 1640  923 PO
  60   60 1840 1061 PO
  60   60 2057 1176 PO
  60   60 2248 1267 PO
  60   60 2454 1394 PO
  60   60 2660 1436 PO
  60   60 2861 1511 PO
  60   60 3069 1546 PO
  60   60 3260 1644 PO
  60   60 3453 1731 PO
  60   60 3645 1805 PO
  60   60 3834 1885 PO
  60   60 4034 1930 PO
  60   60 4223 1980 PO
  60   60 4410 2051 PO
  60   60 4599 2111 PO
  60   60 4785 2165 PO
  60   60 4965 2262 PO
  60   60 5142 2360 PO
  60   60 5322 2422 PO
  60   60 5492 2513 PO
  60   60 5663 2621 PO
  60   60 5845 2728 PO
  60   60 5990 2827 PO
  60   60 6150 2931 PO
  60   60 6297 3045 PO
  60   60 6450 3168 PO
  60   60 6613 3247 PO
  60   60 6769 3342 PO
  60   60 6908 3461 PO
  60   60 1161  634 FO
  60   60 1215  728 FO
  60   60 1437  795 FO
  60   60 1640  923 FO
  60   60 1840 1061 FO
  60   60 2057 1176 FO
  60   60 2248 1267 FO
  60   60 2454 1394 FO
  60   60 2660 1436 FO
  60   60 2861 1511 FO
  60   60 3069 1546 FO
  60   60 3260 1644 FO
  60   60 3453 1731 FO
  60   60 3645 1805 FO
  60   60 3834 1885 FO
  60   60 4034 1930 FO
  60   60 4223 1980 FO
  60   60 4410 2051 FO
  60   60 4599 2111 FO
  60   60 4785 2165 FO
  60   60 4965 2262 FO
  60   60 5142 2360 FO
  60   60 5322 2422 FO
  60   60 5492 2513 FO
  60   60 5663 2621 FO
  60   60 5845 2728 FO
  60   60 5990 2827 FO
  60   60 6150 2931 FO
  60   60 6297 3045 FO
  60   60 6450 3168 FO
  60   60 6613 3247 FO
  60   60 6769 3342 FO
  60   60 6908 3461 FO
gs 998 442 5952 4806 rc
DA
/c11 { 0.000000 1.000000 0.000000 sr} bdef
c11
35 18 155 77 163 73 168 63 165 82 150 102 162 91 153 66 
187 81 169 109 180 43 181 44 178 86 181 72 187 38 195 7 
176 112 178 92 189 93 179 129 190 77 192 84 193 60 199 99 
192 145 201 104 209 74 186 164 214 170 203 107 203 104 219 282 
55 71 1163 442 34 MP stroke
gr

c11
DA
0 sg
3652 5726 mt 
(Recall) s
 436 3316 mt  -90 rotate
(Precision) s
90 rotate
%%IncludeResource: font Helvetica
/Helvetica /ISOLatin1Encoding 120 FMSR

 981 5290 mt 
( ) s
6933  484 mt 
( ) s
SO
6 w
1 sg
0 1178 2698 0 0 -1178 1334 4983 4 MP
PP
-2698 0 0 1178 2698 0 0 -1178 1334 4983 5 MP stroke
4 w
DO
SO
6 w
0 sg
1334 4983 mt 4032 4983 L
1334 3805 mt 4032 3805 L
1334 4983 mt 1334 3805 L
4032 4983 mt 4032 3805 L
1334 4983 mt 4032 4983 L
1334 4983 mt 1334 3805 L
1334 4983 mt 4032 4983 L
1334 3805 mt 4032 3805 L
1334 4983 mt 1334 3805 L
4032 4983 mt 4032 3805 L
%%IncludeResource: font Times-Bold
/Times-Bold /ISOLatin1Encoding 240 FMSR

2374 4067 mt 
(Wkt-1000) s
gs 1334 3805 2699 1179 rc
36 w
c8
800 0 1493 3981 2 MP stroke
gs 1735 3823 317 317 rc
0 -94 -94 0 0 94 94 0 1846 3934 5 MP
gs
PP
gr
DP
gr

gr

36 w
c8
0 sg
2374 4343 mt 
(Wkt-2500) s
gs 1334 3805 2699 1179 rc
c9
800 0 1493 4256 2 MP stroke
gr

c9
0 sg
2374 4618 mt 
(WktWiki-1000) s
gs 1334 3805 2699 1179 rc
c10
800 0 1493 4531 2 MP stroke
gs 1735 4373 317 317 rc
  60   60 1893 4531 PO
  60   60 1893 4531 FO
gr

gr

c10
0 sg
2374 4894 mt 
(WktWiki-2500) s
gs 1334 3805 2699 1179 rc
DA
c11
800 0 1493 4806 2 MP stroke
SO
6 w
gr

6 w
c11

end %%Color Dict

eplot
%%EndObject

epage
end

showpage

%%Trailer
%%EOF
