%!PS-Adobe-3.0 EPSF-3.0
%%Creator: MATLAB, The Mathworks, Inc. Version 7.10.0.499 (R2010a). Operating System: Microsoft Windows Server 2008 R2.
%%Title: C:\Users\Alexander\Desktop\boxplot-bin-web-ngd-google-bless-frame.fig
%%CreationDate: 11/18/2011  11:58:27
%%DocumentNeededFonts: Helvetica
%%+ Times-Bold
%%DocumentProcessColors: Cyan Magenta Yellow Black
%%LanguageLevel: 2
%%Pages: 1
%%BoundingBox:   203   200   407   590
%%EndComments

%%BeginProlog
% MathWorks dictionary
/MathWorks 160 dict begin
% definition operators
/bdef {bind def} bind def
/ldef {load def} bind def
/xdef {exch def} bdef
/xstore {exch store} bdef
% operator abbreviations
/c  /clip ldef
/cc /concat ldef
/cp /closepath ldef
/gr /grestore ldef
/gs /gsave ldef
/mt /moveto ldef
/np /newpath ldef
/cm /currentmatrix ldef
/sm /setmatrix ldef
/rm /rmoveto ldef
/rl /rlineto ldef
/s {show newpath} bdef
/sc {setcmykcolor} bdef
/sr /setrgbcolor ldef
/sg /setgray ldef
/w /setlinewidth ldef
/j /setlinejoin ldef
/cap /setlinecap ldef
/rc {rectclip} bdef
/rf {rectfill} bdef
% page state control
/pgsv () def
/bpage {/pgsv save def} bdef
/epage {pgsv restore} bdef
/bplot /gsave ldef
/eplot {stroke grestore} bdef
% orientation switch
/portraitMode 0 def /landscapeMode 1 def /rotateMode 2 def
% coordinate system mappings
/dpi2point 0 def
% font control
/FontSize 0 def
/FMS {/FontSize xstore findfont [FontSize 0 0 FontSize neg 0 0]
  makefont setfont} bdef
/ISOLatin1Encoding where {pop /WindowsLatin1Encoding 256 array bdef
ISOLatin1Encoding WindowsLatin1Encoding copy pop
/.notdef/.notdef/quotesinglbase/florin/quotedblbase/ellipsis/dagger
/daggerdbl/circumflex/perthousand/Scaron/guilsinglleft/OE/.notdef/.notdef
/.notdef/.notdef/quoteleft/quoteright/quotedblleft/quotedblright/bullet
/endash/emdash/tilde/trademark/scaron/guilsinglright/oe/.notdef/.notdef
/Ydieresis WindowsLatin1Encoding 128 32 getinterval astore pop}
{/WindowsLatin1Encoding StandardEncoding bdef} ifelse
/reencode {exch dup where {pop load} {pop StandardEncoding} ifelse
  exch dup 3 1 roll findfont dup length dict begin
  { 1 index /FID ne {def}{pop pop} ifelse } forall
  /Encoding exch def currentdict end definefont pop} bdef
/isroman {findfont /CharStrings get /Agrave known} bdef
/FMSR {3 1 roll 1 index dup isroman {reencode} {pop pop} ifelse
  exch FMS} bdef
/csm {1 dpi2point div -1 dpi2point div scale neg translate
 dup landscapeMode eq {pop -90 rotate}
  {rotateMode eq {90 rotate} if} ifelse} bdef
% line types: solid, dotted, dashed, dotdash
/SO { [] 0 setdash } bdef
/DO { [.5 dpi2point mul 4 dpi2point mul] 0 setdash } bdef
/DA { [6 dpi2point mul] 0 setdash } bdef
/DD { [.5 dpi2point mul 4 dpi2point mul 6 dpi2point mul 4
  dpi2point mul] 0 setdash } bdef
% macros for lines and objects
/L {lineto stroke} bdef
/MP {3 1 roll moveto 1 sub {rlineto} repeat} bdef
/AP {{rlineto} repeat} bdef
/PDlw -1 def
/W {/PDlw currentlinewidth def setlinewidth} def
/PP {closepath eofill} bdef
/DP {closepath stroke} bdef
/MR {4 -2 roll moveto dup  0 exch rlineto exch 0 rlineto
  neg 0 exch rlineto closepath} bdef
/FR {MR stroke} bdef
/PR {MR fill} bdef
/L1i {{currentfile picstr readhexstring pop} image} bdef
/tMatrix matrix def
/MakeOval {newpath tMatrix currentmatrix pop translate scale
0 0 1 0 360 arc tMatrix setmatrix} bdef
/FO {MakeOval stroke} bdef
/PO {MakeOval fill} bdef
/PD {currentlinewidth 2 div 0 360 arc fill
   PDlw -1 eq not {PDlw w /PDlw -1 def} if} def
/FA {newpath tMatrix currentmatrix pop translate scale
  0 0 1 5 -2 roll arc tMatrix setmatrix stroke} bdef
/PA {newpath tMatrix currentmatrix pop	translate 0 0 moveto scale
  0 0 1 5 -2 roll arc closepath tMatrix setmatrix fill} bdef
/FAn {newpath tMatrix currentmatrix pop translate scale
  0 0 1 5 -2 roll arcn tMatrix setmatrix stroke} bdef
/PAn {newpath tMatrix currentmatrix pop translate 0 0 moveto scale
  0 0 1 5 -2 roll arcn closepath tMatrix setmatrix fill} bdef
/vradius 0 def /hradius 0 def /lry 0 def
/lrx 0 def /uly 0 def /ulx 0 def /rad 0 def
/MRR {/vradius xdef /hradius xdef /lry xdef /lrx xdef /uly xdef
  /ulx xdef newpath tMatrix currentmatrix pop ulx hradius add uly
  vradius add translate hradius vradius scale 0 0 1 180 270 arc 
  tMatrix setmatrix lrx hradius sub uly vradius add translate
  hradius vradius scale 0 0 1 270 360 arc tMatrix setmatrix
  lrx hradius sub lry vradius sub translate hradius vradius scale
  0 0 1 0 90 arc tMatrix setmatrix ulx hradius add lry vradius sub
  translate hradius vradius scale 0 0 1 90 180 arc tMatrix setmatrix
  closepath} bdef
/FRR {MRR stroke } bdef
/PRR {MRR fill } bdef
/MlrRR {/lry xdef /lrx xdef /uly xdef /ulx xdef /rad lry uly sub 2 div def
  newpath tMatrix currentmatrix pop ulx rad add uly rad add translate
  rad rad scale 0 0 1 90 270 arc tMatrix setmatrix lrx rad sub lry rad
  sub translate rad rad scale 0 0 1 270 90 arc tMatrix setmatrix
  closepath} bdef
/FlrRR {MlrRR stroke } bdef
/PlrRR {MlrRR fill } bdef
/MtbRR {/lry xdef /lrx xdef /uly xdef /ulx xdef /rad lrx ulx sub 2 div def
  newpath tMatrix currentmatrix pop ulx rad add uly rad add translate
  rad rad scale 0 0 1 180 360 arc tMatrix setmatrix lrx rad sub lry rad
  sub translate rad rad scale 0 0 1 0 180 arc tMatrix setmatrix
  closepath} bdef
/FtbRR {MtbRR stroke } bdef
/PtbRR {MtbRR fill } bdef
/stri 6 array def /dtri 6 array def
/smat 6 array def /dmat 6 array def
/tmat1 6 array def /tmat2 6 array def /dif 3 array def
/asub {/ind2 exch def /ind1 exch def dup dup
  ind1 get exch ind2 get sub exch } bdef
/tri_to_matrix {
  2 0 asub 3 1 asub 4 0 asub 5 1 asub
  dup 0 get exch 1 get 7 -1 roll astore } bdef
/compute_transform {
  dmat dtri tri_to_matrix tmat1 invertmatrix 
  smat stri tri_to_matrix tmat2 concatmatrix } bdef
/ds {stri astore pop} bdef
/dt {dtri astore pop} bdef
/db {2 copy /cols xdef /rows xdef mul dup 3 mul string
  currentfile 
  3 index 0 eq {/ASCIIHexDecode filter}
  {/ASCII85Decode filter 3 index 2 eq {/RunLengthDecode filter} if }
  ifelse exch readstring pop
  dup 0 3 index getinterval /rbmap xdef
  dup 2 index dup getinterval /gbmap xdef
  1 index dup 2 mul exch getinterval /bbmap xdef pop pop}bdef
/it {gs np dtri aload pop moveto lineto lineto cp c
  cols rows 8 compute_transform 
  rbmap gbmap bbmap true 3 colorimage gr}bdef
/il {newpath moveto lineto stroke}bdef
currentdict end def
%%EndProlog

%%BeginSetup
MathWorks begin

0 cap

end
%%EndSetup

%%Page: 1 1
%%BeginPageSetup
%%PageBoundingBox:   203   200   407   590
MathWorks begin
bpage
%%EndPageSetup

%%BeginObject: obj1
bplot

/dpi2point 12 def
portraitMode 2436 7080 csm

    0     0  2457  4670 rc
85 dict begin %Colortable dictionary
/c0 { 0.000000 0.000000 0.000000 sr} bdef
/c1 { 1.000000 1.000000 1.000000 sr} bdef
/c2 { 0.900000 0.000000 0.000000 sr} bdef
/c3 { 0.000000 0.820000 0.000000 sr} bdef
/c4 { 0.000000 0.000000 0.800000 sr} bdef
/c5 { 0.910000 0.820000 0.320000 sr} bdef
/c6 { 1.000000 0.260000 0.820000 sr} bdef
/c7 { 0.000000 0.820000 0.820000 sr} bdef
c0
1 j
1 sg
   0    0 2458 4671 rf
6 w
0 3657 1699 0 0 -3657 525 4007 4 MP
PP
-1699 0 0 3657 1699 0 0 -3657 525 4007 5 MP stroke
4 w
DO
SO
6 w
0 sg
 525  350 mt 2224  350 L
 525 4007 mt 2224 4007 L
2224 4007 mt 2224  350 L
 525 4007 mt  525  350 L
 525 4007 mt 2224 4007 L
 525 4007 mt  525  350 L
 525 3934 mt  561 3934 L
2224 3934 mt 2187 3934 L
%%IncludeResource: font Times-Bold
/Times-Bold /WindowsLatin1Encoding 168 FMSR

 196 3996 mt 
(0.84) s
 525 3507 mt  561 3507 L
2224 3507 mt 2187 3507 L
 196 3569 mt 
(0.86) s
 525 3080 mt  561 3080 L
2224 3080 mt 2187 3080 L
 196 3142 mt 
(0.88) s
 525 2652 mt  561 2652 L
2224 2652 mt 2187 2652 L
 280 2714 mt 
(0.9) s
 525 2225 mt  561 2225 L
2224 2225 mt 2187 2225 L
 196 2287 mt 
(0.92) s
 525 1798 mt  561 1798 L
2224 1798 mt 2187 1798 L
 196 1860 mt 
(0.94) s
 525 1370 mt  561 1370 L
2224 1370 mt 2187 1370 L
 196 1432 mt 
(0.96) s
 525  943 mt  561  943 L
2224  943 mt 2187  943 L
 196 1005 mt 
(0.98) s
 525  516 mt  561  516 L
2224  516 mt 2187  516 L
 406  578 mt 
(1) s
 525  350 mt 2224  350 L
 525 4007 mt 2224 4007 L
2224 4007 mt 2224  350 L
 525 4007 mt  525  350 L
gs 525 350 1700 3658 rc
DA
949 516 PD
1799 516 PD
949 516 PD
1799 516 PD
SO
127 0 886 516 2 MP stroke
127 0 1735 516 2 MP stroke
127 0 886 516 2 MP stroke
127 0 1735 516 2 MP stroke
/c8 { 0.000000 0.000000 1.000000 sr} bdef
c8
-255 0 255 0 822 516 3 MP stroke
-255 0 255 0 1671 516 3 MP stroke
/c9 { 1.000000 0.000000 0.000000 sr} bdef
c9
255 0 822 516 2 MP stroke
255 0 1671 516 2 MP stroke
gs 876 483 147 651 rc
 913 1060 mt  985 1060 L
 949 1024 mt  949 1096 L
 913  794 mt  985  794 L
 949  758 mt  949  830 L
 913  556 mt  985  556 L
 949  520 mt  949  592 L
gr

gs 1726 460 147 3454 rc
1763 3840 mt 1835 3840 L
1799 3804 mt 1799 3876 L
1763 3779 mt 1835 3779 L
1799 3743 mt 1799 3815 L
1763 2824 mt 1835 2824 L
1799 2788 mt 1799 2860 L
1763 2820 mt 1835 2820 L
1799 2784 mt 1799 2856 L
1763 2296 mt 1835 2296 L
1799 2260 mt 1799 2332 L
1763 1782 mt 1835 1782 L
1799 1746 mt 1799 1818 L
1763 1513 mt 1835 1513 L
1799 1477 mt 1799 1549 L
1763 1393 mt 1835 1393 L
1799 1357 mt 1799 1429 L
1763 1020 mt 1835 1020 L
1799  984 mt 1799 1056 L
1763  770 mt 1835  770 L
1799  734 mt 1799  806 L
1763  723 mt 1835  723 L
1799  687 mt 1799  759 L
1763  715 mt 1835  715 L
1799  679 mt 1799  751 L
1763  674 mt 1835  674 L
1799  638 mt 1799  710 L
1763  672 mt 1835  672 L
1799  636 mt 1799  708 L
1763  533 mt 1835  533 L
1799  497 mt 1799  569 L
gr

gr

c9
0 sg
%%IncludeResource: font Helvetica
/Helvetica /WindowsLatin1Encoding 120 FMSR

 753 4130 mt 
(relation) s
1596 4130 mt 
(random) s
 711 4257 mt 
(Type of semantic relation) s
 114 3582 mt  -90 rotate
(Similarity score target concept and its 1NN \(z-score\)) s
90 rotate
%%IncludeResource: font Times-Bold
/Times-Bold /WindowsLatin1Encoding 192 FMSR

 577  214 mt 
(Web-NGD-Google) s

end %%Color Dict

eplot
%%EndObject

epage
end

showpage

%%Trailer
%%EOF
