%!PS-Adobe-3.0 EPSF-3.0
%%Creator: MATLAB, The Mathworks, Inc. Version 7.10.0.499 (R2010a). Operating System: Microsoft Windows Server 2008 R2.
%%Title: C:\Users\Alexander\Desktop\pr-graph-wiki.eps
%%CreationDate: 11/16/2011  18:09:20
%%DocumentNeededFonts: Helvetica
%%+ Times-Bold
%%DocumentProcessColors: Cyan Magenta Yellow Black
%%LanguageLevel: 2
%%Pages: 1
%%BoundingBox:     3   121   608   669
%%EndComments

%%BeginProlog
% MathWorks dictionary
/MathWorks 160 dict begin
% definition operators
/bdef {bind def} bind def
/ldef {load def} bind def
/xdef {exch def} bdef
/xstore {exch store} bdef
% operator abbreviations
/c  /clip ldef
/cc /concat ldef
/cp /closepath ldef
/gr /grestore ldef
/gs /gsave ldef
/mt /moveto ldef
/np /newpath ldef
/cm /currentmatrix ldef
/sm /setmatrix ldef
/rm /rmoveto ldef
/rl /rlineto ldef
/s {show newpath} bdef
/sc {setcmykcolor} bdef
/sr /setrgbcolor ldef
/sg /setgray ldef
/w /setlinewidth ldef
/j /setlinejoin ldef
/cap /setlinecap ldef
/rc {rectclip} bdef
/rf {rectfill} bdef
% page state control
/pgsv () def
/bpage {/pgsv save def} bdef
/epage {pgsv restore} bdef
/bplot /gsave ldef
/eplot {stroke grestore} bdef
% orientation switch
/portraitMode 0 def /landscapeMode 1 def /rotateMode 2 def
% coordinate system mappings
/dpi2point 0 def
% font control
/FontSize 0 def
/FMS {/FontSize xstore findfont [FontSize 0 0 FontSize neg 0 0]
  makefont setfont} bdef
/ISOLatin1Encoding where {pop /WindowsLatin1Encoding 256 array bdef
ISOLatin1Encoding WindowsLatin1Encoding copy pop
/.notdef/.notdef/quotesinglbase/florin/quotedblbase/ellipsis/dagger
/daggerdbl/circumflex/perthousand/Scaron/guilsinglleft/OE/.notdef/.notdef
/.notdef/.notdef/quoteleft/quoteright/quotedblleft/quotedblright/bullet
/endash/emdash/tilde/trademark/scaron/guilsinglright/oe/.notdef/.notdef
/Ydieresis WindowsLatin1Encoding 128 32 getinterval astore pop}
{/WindowsLatin1Encoding StandardEncoding bdef} ifelse
/reencode {exch dup where {pop load} {pop StandardEncoding} ifelse
  exch dup 3 1 roll findfont dup length dict begin
  { 1 index /FID ne {def}{pop pop} ifelse } forall
  /Encoding exch def currentdict end definefont pop} bdef
/isroman {findfont /CharStrings get /Agrave known} bdef
/FMSR {3 1 roll 1 index dup isroman {reencode} {pop pop} ifelse
  exch FMS} bdef
/csm {1 dpi2point div -1 dpi2point div scale neg translate
 dup landscapeMode eq {pop -90 rotate}
  {rotateMode eq {90 rotate} if} ifelse} bdef
% line types: solid, dotted, dashed, dotdash
/SO { [] 0 setdash } bdef
/DO { [.5 dpi2point mul 4 dpi2point mul] 0 setdash } bdef
/DA { [6 dpi2point mul] 0 setdash } bdef
/DD { [.5 dpi2point mul 4 dpi2point mul 6 dpi2point mul 4
  dpi2point mul] 0 setdash } bdef
% macros for lines and objects
/L {lineto stroke} bdef
/MP {3 1 roll moveto 1 sub {rlineto} repeat} bdef
/AP {{rlineto} repeat} bdef
/PDlw -1 def
/W {/PDlw currentlinewidth def setlinewidth} def
/PP {closepath eofill} bdef
/DP {closepath stroke} bdef
/MR {4 -2 roll moveto dup  0 exch rlineto exch 0 rlineto
  neg 0 exch rlineto closepath} bdef
/FR {MR stroke} bdef
/PR {MR fill} bdef
/L1i {{currentfile picstr readhexstring pop} image} bdef
/tMatrix matrix def
/MakeOval {newpath tMatrix currentmatrix pop translate scale
0 0 1 0 360 arc tMatrix setmatrix} bdef
/FO {MakeOval stroke} bdef
/PO {MakeOval fill} bdef
/PD {currentlinewidth 2 div 0 360 arc fill
   PDlw -1 eq not {PDlw w /PDlw -1 def} if} def
/FA {newpath tMatrix currentmatrix pop translate scale
  0 0 1 5 -2 roll arc tMatrix setmatrix stroke} bdef
/PA {newpath tMatrix currentmatrix pop	translate 0 0 moveto scale
  0 0 1 5 -2 roll arc closepath tMatrix setmatrix fill} bdef
/FAn {newpath tMatrix currentmatrix pop translate scale
  0 0 1 5 -2 roll arcn tMatrix setmatrix stroke} bdef
/PAn {newpath tMatrix currentmatrix pop translate 0 0 moveto scale
  0 0 1 5 -2 roll arcn closepath tMatrix setmatrix fill} bdef
/vradius 0 def /hradius 0 def /lry 0 def
/lrx 0 def /uly 0 def /ulx 0 def /rad 0 def
/MRR {/vradius xdef /hradius xdef /lry xdef /lrx xdef /uly xdef
  /ulx xdef newpath tMatrix currentmatrix pop ulx hradius add uly
  vradius add translate hradius vradius scale 0 0 1 180 270 arc 
  tMatrix setmatrix lrx hradius sub uly vradius add translate
  hradius vradius scale 0 0 1 270 360 arc tMatrix setmatrix
  lrx hradius sub lry vradius sub translate hradius vradius scale
  0 0 1 0 90 arc tMatrix setmatrix ulx hradius add lry vradius sub
  translate hradius vradius scale 0 0 1 90 180 arc tMatrix setmatrix
  closepath} bdef
/FRR {MRR stroke } bdef
/PRR {MRR fill } bdef
/MlrRR {/lry xdef /lrx xdef /uly xdef /ulx xdef /rad lry uly sub 2 div def
  newpath tMatrix currentmatrix pop ulx rad add uly rad add translate
  rad rad scale 0 0 1 90 270 arc tMatrix setmatrix lrx rad sub lry rad
  sub translate rad rad scale 0 0 1 270 90 arc tMatrix setmatrix
  closepath} bdef
/FlrRR {MlrRR stroke } bdef
/PlrRR {MlrRR fill } bdef
/MtbRR {/lry xdef /lrx xdef /uly xdef /ulx xdef /rad lrx ulx sub 2 div def
  newpath tMatrix currentmatrix pop ulx rad add uly rad add translate
  rad rad scale 0 0 1 180 360 arc tMatrix setmatrix lrx rad sub lry rad
  sub translate rad rad scale 0 0 1 0 180 arc tMatrix setmatrix
  closepath} bdef
/FtbRR {MtbRR stroke } bdef
/PtbRR {MtbRR fill } bdef
/stri 6 array def /dtri 6 array def
/smat 6 array def /dmat 6 array def
/tmat1 6 array def /tmat2 6 array def /dif 3 array def
/asub {/ind2 exch def /ind1 exch def dup dup
  ind1 get exch ind2 get sub exch } bdef
/tri_to_matrix {
  2 0 asub 3 1 asub 4 0 asub 5 1 asub
  dup 0 get exch 1 get 7 -1 roll astore } bdef
/compute_transform {
  dmat dtri tri_to_matrix tmat1 invertmatrix 
  smat stri tri_to_matrix tmat2 concatmatrix } bdef
/ds {stri astore pop} bdef
/dt {dtri astore pop} bdef
/db {2 copy /cols xdef /rows xdef mul dup 3 mul string
  currentfile 
  3 index 0 eq {/ASCIIHexDecode filter}
  {/ASCII85Decode filter 3 index 2 eq {/RunLengthDecode filter} if }
  ifelse exch readstring pop
  dup 0 3 index getinterval /rbmap xdef
  dup 2 index dup getinterval /gbmap xdef
  1 index dup 2 mul exch getinterval /bbmap xdef pop pop}bdef
/it {gs np dtri aload pop moveto lineto lineto cp c
  cols rows 8 compute_transform 
  rbmap gbmap bbmap true 3 colorimage gr}bdef
/il {newpath moveto lineto stroke}bdef
currentdict end def
%%EndProlog

%%BeginSetup
MathWorks begin

0 cap

end
%%EndSetup

%%Page: 1 1
%%BeginPageSetup
%%PageBoundingBox:     3   121   608   669
MathWorks begin
bpage
%%EndPageSetup

%%BeginObject: obj1
bplot

/dpi2point 12 def
portraitMode 0036 8028 csm

    0     0  7269  6569 rc
87 dict begin %Colortable dictionary
/c0 { 0.000000 0.000000 0.000000 sr} bdef
/c1 { 1.000000 1.000000 1.000000 sr} bdef
/c2 { 0.900000 0.000000 0.000000 sr} bdef
/c3 { 0.000000 0.820000 0.000000 sr} bdef
/c4 { 0.000000 0.000000 0.800000 sr} bdef
/c5 { 0.910000 0.820000 0.320000 sr} bdef
/c6 { 1.000000 0.260000 0.820000 sr} bdef
/c7 { 0.000000 0.820000 0.820000 sr} bdef
c0
1 j
1 sg
   0    0 7270 6570 rf
6 w
0 5353 5633 0 0 -5353 945 5846 4 MP
PP
-5633 0 0 5353 5633 0 0 -5353 945 5846 5 MP stroke
4 w
DO
0 sg
 945 5846 mt  945  493 L
 945  493 mt  945  493 L
2071 5846 mt 2071  493 L
2071  493 mt 2071  493 L
3198 5846 mt 3198  493 L
3198  493 mt 3198  493 L
4324 5846 mt 4324  493 L
4324  493 mt 4324  493 L
5451 5846 mt 5451  493 L
5451  493 mt 5451  493 L
6578 5846 mt 6578  493 L
6578  493 mt 6578  493 L
 945 5846 mt 6578 5846 L
6578 5846 mt 6578 5846 L
 945 4775 mt 6578 4775 L
6578 4775 mt 6578 4775 L
 945 3704 mt 6578 3704 L
6578 3704 mt 6578 3704 L
 945 2634 mt 6578 2634 L
6578 2634 mt 6578 2634 L
 945 1563 mt 6578 1563 L
6578 1563 mt 6578 1563 L
 945  493 mt 6578  493 L
6578  493 mt 6578  493 L
SO
6 w
 945 5846 mt 6578 5846 L
 945 5846 mt  945  493 L
 945 5846 mt  945 5789 L
%%IncludeResource: font Times-Bold
/Times-Bold /WindowsLatin1Encoding 240 FMSR

 885 6104 mt 
(0) s
2071 5846 mt 2071 5789 L
1921 6104 mt 
(0.1) s
3198 5846 mt 3198 5789 L
3048 6104 mt 
(0.2) s
4324 5846 mt 4324 5789 L
4174 6104 mt 
(0.3) s
5451 5846 mt 5451 5789 L
5301 6104 mt 
(0.4) s
6578 5846 mt 6578 5789 L
6428 6104 mt 
(0.5) s
 945 5846 mt 1001 5846 L
 490 5935 mt 
(0.75) s
 945 4775 mt 1001 4775 L
 610 4864 mt 
(0.8) s
 945 3704 mt 1001 3704 L
 490 3793 mt 
(0.85) s
 945 2634 mt 1001 2634 L
 610 2723 mt 
(0.9) s
 945 1563 mt 1001 1563 L
 490 1652 mt 
(0.95) s
 945  493 mt 1001  493 L
 790  582 mt 
(1) s
gs 945 493 5634 5354 rc
36 w
/c8 { 1.000000 0.000000 0.000000 sr} bdef
c8
123 59 144 83 142 114 149 97 150 106 144 97 151 105 144 68 
161 147 157 127 164 71 161 95 170 78 171 78 163 112 168 109 
171 98 171 82 189 40 181 46 176 99 178 110 179 94 194 35 
188 59 190 75 199 27 174 145 205 17 185 171 189 21 203 147 
48 343 1097 1028 34 MP stroke
gr

36 w
c8
gs 963 894 5751 3424 rc
0 j
-55 95 -55 -95 110 0 1042 1060 4 MP
gs
PP
gr
DP
-55 95 -55 -95 110 0 1090 1403 4 MP
gs
PP
gr
DP
-55 95 -55 -95 110 0 1293 1550 4 MP
gs
PP
gr
DP
-55 95 -55 -95 110 0 1482 1571 4 MP
gs
PP
gr
DP
-55 95 -55 -95 110 0 1667 1742 4 MP
gs
PP
gr
DP
-55 95 -55 -95 110 0 1872 1759 4 MP
gs
PP
gr
DP
-55 95 -55 -95 110 0 2046 1904 4 MP
gs
PP
gr
DP
-55 95 -55 -95 110 0 2245 1931 4 MP
gs
PP
gr
DP
-55 95 -55 -95 110 0 2435 2006 4 MP
gs
PP
gr
DP
-55 95 -55 -95 110 0 2623 2065 4 MP
gs
PP
gr
DP
-55 95 -55 -95 110 0 2817 2100 4 MP
gs
PP
gr
DP
-55 95 -55 -95 110 0 2996 2194 4 MP
gs
PP
gr
DP
-55 95 -55 -95 110 0 3174 2304 4 MP
gs
PP
gr
DP
-55 95 -55 -95 110 0 3350 2403 4 MP
gs
PP
gr
DP
-55 95 -55 -95 110 0 3531 2449 4 MP
gs
PP
gr
DP
-55 95 -55 -95 110 0 3720 2489 4 MP
gs
PP
gr
DP
-55 95 -55 -95 110 0 3891 2571 4 MP
gs
PP
gr
DP
-55 95 -55 -95 110 0 4062 2669 4 MP
gs
PP
gr
DP
-55 95 -55 -95 110 0 4230 2778 4 MP
gs
PP
gr
DP
-55 95 -55 -95 110 0 4393 2890 4 MP
gs
PP
gr
DP
-55 95 -55 -95 110 0 4564 2968 4 MP
gs
PP
gr
DP
-55 95 -55 -95 110 0 4734 3046 4 MP
gs
PP
gr
DP
-55 95 -55 -95 110 0 4895 3141 4 MP
gs
PP
gr
DP
-55 95 -55 -95 110 0 5059 3212 4 MP
gs
PP
gr
DP
-55 95 -55 -95 110 0 5216 3339 4 MP
gs
PP
gr
DP
-55 95 -55 -95 110 0 5377 3486 4 MP
gs
PP
gr
DP
-55 95 -55 -95 110 0 5521 3554 4 MP
gs
PP
gr
DP
-55 95 -55 -95 110 0 5672 3659 4 MP
gs
PP
gr
DP
-55 95 -55 -95 110 0 5816 3756 4 MP
gs
PP
gr
DP
-55 95 -55 -95 110 0 5966 3862 4 MP
gs
PP
gr
DP
-55 95 -55 -95 110 0 6115 3959 4 MP
gs
PP
gr
DP
-55 95 -55 -95 110 0 6257 4073 4 MP
gs
PP
gr
DP
-55 95 -55 -95 110 0 6401 4156 4 MP
gs
PP
gr
DP
gr

gs 945 493 5634 5354 rc
/c9 { 0.000000 1.000000 0.000000 sr} bdef
c9
80 35 150 66 159 62 151 91 158 82 142 102 153 101 133 111 
175 94 178 33 163 71 165 74 168 85 165 104 178 28 180 26 
174 69 175 34 177 104 176 72 177 76 177 96 176 102 192 27 
181 130 185 119 188 181 172 198 201 140 188 129 190 57 203 349 
51 51 1098 921 34 MP stroke
/c10 { 0.000000 0.000000 1.000000 sr} bdef
c10
40 39 132 133 147 106 154 88 146 137 139 127 151 116 137 111 
173 119 161 119 161 102 170 69 168 109 170 109 176 60 179 66 
178 80 178 55 190 51 179 88 182 83 182 96 181 110 197 39 
189 83 196 48 195 141 180 102 206 127 190 154 191 142 210 75 
52 105 1099 707 34 MP stroke
gr

c10
gs 965 573 5749 3458 rc
  48   48 1099  707 PO
  48   48 1151  812 PO
  48   48 1361  887 PO
  48   48 1552 1029 PO
  48   48 1742 1183 PO
  48   48 1948 1310 PO
  48   48 2128 1412 PO
  48   48 2323 1553 PO
  48   48 2519 1601 PO
  48   48 2708 1684 PO
  48   48 2905 1723 PO
  48   48 3086 1833 PO
  48   48 3268 1929 PO
  48   48 3450 2012 PO
  48   48 3629 2100 PO
  48   48 3819 2151 PO
  48   48 3997 2206 PO
  48   48 4175 2286 PO
  48   48 4354 2352 PO
  48   48 4530 2412 PO
  48   48 4700 2521 PO
  48   48 4868 2630 PO
  48   48 5038 2699 PO
  48   48 5199 2801 PO
  48   48 5360 2920 PO
  48   48 5533 3039 PO
  48   48 5670 3150 PO
  48   48 5821 3266 PO
  48   48 5960 3393 PO
  48   48 6106 3530 PO
  48   48 6260 3618 PO
  48   48 6407 3724 PO
  48   48 6539 3857 PO
  48   48 1099  707 FO
  48   48 1151  812 FO
  48   48 1361  887 FO
  48   48 1552 1029 FO
  48   48 1742 1183 FO
  48   48 1948 1310 FO
  48   48 2128 1412 FO
  48   48 2323 1553 FO
  48   48 2519 1601 FO
  48   48 2708 1684 FO
  48   48 2905 1723 FO
  48   48 3086 1833 FO
  48   48 3268 1929 FO
  48   48 3450 2012 FO
  48   48 3629 2100 FO
  48   48 3819 2151 FO
  48   48 3997 2206 FO
  48   48 4175 2286 FO
  48   48 4354 2352 FO
  48   48 4530 2412 FO
  48   48 4700 2521 FO
  48   48 4868 2630 FO
  48   48 5038 2699 FO
  48   48 5199 2801 FO
  48   48 5360 2920 FO
  48   48 5533 3039 FO
  48   48 5670 3150 FO
  48   48 5821 3266 FO
  48   48 5960 3393 FO
  48   48 6106 3530 FO
  48   48 6260 3618 FO
  48   48 6407 3724 FO
  48   48 6539 3857 FO
gr

gs 945 493 5634 5354 rc
/c11 { 0.000000 1.000000 1.000000 sr} bdef
c11
34 20 146 86 154 81 159 70 157 91 141 114 154 102 145 73 
177 90 159 121 171 49 172 49 167 95 172 80 177 43 185 8 
166 125 168 102 180 103 170 144 179 86 181 94 183 66 188 110 
182 162 190 116 199 83 175 183 204 188 191 120 192 115 208 315 
52 79 1101 493 34 MP stroke
gr

c11
gs 991 383 5699 3584 rc
0 j
0 -58 -58 0 0 58 58 0 1072 464 5 MP
gs
PP
gr
DP
0 -58 -58 0 0 58 58 0 1124 543 5 MP
gs
PP
gr
DP
0 -58 -58 0 0 58 58 0 1332 858 5 MP
gs
PP
gr
DP
0 -58 -58 0 0 58 58 0 1524 973 5 MP
gs
PP
gr
DP
0 -58 -58 0 0 58 58 0 1715 1093 5 MP
gs
PP
gr
DP
0 -58 -58 0 0 58 58 0 1919 1281 5 MP
gs
PP
gr
DP
0 -58 -58 0 0 58 58 0 2094 1464 5 MP
gs
PP
gr
DP
0 -58 -58 0 0 58 58 0 2293 1547 5 MP
gs
PP
gr
DP
0 -58 -58 0 0 58 58 0 2483 1663 5 MP
gs
PP
gr
DP
0 -58 -58 0 0 58 58 0 2665 1825 5 MP
gs
PP
gr
DP
0 -58 -58 0 0 58 58 0 2853 1935 5 MP
gs
PP
gr
DP
0 -58 -58 0 0 58 58 0 3036 2001 5 MP
gs
PP
gr
DP
0 -58 -58 0 0 58 58 0 3217 2095 5 MP
gs
PP
gr
DP
0 -58 -58 0 0 58 58 0 3396 2181 5 MP
gs
PP
gr
DP
0 -58 -58 0 0 58 58 0 3566 2325 5 MP
gs
PP
gr
DP
0 -58 -58 0 0 58 58 0 3746 2428 5 MP
gs
PP
gr
DP
0 -58 -58 0 0 58 58 0 3914 2530 5 MP
gs
PP
gr
DP
0 -58 -58 0 0 58 58 0 4080 2655 5 MP
gs
PP
gr
DP
0 -58 -58 0 0 58 58 0 4265 2663 5 MP
gs
PP
gr
DP
0 -58 -58 0 0 58 58 0 4442 2706 5 MP
gs
PP
gr
DP
0 -58 -58 0 0 58 58 0 4614 2786 5 MP
gs
PP
gr
DP
0 -58 -58 0 0 58 58 0 4781 2881 5 MP
gs
PP
gr
DP
0 -58 -58 0 0 58 58 0 4953 2930 5 MP
gs
PP
gr
DP
0 -58 -58 0 0 58 58 0 5124 2979 5 MP
gs
PP
gr
DP
0 -58 -58 0 0 58 58 0 5283 3100 5 MP
gs
PP
gr
DP
0 -58 -58 0 0 58 58 0 5460 3190 5 MP
gs
PP
gr
DP
0 -58 -58 0 0 58 58 0 5605 3263 5 MP
gs
PP
gr
DP
0 -58 -58 0 0 58 58 0 5759 3365 5 MP
gs
PP
gr
DP
0 -58 -58 0 0 58 58 0 5900 3479 5 MP
gs
PP
gr
DP
0 -58 -58 0 0 58 58 0 6057 3570 5 MP
gs
PP
gr
DP
0 -58 -58 0 0 58 58 0 6216 3640 5 MP
gs
PP
gr
DP
0 -58 -58 0 0 58 58 0 6370 3721 5 MP
gs
PP
gr
DP
0 -58 -58 0 0 58 58 0 6516 3807 5 MP
gs
PP
gr
DP
gr

gs 945 493 5634 5354 rc
gr

0 sg
3440 6325 mt 
(Recall) s
 383 3641 mt  -90 rotate
(Precision) s
90 rotate
%%IncludeResource: font Helvetica
/Helvetica /WindowsLatin1Encoding 120 FMSR

 928 5889 mt 
( ) s
6562  535 mt 
( ) s
6 w
1 sg
0 1178 2575 0 0 -1178 3943 1731 4 MP
PP
-2575 0 0 1178 2575 0 0 -1178 3943 1731 5 MP stroke
4 w
DO
SO
6 w
0 sg
3943  553 mt 6518  553 L
3943 1731 mt 6518 1731 L
6518 1731 mt 6518  553 L
3943 1731 mt 3943  553 L
3943 1731 mt 6518 1731 L
3943 1731 mt 3943  553 L
3943  553 mt 6518  553 L
3943 1731 mt 6518 1731 L
6518 1731 mt 6518  553 L
3943 1731 mt 3943  553 L
%%IncludeResource: font Times-Bold
/Times-Bold /WindowsLatin1Encoding 240 FMSR

4424  801 mt 
(Def-Wkt-1000) s
gs 3943 553 2576 1179 rc
36 w
c8
370 0 4016 715 2 MP stroke
gs 4067 581 269 269 rc
0 j
-55 95 -55 -95 110 0 4146 747 4 MP
gs
PP
gr
DP
gr

gr

36 w
c8
0 sg
4424 1086 mt 
(Def-Wkt-2500) s
gs 3943 553 2576 1179 rc
c9
370 0 4016 999 2 MP stroke
gr

c9
0 sg
4424 1371 mt 
(Def-WktWiki-1000) s
gs 3943 553 2576 1179 rc
c10
370 0 4016 1284 2 MP stroke
gs 4067 1150 269 269 rc
  48   48 4201 1284 PO
  48   48 4201 1284 FO
gr

gr

c10
0 sg
4424 1656 mt 
(Def-WktWiki-2500) s
gs 3943 553 2576 1179 rc
c11
370 0 4016 1568 2 MP stroke
gs 4091 1458 221 221 rc
0 j
0 -58 -58 0 0 58 58 0 4172 1539 5 MP
gs
PP
gr
DP
gr

6 w
gr

6 w
c11

end %%Color Dict

eplot
%%EndObject

epage
end

showpage

%%Trailer
%%EOF
