<?xml version="1.0" encoding="UTF-8" standalone="no"?>
<!-- Created with Inkscape (http://www.inkscape.org/) -->

<svg
   xmlns:dc="http://purl.org/dc/elements/1.1/"
   xmlns:cc="http://creativecommons.org/ns#"
   xmlns:rdf="http://www.w3.org/1999/02/22-rdf-syntax-ns#"
   xmlns:svg="http://www.w3.org/2000/svg"
   xmlns="http://www.w3.org/2000/svg"
   xmlns:sodipodi="http://sodipodi.sourceforge.net/DTD/sodipodi-0.dtd"
   xmlns:inkscape="http://www.inkscape.org/namespaces/inkscape"
   width="3052.3601"
   height="3744.0901"
   id="svg2"
   version="1.1"
   inkscape:version="0.48.1 "
   sodipodi:docname="D:\work\research\phd\mypapers\paper_eacl2012-hybrid\figures\single-and-hybrid.svg">
  <defs
     id="defs4">
    <marker
       inkscape:stockid="Arrow2Lstart"
       orient="auto"
       refY="0"
       refX="0"
       id="Arrow2Lstart"
       style="overflow:visible">
      <path
         id="path5088"
         style="font-size:12px;fill-rule:evenodd;stroke-width:0.625;stroke-linejoin:round"
         d="M 8.7185878,4.0337352 -2.2072895,0.01601326 8.7185884,-4.0017078 c -1.7454984,2.3720609 -1.7354408,5.6174519 -6e-7,8.035443 z"
         transform="matrix(1.1,0,0,1.1,1.1,0)"
         inkscape:connector-curvature="0" />
    </marker>
    <marker
       inkscape:stockid="Arrow1Lstart"
       orient="auto"
       refY="0"
       refX="0"
       id="Arrow1Lstart"
       style="overflow:visible">
      <path
         id="path5070"
         d="M 0,0 5,-5 -12.5,0 5,5 0,0 z"
         style="fill-rule:evenodd;stroke:#000000;stroke-width:1pt;marker-start:none"
         transform="matrix(0.8,0,0,0.8,10,0)"
         inkscape:connector-curvature="0" />
    </marker>
    <marker
       inkscape:stockid="Arrow2Lend"
       orient="auto"
       refY="0"
       refX="0"
       id="Arrow2Lend"
       style="overflow:visible">
      <path
         id="path5091"
         style="font-size:12px;fill-rule:evenodd;stroke-width:0.625;stroke-linejoin:round"
         d="M 8.7185878,4.0337352 -2.2072895,0.01601326 8.7185884,-4.0017078 c -1.7454984,2.3720609 -1.7354408,5.6174519 -6e-7,8.035443 z"
         transform="matrix(-1.1,0,0,-1.1,-1.1,0)"
         inkscape:connector-curvature="0" />
    </marker>
  </defs>
  <sodipodi:namedview
     id="base"
     pagecolor="#ffffff"
     bordercolor="#666666"
     borderopacity="1.0"
     inkscape:pageopacity="0.0"
     inkscape:pageshadow="2"
     inkscape:zoom="0.49497475"
     inkscape:cx="582.45318"
     inkscape:cy="238.24575"
     inkscape:document-units="px"
     inkscape:current-layer="layer1"
     showgrid="false"
     inkscape:window-width="1680"
     inkscape:window-height="975"
     inkscape:window-x="-9"
     inkscape:window-y="-9"
     inkscape:window-maximized="1"
     showguides="true"
     inkscape:guide-bbox="true">
    <sodipodi:guide
       orientation="0,1"
       position="295.71429,642.85714"
       id="guide3813" />
    <sodipodi:guide
       orientation="0,1"
       position="242.85714,540"
       id="guide3815" />
    <sodipodi:guide
       orientation="0,1"
       position="267.14286,377.14286"
       id="guide4596" />
    <sodipodi:guide
       orientation="0,1"
       position="618.21335,3485.0263"
       id="guide3087" />
    <sodipodi:guide
       orientation="1,0"
       position="748.57142,3485.0263"
       id="guide3110" />
    <sodipodi:guide
       orientation="1,0"
       position="1568.5714,3268.5714"
       id="guide3112" />
    <sodipodi:guide
       orientation="1,0"
       position="2305.7143,3262.8571"
       id="guide3114" />
  </sodipodi:namedview>
  <metadata
     id="metadata7">
    <rdf:RDF>
      <cc:Work
         rdf:about="">
        <dc:format>image/svg+xml</dc:format>
        <dc:type
           rdf:resource="http://purl.org/dc/dcmitype/StillImage" />
        <dc:title />
      </cc:Work>
    </rdf:RDF>
  </metadata>
  <g
     inkscape:label="Layer 1"
     inkscape:groupmode="layer"
     id="layer1"
     transform="translate(0,2691.7278)">
    <rect
       style="fill:#1e2020;fill-opacity:0.16806724;stroke:#000000;stroke-width:4.13866043;stroke-miterlimit:6;stroke-opacity:1;stroke-dasharray:none"
       id="rect2987"
       width="89.261009"
       height="58.57143"
       x="365.36954"
       y="-1545.701" />
    <rect
       style="fill:#000000;fill-opacity:0;stroke:#000000;stroke-width:4.13866043;stroke-miterlimit:6;stroke-opacity:1;stroke-dasharray:none"
       id="rect2987-2"
       width="89.261009"
       height="58.57143"
       x="512.16766"
       y="-1545.701" />
    <text
       xml:space="preserve"
       style="font-size:40px;font-style:normal;font-weight:normal;line-height:125%;letter-spacing:0px;word-spacing:0px;fill:#000000;fill-opacity:1;stroke:#000000;stroke-width:1.03662801;stroke-miterlimit:6;stroke-opacity:1;stroke-dasharray:none;font-family:Times New Roman;-inkscape-font-specification:Times New Roman"
       x="526.45337"
       y="-1504.2723"
       id="text3009-1"
       sodipodi:linespacing="125%"><tspan
         sodipodi:role="line"
         x="526.45337"
         y="-1504.2723"
         id="tspan3785-2">,</tspan></text>
    <text
       xml:space="preserve"
       style="font-size:40px;font-style:normal;font-weight:normal;line-height:125%;letter-spacing:0px;word-spacing:0px;fill:#000000;fill-opacity:1;stroke:#000000;stroke-opacity:1;font-family:Sans"
       x="509.65521"
       y="553.79071"
       id="text3009-1-4"
       sodipodi:linespacing="125%"><tspan
         sodipodi:role="line"
         x="509.65521"
         y="553.79071"
         id="tspan3785-2-6" /></text>
    <rect
       style="fill:#1e2020;fill-opacity:0.16806724;stroke:#000000;stroke-width:4.13866043;stroke-miterlimit:6;stroke-opacity:1;stroke-dasharray:none"
       id="rect2987-2-3"
       width="89.261009"
       height="58.57143"
       x="659.31042"
       y="-1545.701" />
    <text
       xml:space="preserve"
       style="font-size:40px;font-style:normal;font-weight:normal;line-height:125%;letter-spacing:0px;word-spacing:0px;fill:#000000;fill-opacity:1;stroke:#000000;stroke-width:1.03662801;stroke-miterlimit:6;stroke-opacity:1;stroke-dasharray:none;font-family:Times New Roman;-inkscape-font-specification:Times New Roman"
       x="673.59613"
       y="-1504.2723"
       id="text3009-1-3"
       sodipodi:linespacing="125%"><tspan
         sodipodi:role="line"
         x="673.59613"
         y="-1504.2723"
         id="tspan3785-2-2">c<tspan
   style="font-size:65.00091553%;baseline-shift:sub;stroke-width:1.03662801;stroke-miterlimit:6;stroke-dasharray:none"
   id="tspan3867">j</tspan></tspan></text>
    <rect
       style="fill:#000000;fill-opacity:0;stroke:#000000;stroke-width:4.13866043;stroke-miterlimit:6;stroke-opacity:1;stroke-dasharray:none"
       id="rect2987-2-3-4"
       width="89.261009"
       height="58.57143"
       x="803.59613"
       y="-1545.701" />
    <text
       xml:space="preserve"
       style="font-size:40px;font-style:normal;font-weight:normal;line-height:125%;letter-spacing:0px;word-spacing:0px;fill:#000000;fill-opacity:1;stroke:#000000;stroke-width:1.03662801;stroke-miterlimit:6;stroke-opacity:1;stroke-dasharray:none;font-family:Times New Roman;-inkscape-font-specification:Times New Roman"
       x="817.88184"
       y="-1504.2723"
       id="text3009-1-3-4"
       sodipodi:linespacing="125%"><tspan
         sodipodi:role="line"
         x="817.88184"
         y="-1504.2723"
         id="tspan3785-2-2-7">and<tspan
   style="font-size:65.00091553%;baseline-shift:sub;stroke-width:1.03662801;stroke-miterlimit:6;stroke-dasharray:none"
   id="tspan3867-3" /></tspan></text>
    <flowRoot
       xml:space="preserve"
       id="flowRoot3896"
       style="font-size:40px;font-style:normal;font-weight:normal;line-height:125%;letter-spacing:0px;word-spacing:0px;fill:#000000;fill-opacity:1;stroke:none;font-family:Sans"><flowRegion
         id="flowRegion3898"><rect
           id="rect3900"
           width="198.57143"
           height="220"
           x="115.71429"
           y="138.3802" /></flowRegion><flowPara
         id="flowPara3902" /></flowRoot>    <rect
       style="fill:#1e2020;fill-opacity:0.16806724;stroke:#000000;stroke-width:4.13866043;stroke-miterlimit:6;stroke-opacity:1;stroke-dasharray:none"
       id="rect2987-2-3-7"
       width="89.261009"
       height="58.57143"
       x="940.73901"
       y="-1545.701" />
    <text
       xml:space="preserve"
       style="font-size:40px;font-style:normal;font-weight:normal;line-height:125%;letter-spacing:0px;word-spacing:0px;fill:#000000;fill-opacity:1;stroke:#000000;stroke-width:1.03662801;stroke-miterlimit:6;stroke-opacity:1;stroke-dasharray:none;font-family:Times New Roman;-inkscape-font-specification:Times New Roman"
       x="955.02484"
       y="-1504.2723"
       id="text3009-1-3-8"
       sodipodi:linespacing="125%"><tspan
         sodipodi:role="line"
         x="955.02484"
         y="-1504.2723"
         id="tspan3785-2-2-4">c<tspan
   style="font-size:65.00091553%;baseline-shift:sub;stroke-width:1.03662801;stroke-miterlimit:6;stroke-dasharray:none"
   id="tspan3867-9">k</tspan></tspan></text>
    <rect
       style="fill:#999999;fill-opacity:0.92857139;stroke:#000000;stroke-width:4.0974474;stroke-miterlimit:6;stroke-opacity:1;stroke-dasharray:none"
       id="rect2987-9"
       width="89.261009"
       height="58.57143"
       x="207.88188"
       y="-1545.701" />
    <rect
       style="fill:#999999;fill-opacity:0.92857139;stroke:#000000;stroke-width:4.13866043;stroke-miterlimit:6;stroke-opacity:1;stroke-dasharray:none"
       id="rect2987-9-2"
       width="89.261009"
       height="58.57143"
       x="1120.7389"
       y="-1545.701" />
    <rect
       style="fill:#000000;fill-opacity:0;stroke:#000000;stroke-width:4.13866043;stroke-miterlimit:6;stroke-opacity:1;stroke-dasharray:none"
       id="rect2987-2-9"
       width="89.261009"
       height="58.57143"
       x="513.59619"
       y="-1648.5582" />
    <text
       xml:space="preserve"
       style="font-size:40px;font-style:normal;font-weight:normal;line-height:125%;letter-spacing:0px;word-spacing:0px;fill:#000000;fill-opacity:1;stroke:#000000;stroke-width:1.03662801;stroke-miterlimit:6;stroke-opacity:1;stroke-dasharray:none;font-family:Times New Roman;-inkscape-font-specification:Times New Roman"
       x="527.88196"
       y="-1607.1295"
       id="text3009-1-5"
       sodipodi:linespacing="125%"><tspan
         sodipodi:role="line"
         x="527.88196"
         y="-1607.1295"
         id="tspan3785-2-9">and</tspan></text>
    <rect
       style="fill:#000000;fill-opacity:0;stroke:#000000;stroke-width:4.13866043;stroke-miterlimit:6;stroke-opacity:1;stroke-dasharray:none"
       id="rect2987-2-9-9"
       width="89.261009"
       height="58.57143"
       x="513.59625"
       y="-1441.415" />
    <text
       xml:space="preserve"
       style="font-size:40px;font-style:normal;font-weight:normal;line-height:125%;letter-spacing:0px;word-spacing:0px;fill:#000000;fill-opacity:1;stroke:#000000;stroke-width:1.03662801;stroke-miterlimit:6;stroke-opacity:1;stroke-dasharray:none;font-family:Times New Roman;-inkscape-font-specification:Times New Roman"
       x="527.88196"
       y="-1399.9866"
       id="text3009-1-5-0"
       sodipodi:linespacing="125%"><tspan
         sodipodi:role="line"
         x="527.88196"
         y="-1399.9866"
         id="tspan3785-2-9-1">or</tspan></text>
    <rect
       style="fill:#000000;fill-opacity:0;stroke:#000000;stroke-width:4.14651203;stroke-miterlimit:6;stroke-opacity:1;stroke-dasharray:none"
       id="rect2987-2-9-9-1"
       width="208.71442"
       height="62.637794"
       x="516.45337"
       y="-1339.2723" />
    <text
       xml:space="preserve"
       style="font-size:40px;font-style:normal;font-weight:normal;line-height:125%;letter-spacing:0px;word-spacing:0px;fill:#000000;fill-opacity:1;stroke:#000000;stroke-width:1.03662801;stroke-miterlimit:6;stroke-opacity:1;stroke-dasharray:none;font-family:Times New Roman;-inkscape-font-specification:Times New Roman"
       x="530.73907"
       y="-1297.8438"
       id="text3009-1-5-0-4"
       sodipodi:linespacing="125%"><tspan
         sodipodi:role="line"
         x="530.73907"
         y="-1297.8438"
         id="tspan3785-2-9-1-0">is a kind of</tspan></text>
    <path
       style="fill:none;stroke:#000000;stroke-width:2;stroke-linecap:butt;stroke-linejoin:miter;stroke-miterlimit:6;stroke-opacity:1;stroke-dasharray:none;marker-start:none;marker-mid:none;marker-end:url(#Arrow2Lend)"
       d="m 297.14289,-1516.4153 68.22665,0"
       id="path4646"
       inkscape:connector-type="polyline"
       inkscape:connector-curvature="0"
       inkscape:connection-start="#rect2987-9"
       inkscape:connection-start-point="d4"
       inkscape:connection-end="#rect2987"
       inkscape:connection-end-point="d4" />
    <path
       style="fill:none;stroke:#000000;stroke-width:2;stroke-linecap:butt;stroke-linejoin:miter;stroke-miterlimit:6;stroke-opacity:1;stroke-dasharray:none;marker-start:none;marker-mid:none;marker-end:url(#Arrow2Lend)"
       d="m 454.63055,-1516.4153 57.53711,0"
       id="path4648"
       inkscape:connector-type="polyline"
       inkscape:connector-curvature="0"
       inkscape:connection-start="#rect2987"
       inkscape:connection-start-point="d4"
       inkscape:connection-end="#rect2987-2"
       inkscape:connection-end-point="d4" />
    <path
       style="fill:none;stroke:#000000;stroke-width:2;stroke-linecap:butt;stroke-linejoin:miter;stroke-miterlimit:6;stroke-opacity:1;stroke-dasharray:none;marker-start:none;marker-mid:none;marker-end:url(#Arrow2Lend)"
       d="m 601.42867,-1516.4153 57.88175,0"
       id="path4652"
       inkscape:connector-type="polyline"
       inkscape:connector-curvature="0"
       inkscape:connection-start="#rect2987-2"
       inkscape:connection-start-point="d4"
       inkscape:connection-end="#rect2987-2-3"
       inkscape:connection-end-point="d4" />
    <path
       style="fill:none;stroke:#000000;stroke-width:2;stroke-linecap:butt;stroke-linejoin:miter;stroke-miterlimit:6;stroke-opacity:1;stroke-dasharray:none;marker-end:url(#Arrow2Lend)"
       d="m 748.57143,-1516.4153 55.0247,0"
       id="path4654"
       inkscape:connector-type="polyline"
       inkscape:connector-curvature="0"
       inkscape:connection-start="#rect2987-2-3"
       inkscape:connection-start-point="d4"
       inkscape:connection-end="#rect2987-2-3-4"
       inkscape:connection-end-point="d4" />
    <path
       style="fill:none;stroke:#000000;stroke-width:2;stroke-linecap:butt;stroke-linejoin:miter;stroke-miterlimit:6;stroke-opacity:1;stroke-dasharray:none;marker-end:url(#Arrow2Lend)"
       d="m 892.85714,-1516.4153 47.88187,0"
       id="path4658"
       inkscape:connector-type="polyline"
       inkscape:connector-curvature="0"
       inkscape:connection-start="#rect2987-2-3-4"
       inkscape:connection-start-point="d4"
       inkscape:connection-end="#rect2987-2-3-7"
       inkscape:connection-end-point="d4" />
    <path
       style="fill:none;stroke:#000000;stroke-width:2;stroke-linecap:butt;stroke-linejoin:miter;stroke-miterlimit:6;stroke-opacity:1;stroke-dasharray:none;marker-end:url(#Arrow2Lend)"
       d="m 1030,-1516.4153 90.7389,0"
       id="path4660"
       inkscape:connector-type="polyline"
       inkscape:connector-curvature="0"
       inkscape:connection-start="#rect2987-2-3-7"
       inkscape:connection-start-point="d4"
       inkscape:connection-end="#rect2987-9-2"
       inkscape:connection-end-point="d4" />
    <path
       style="fill:none;stroke:#000000;stroke-width:2;stroke-linecap:butt;stroke-linejoin:miter;stroke-miterlimit:6;stroke-opacity:1;stroke-dasharray:none;marker-start:none;marker-mid:none;marker-end:url(#Arrow2Lend)"
       d="m 452.3343,-1545.8317 60.52767,-74.3286"
       id="path4662"
       inkscape:connector-type="polyline"
       inkscape:connector-curvature="0" />
    <path
       style="fill:none;stroke:#000000;stroke-width:2;stroke-linecap:butt;stroke-linejoin:miter;stroke-miterlimit:6;stroke-opacity:1;stroke-dasharray:none;marker-start:none;marker-mid:none;marker-end:url(#Arrow2Lend)"
       d="m 451.78065,-1486.9741 61.635,82.7793"
       id="path4664"
       inkscape:connector-type="polyline"
       inkscape:connector-curvature="0" />
    <path
       style="fill:none;stroke:#000000;stroke-width:2;stroke-linecap:butt;stroke-linejoin:miter;stroke-miterlimit:6;stroke-opacity:1;stroke-dasharray:none;marker-start:none;marker-mid:none;marker-end:url(#Arrow2Lend)"
       d="m 439.50638,-1487.2387 73.98029,182.4209"
       id="path4666"
       inkscape:connector-type="polyline"
       inkscape:connector-curvature="0" />
    <path
       style="fill:none;stroke:#000000;stroke-width:2;stroke-linecap:butt;stroke-linejoin:miter;stroke-miterlimit:6;stroke-opacity:1;stroke-dasharray:none;marker-start:url(#Arrow2Lstart);marker-mid:none;marker-end:none"
       d="m 675.34208,-1545.701 -72.4329,-74.1726"
       id="path4672"
       inkscape:connector-type="polyline"
       inkscape:connector-curvature="0"
       inkscape:connection-start="#rect2987-2-3"
       inkscape:connection-start-point="d4" />
    <path
       style="fill:none;stroke:#000000;stroke-width:2;stroke-linecap:butt;stroke-linejoin:miter;stroke-miterlimit:6;stroke-opacity:1;stroke-dasharray:none;marker-start:url(#Arrow2Lstart);marker-mid:none;marker-end:none"
       d="m 676.69564,-1487.1296 -74.79662,80.3982"
       id="path4674"
       inkscape:connector-type="polyline"
       inkscape:connector-curvature="0"
       inkscape:connection-start="#rect2987-2-3"
       inkscape:connection-start-point="d4" />
    <path
       style="fill:none;stroke:#000000;stroke-width:2;stroke-linecap:butt;stroke-linejoin:miter;stroke-miterlimit:6;stroke-opacity:1;stroke-dasharray:none;marker-end:url(#Arrow2Lend)"
       d="m 949.30702,-1487.1296 -222.14908,180.4033"
       id="path4676"
       inkscape:connector-type="polyline"
       inkscape:connector-curvature="0"
       inkscape:connection-start="#rect2987-2-3-7"
       inkscape:connection-start-point="d4" />
    <path
       style="fill:none;stroke:#000000;stroke-width:2;stroke-linecap:butt;stroke-linejoin:miter;stroke-miterlimit:6;stroke-opacity:1;stroke-dasharray:none;marker-end:url(#Arrow2Lend);display:inline"
       d="M 748.57143,-1544.4991 913.94097,-1648.558"
       id="path4678"
       inkscape:connector-type="polyline"
       inkscape:connector-curvature="0"
       inkscape:connection-start="#rect2987-2-3"
       inkscape:connection-start-point="d4" />
    <path
       style="fill:none;stroke:#000000;stroke-width:2;stroke-linecap:butt;stroke-linejoin:miter;stroke-miterlimit:6;stroke-opacity:1;stroke-dasharray:none;marker-start:url(#Arrow2Lstart);marker-end:none"
       d="M 1120.7389,-1539.6081 911.08383,-1648.558"
       id="path4680"
       inkscape:connector-type="polyline"
       inkscape:connector-curvature="0"
       inkscape:connection-start="#rect2987-9-2"
       inkscape:connection-start-point="d4" />
    <text
       xml:space="preserve"
       style="font-size:40px;font-style:normal;font-weight:normal;line-height:125%;letter-spacing:0px;word-spacing:0px;fill:#000000;fill-opacity:1;stroke:#000000;stroke-width:1.0263052;stroke-miterlimit:6;stroke-opacity:1;stroke-dasharray:none;font-family:Sans"
       x="349.09836"
       y="-2343.8823"
       id="text4682"
       sodipodi:linespacing="125%"><tspan
         sodipodi:role="line"
         id="tspan4684"
         x="349.09836"
         y="-2343.8823"
         style="font-style:italic;-inkscape-font-specification:Times New Roman;font-family:Times New Roman">C</tspan></text>
    <text
       xml:space="preserve"
       style="font-size:40px;font-style:normal;font-weight:normal;line-height:125%;letter-spacing:0px;word-spacing:0px;fill:#000000;fill-opacity:1;stroke:none;font-family:Sans"
       x="1152.176"
       y="-1504.2416"
       id="text4682-1"
       sodipodi:linespacing="125%"><tspan
         sodipodi:role="line"
         id="tspan4684-3"
         x="1152.176"
         y="-1504.2416">F</tspan></text>
    <text
       xml:space="preserve"
       style="font-size:40px;font-style:normal;font-weight:normal;line-height:125%;letter-spacing:0px;word-spacing:0px;fill:#000000;fill-opacity:1;stroke:#000000;stroke-width:1.03662801;stroke-miterlimit:6;stroke-opacity:1;stroke-dasharray:none;font-family:Times New Roman;-inkscape-font-specification:Times New Roman"
       x="212.74358"
       y="-2162.2847"
       id="text3009-1-3-6"
       sodipodi:linespacing="125%"><tspan
         sodipodi:role="line"
         x="212.74358"
         y="-2162.2847"
         id="tspan3785-2-2-1">sim<tspan
   style="font-size:65.00091553%;baseline-shift:sub"
   id="tspan3983">isdfdsf</tspan></tspan></text>
    <text
       xml:space="preserve"
       style="font-size:40px;font-style:normal;font-weight:normal;line-height:125%;letter-spacing:0px;word-spacing:0px;fill:#000000;fill-opacity:1;stroke:#000000;stroke-width:1.03662801;stroke-miterlimit:6;stroke-opacity:1;stroke-dasharray:none;font-family:Times New Roman;-inkscape-font-specification:Times New Roman"
       x="122.21088"
       y="-2432.6641"
       id="text3009-1-5-1"
       sodipodi:linespacing="125%"><tspan
         sodipodi:role="line"
         x="122.21088"
         y="-2432.6641"
         id="tspan3785-2-9-7"
         style="font-weight:bold">(a) Single Relation Extractor</tspan></text>
    <text
       xml:space="preserve"
       style="font-size:40px;font-style:normal;font-weight:normal;line-height:125%;letter-spacing:0px;word-spacing:0px;fill:#000000;fill-opacity:1;stroke:#000000;stroke-width:1.03662801;stroke-miterlimit:6;stroke-opacity:1;stroke-dasharray:none;font-family:Times New Roman;-inkscape-font-specification:Times New Roman"
       x="822.72662"
       y="-2432.6641"
       id="text3009-1-5-1-4"
       sodipodi:linespacing="125%"><tspan
         sodipodi:role="line"
         x="822.72662"
         y="-2432.6641"
         id="tspan3785-2-9-7-0"
         style="font-weight:bold">(b) Hybrid Extractor: Relation Fusion</tspan></text>
    <text
       xml:space="preserve"
       style="font-size:40px;font-style:normal;font-weight:normal;line-height:125%;letter-spacing:0px;word-spacing:0px;fill:#000000;fill-opacity:1;stroke:#000000;stroke-width:1.03662801;stroke-miterlimit:6;stroke-opacity:1;stroke-dasharray:none;font-family:Times New Roman;-inkscape-font-specification:Times New Roman"
       x="1610.5096"
       y="-2432.6641"
       id="text3009-1-5-1-4-5"
       sodipodi:linespacing="125%"><tspan
         sodipodi:role="line"
         x="1610.5096"
         y="-2432.6641"
         id="tspan3785-2-9-7-0-1"
         style="font-weight:bold">(c) Hybrid Extractor: Similarity Fusion</tspan></text>
    <text
       xml:space="preserve"
       style="font-size:40px;font-style:normal;font-weight:normal;line-height:125%;letter-spacing:0px;word-spacing:0px;fill:#000000;fill-opacity:1;stroke:#000000;stroke-width:1.03662801;stroke-miterlimit:6;stroke-opacity:1;stroke-dasharray:none;font-family:Times New Roman;-inkscape-font-specification:Times New Roman"
       x="2390.5671"
       y="-2432.6641"
       id="text3009-1-5-1-4-5-0"
       sodipodi:linespacing="125%"><tspan
         sodipodi:role="line"
         x="2390.5671"
         y="-2432.6641"
         id="tspan3785-2-9-7-0-1-0"
         style="font-weight:bold">(d) Hybrid Extractor: Feature Fusion</tspan></text>
    <rect
       style="fill:#1e2020;fill-opacity:0.16806724000000001;stroke:#000000;stroke-width:4;stroke-miterlimit:6;stroke-opacity:1;stroke-dasharray:none"
       id="rect2987-8"
       width="234.31122"
       height="58.57143"
       x="173.9742"
       y="-2282.1426" />
  </g>
</svg>
