graph G {
//rankdir=BT;

subgraph cluster {
	style=dashed;
	vehicle--car[dir=both, arrowtail=none,     arrowhead=none];
	vehicle--automobile[dir=both,arrowtail=none,     arrowhead=none];
	automobile--car[dir=both,arrowtail=none,     arrowhead=none];
}

subgraph cluster2 {
	style=dashed;
	"means of transport";
}

vehicle--"means of transport"[arrowtail=none,arrowhead=none];
car--"means of transport"[arrowtail=none,arrowhead=none];
automobile--"means of transport"[arrowtail=none,arrowhead=none];
//vehicle--transports[label=hyper];
//car--transports[label=hyper];
//automobile--transports[label=hyper];
}

