%!PS-Adobe-3.0 EPSF-3.0
%%Creator: MATLAB, The MathWorks, Inc. Version 8.0.0.783 (R2012b). Operating System: Linux 3.2.0-37-generic #58-Ubuntu SMP Thu Jan 24 15:28:10 UTC 2013 x86_64.
%%Title: /home/sasha/Desktop/svm/bless-precision20.eps
%%CreationDate: 02/12/2013  17:21:21
%%DocumentNeededFonts: Helvetica
%%DocumentProcessColors: Cyan Magenta Yellow Black
%%LanguageLevel: 2
%%Pages: 1
%%BoundingBox:   -43   130   655   661
%%EndComments

%%BeginProlog
% MathWorks dictionary
/MathWorks 160 dict begin
% definition operators
/bdef {bind def} bind def
/ldef {load def} bind def
/xdef {exch def} bdef
/xstore {exch store} bdef
% operator abbreviations
/c  /clip ldef
/cc /concat ldef
/cp /closepath ldef
/gr /grestore ldef
/gs /gsave ldef
/mt /moveto ldef
/np /newpath ldef
/cm /currentmatrix ldef
/sm /setmatrix ldef
/rm /rmoveto ldef
/rl /rlineto ldef
/s {show newpath} bdef
/sc {setcmykcolor} bdef
/sr /setrgbcolor ldef
/sg /setgray ldef
/w /setlinewidth ldef
/j /setlinejoin ldef
/cap /setlinecap ldef
/rc {rectclip} bdef
/rf {rectfill} bdef
% page state control
/pgsv () def
/bpage {/pgsv save def} bdef
/epage {pgsv restore} bdef
/bplot /gsave ldef
/eplot {stroke grestore} bdef
% orientation switch
/portraitMode 0 def /landscapeMode 1 def /rotateMode 2 def
% coordinate system mappings
/dpi2point 0 def
% font control
/FontSize 0 def
/FMS {/FontSize xstore findfont [FontSize 0 0 FontSize neg 0 0]
  makefont setfont} bdef
/reencode {exch dup where {pop load} {pop StandardEncoding} ifelse
  exch dup 3 1 roll findfont dup length dict begin
  { 1 index /FID ne {def}{pop pop} ifelse } forall
  /Encoding exch def currentdict end definefont pop} bdef
/isroman {findfont /CharStrings get /Agrave known} bdef
/FMSR {3 1 roll 1 index dup isroman {reencode} {pop pop} ifelse
  exch FMS} bdef
/csm {1 dpi2point div -1 dpi2point div scale neg translate
 dup landscapeMode eq {pop -90 rotate}
  {rotateMode eq {90 rotate} if} ifelse} bdef
% line types: solid, dotted, dashed, dotdash
/SO { [] 0 setdash } bdef
/DO { [.5 dpi2point mul 4 dpi2point mul] 0 setdash } bdef
/DA { [6 dpi2point mul] 0 setdash } bdef
/DD { [.5 dpi2point mul 4 dpi2point mul 6 dpi2point mul 4
  dpi2point mul] 0 setdash } bdef
% macros for lines and objects
/L {lineto stroke} bdef
/MP {3 1 roll moveto 1 sub {rlineto} repeat} bdef
/AP {{rlineto} repeat} bdef
/PDlw -1 def
/W {/PDlw currentlinewidth def setlinewidth} def
/PP {closepath eofill} bdef
/DP {closepath stroke} bdef
/MR {4 -2 roll moveto dup  0 exch rlineto exch 0 rlineto
  neg 0 exch rlineto closepath} bdef
/FR {MR stroke} bdef
/PR {MR fill} bdef
/L1i {{currentfile picstr readhexstring pop} image} bdef
/tMatrix matrix def
/MakeOval {newpath tMatrix currentmatrix pop translate scale
0 0 1 0 360 arc tMatrix setmatrix} bdef
/FO {MakeOval stroke} bdef
/PO {MakeOval fill} bdef
/PD {currentlinewidth 2 div 0 360 arc fill
   PDlw -1 eq not {PDlw w /PDlw -1 def} if} def
/FA {newpath tMatrix currentmatrix pop translate scale
  0 0 1 5 -2 roll arc tMatrix setmatrix stroke} bdef
/PA {newpath tMatrix currentmatrix pop	translate 0 0 moveto scale
  0 0 1 5 -2 roll arc closepath tMatrix setmatrix fill} bdef
/FAn {newpath tMatrix currentmatrix pop translate scale
  0 0 1 5 -2 roll arcn tMatrix setmatrix stroke} bdef
/PAn {newpath tMatrix currentmatrix pop translate 0 0 moveto scale
  0 0 1 5 -2 roll arcn closepath tMatrix setmatrix fill} bdef
/vradius 0 def /hradius 0 def /lry 0 def
/lrx 0 def /uly 0 def /ulx 0 def /rad 0 def
/MRR {/vradius xdef /hradius xdef /lry xdef /lrx xdef /uly xdef
  /ulx xdef newpath tMatrix currentmatrix pop ulx hradius add uly
  vradius add translate hradius vradius scale 0 0 1 180 270 arc 
  tMatrix setmatrix lrx hradius sub uly vradius add translate
  hradius vradius scale 0 0 1 270 360 arc tMatrix setmatrix
  lrx hradius sub lry vradius sub translate hradius vradius scale
  0 0 1 0 90 arc tMatrix setmatrix ulx hradius add lry vradius sub
  translate hradius vradius scale 0 0 1 90 180 arc tMatrix setmatrix
  closepath} bdef
/FRR {MRR stroke } bdef
/PRR {MRR fill } bdef
/MlrRR {/lry xdef /lrx xdef /uly xdef /ulx xdef /rad lry uly sub 2 div def
  newpath tMatrix currentmatrix pop ulx rad add uly rad add translate
  rad rad scale 0 0 1 90 270 arc tMatrix setmatrix lrx rad sub lry rad
  sub translate rad rad scale 0 0 1 270 90 arc tMatrix setmatrix
  closepath} bdef
/FlrRR {MlrRR stroke } bdef
/PlrRR {MlrRR fill } bdef
/MtbRR {/lry xdef /lrx xdef /uly xdef /ulx xdef /rad lrx ulx sub 2 div def
  newpath tMatrix currentmatrix pop ulx rad add uly rad add translate
  rad rad scale 0 0 1 180 360 arc tMatrix setmatrix lrx rad sub lry rad
  sub translate rad rad scale 0 0 1 0 180 arc tMatrix setmatrix
  closepath} bdef
/FtbRR {MtbRR stroke } bdef
/PtbRR {MtbRR fill } bdef
/stri 6 array def /dtri 6 array def
/smat 6 array def /dmat 6 array def
/tmat1 6 array def /tmat2 6 array def /dif 3 array def
/asub {/ind2 exch def /ind1 exch def dup dup
  ind1 get exch ind2 get sub exch } bdef
/tri_to_matrix {
  2 0 asub 3 1 asub 4 0 asub 5 1 asub
  dup 0 get exch 1 get 7 -1 roll astore } bdef
/compute_transform {
  dmat dtri tri_to_matrix tmat1 invertmatrix 
  smat stri tri_to_matrix tmat2 concatmatrix } bdef
/ds {stri astore pop} bdef
/dt {dtri astore pop} bdef
/db {2 copy /cols xdef /rows xdef mul dup 3 mul string
  currentfile 
  3 index 0 eq {/ASCIIHexDecode filter}
  {/ASCII85Decode filter 3 index 2 eq {/RunLengthDecode filter} if }
  ifelse exch readstring pop
  dup 0 3 index getinterval /rbmap xdef
  dup 2 index dup getinterval /gbmap xdef
  1 index dup 2 mul exch getinterval /bbmap xdef pop pop}bdef
/it {gs np dtri aload pop moveto lineto lineto cp c
  cols rows 8 compute_transform 
  rbmap gbmap bbmap true 3 colorimage gr}bdef
/il {newpath moveto lineto stroke}bdef
currentdict end def
%%EndProlog

%%BeginSetup
MathWorks begin

0 cap

end
%%EndSetup

%%Page: 1 1
%%BeginPageSetup
%%PageBoundingBox:   -43   130   655   661
MathWorks begin
bpage
%%EndPageSetup

%%BeginObject: obj1
bplot

/dpi2point 12 def
portraitMode -0516 7932 csm

    0     0  8380  6365 rc
85 dict begin %Colortable dictionary
/c0 { 0.000000 0.000000 0.000000 sr} bdef
/c1 { 1.000000 1.000000 1.000000 sr} bdef
/c2 { 0.900000 0.000000 0.000000 sr} bdef
/c3 { 0.000000 0.820000 0.000000 sr} bdef
/c4 { 0.000000 0.000000 0.800000 sr} bdef
/c5 { 0.910000 0.820000 0.320000 sr} bdef
/c6 { 1.000000 0.260000 0.820000 sr} bdef
/c7 { 0.000000 0.820000 0.820000 sr} bdef
c0
1 j
1 sg
   0    0 8381 6366 rf
6 w
0 5188 5613 0 0 -5188 1347 5665 4 MP
PP
-5613 0 0 5188 5613 0 0 -5188 1347 5665 5 MP stroke
gs 1347 477 5614 5189 rc
/c8 { 0.000000 0.000000 0.562500 sr} bdef
c8
0 0 0 -576 0 -576 0 -577 0 -576 0 -577 0 -576 0 -577 
0 -576 0 -577 0 0 -561 0 -561 0 -561 0 -562 0 -561 0 
-561 0 -562 0 -561 0 -561 0 -562 0 0 0 0 577 0 576 
0 577 0 576 0 577 0 576 0 577 0 576 0 576 0 0 
562 0 561 0 561 0 562 0 561 0 561 0 562 0 561 0 
561 0 561 0 1347 477 43 MP
PP
0 sg
0 0 0 0 0 -576 0 -576 0 -577 0 -576 0 -577 0 -576 
0 -577 0 -576 0 -577 0 0 -561 0 -561 0 -561 0 -562 0 
-561 0 -561 0 -562 0 -561 0 -561 0 -562 0 0 0 0 577 
0 576 0 577 0 576 0 577 0 576 0 577 0 576 0 576 
0 0 562 0 561 0 561 0 562 0 561 0 561 0 562 0 
561 0 561 0 561 0 1347 477 44 MP stroke
/c9 { 0.000000 0.000000 0.625000 sr} bdef
c9
0 0 0 -576 0 -576 0 -577 0 -576 0 -577 0 -576 0 -577 
0 -576 0 -577 0 0 -561 0 -561 0 -561 0 -562 0 -561 0 
-561 0 -562 0 -561 0 -561 0 -562 0 0 0 0 577 0 576 
0 577 0 576 0 577 0 576 0 577 0 576 0 576 0 0 
562 0 561 0 561 0 562 0 561 0 561 0 562 0 561 0 
0 0 561 -9 52 9 509 0 1347 477 45 MP
PP
0 sg
0 0 0 0 0 -576 0 -576 0 -577 0 -576 0 -577 0 -576 
0 -577 0 -576 0 -577 0 0 -561 0 -561 0 -561 0 -562 0 
-561 0 -561 0 -562 0 -561 0 -561 0 -562 0 0 0 0 577 
0 576 0 577 0 576 0 577 0 576 0 577 0 576 0 576 
0 0 562 0 561 0 561 0 562 0 561 0 561 0 562 0 
561 0 0 0 561 -9 52 9 509 0 1347 477 46 MP stroke
/c10 { 0.000000 0.125000 1.000000 sr} bdef
c10
0 -573 0 -576 0 -577 0 -576 0 -577 0 -576 0 -577 0 -576 
0 -577 0 0 -561 0 -561 0 -561 0 -562 0 -561 0 -561 0 
-562 0 -561 0 -561 0 -562 0 0 0 0 577 0 576 0 577 
0 576 0 577 0 576 0 577 0 576 0 576 0 0 562 0 
561 0 561 0 562 0 561 0 561 0 562 0 143 0 418 -71 
561 4 561 64 1347 480 43 MP
PP
0 sg
0 0 0 -573 0 -576 0 -577 0 -576 0 -577 0 -576 0 -577 
0 -576 0 -577 0 0 -561 0 -561 0 -561 0 -562 0 -561 0 
-561 0 -562 0 -561 0 -561 0 -562 0 0 0 0 577 0 576 
0 577 0 576 0 577 0 576 0 577 0 576 0 576 0 0 
562 0 561 0 561 0 562 0 561 0 561 0 562 0 143 0 
418 -71 561 4 561 64 1347 480 44 MP stroke
/c11 { 0.000000 0.625000 1.000000 sr} bdef
c11
0 -510 0 -576 0 -577 0 -576 0 -577 0 -576 0 -577 0 -576 
0 -577 0 0 -561 0 -561 0 -561 0 -562 0 -561 0 -561 0 
-562 0 -561 0 -561 0 -562 0 0 0 0 577 0 576 0 577 
0 576 0 577 0 576 0 577 0 576 0 576 0 0 562 0 
561 0 561 0 562 0 561 0 561 0 362 0 200 -39 561 -119 
561 24 561 68 1347 543 43 MP
PP
0 sg
0 0 0 -510 0 -576 0 -577 0 -576 0 -577 0 -576 0 -577 
0 -576 0 -577 0 0 -561 0 -561 0 -561 0 -562 0 -561 0 
-561 0 -562 0 -561 0 -561 0 -562 0 0 0 0 577 0 576 
0 577 0 576 0 577 0 576 0 577 0 576 0 576 0 0 
562 0 561 0 561 0 562 0 561 0 561 0 362 0 200 -39 
561 -119 561 24 561 68 1347 543 44 MP stroke
/c12 { 0.062500 1.000000 0.937500 sr} bdef
c12
0 -436 0 -576 0 -577 0 -576 0 -577 0 -576 0 -577 0 -576 
0 -577 0 0 -561 0 -561 0 -561 0 -562 0 -561 0 -561 0 
-562 0 -561 0 -561 0 -562 0 0 0 0 577 0 576 0 577 
0 576 0 577 0 576 0 577 0 576 0 576 0 0 481 0 
81 -18 103 18 458 0 561 0 562 0 561 0 561 0 53 0 
509 -184 561 -83 561 53 561 74 1347 617 45 MP
PP
0 sg
0 0 0 -436 0 -576 0 -577 0 -576 0 -577 0 -576 0 -577 
0 -576 0 -577 0 0 -561 0 -561 0 -561 0 -562 0 -561 0 
-561 0 -562 0 -561 0 -561 0 -562 0 0 0 0 577 0 576 
0 577 0 576 0 577 0 576 0 577 0 576 0 576 0 0 
481 0 81 -18 103 18 458 0 561 0 562 0 561 0 561 0 
53 0 509 -184 561 -83 561 53 561 74 1347 617 46 MP stroke
/c13 { 0.562500 1.000000 0.437500 sr} bdef
c13
0 -346 0 -576 0 -577 0 -576 0 -577 0 -576 0 -577 0 -576 
0 -577 0 0 -561 0 -561 0 -561 0 -562 0 -561 0 -561 0 
-562 0 -561 0 -561 0 -562 0 0 0 0 577 0 576 0 577 
0 576 0 577 0 576 0 577 0 576 0 576 0 0 289 0 
273 -87 561 64 190 23 371 0 562 0 561 0 76 0 485 -106 
562 -303 561 -7 561 103 561 83 1347 707 45 MP
PP
0 sg
0 0 0 -346 0 -576 0 -577 0 -576 0 -577 0 -576 0 -577 
0 -576 0 -577 0 0 -561 0 -561 0 -561 0 -562 0 -561 0 
-561 0 -562 0 -561 0 -561 0 -562 0 0 0 0 577 0 576 
0 577 0 576 0 577 0 576 0 577 0 576 0 576 0 0 
289 0 273 -87 561 64 190 23 371 0 562 0 561 0 76 0 
485 -106 562 -303 561 -7 561 103 561 83 1347 707 46 MP stroke
/c14 { 1.000000 0.937500 0.000000 sr} bdef
c14
0 -231 0 -576 0 -577 0 -576 0 -577 0 -576 0 -577 0 -576 
0 -577 0 0 -561 0 -561 0 -561 0 -562 0 -561 0 -561 0 
-562 0 -561 0 -561 0 -562 0 0 0 0 577 0 576 0 577 
0 576 0 577 0 576 0 577 0 576 0 576 0 0 160 0 
402 -170 561 59 561 42 562 13 561 -45 561 -213 227 -262 335 -50 
561 27 88 23 473 132 561 99 1347 822 45 MP
PP
0 sg
0 0 0 -231 0 -576 0 -577 0 -576 0 -577 0 -576 0 -577 
0 -576 0 -577 0 0 -561 0 -561 0 -561 0 -562 0 -561 0 
-561 0 -562 0 -561 0 -561 0 -562 0 0 0 0 577 0 576 
0 577 0 576 0 577 0 576 0 577 0 576 0 576 0 0 
160 0 402 -170 561 59 561 42 562 13 561 -45 561 -213 227 -262 
335 -50 561 27 88 23 473 132 561 99 1347 822 46 MP stroke
/c15 { 1.000000 0.437500 0.000000 sr} bdef
c15
0 -72 0 -576 0 -577 0 -576 0 -577 0 -576 0 -577 0 -576 
0 -577 0 0 -561 0 -561 0 -561 0 -562 0 -561 0 -561 0 
-562 0 -561 0 -561 0 -562 0 0 0 0 577 0 576 0 577 
0 576 0 577 0 576 0 577 0 576 0 576 0 0 62 0 
500 -274 561 52 561 29 562 10 561 -100 346 -293 215 -40 562 -121 
561 33 561 95 159 33 402 72 1347 981 45 MP
PP
0 sg
0 0 0 -72 0 -576 0 -577 0 -576 0 -577 0 -576 0 -577 
0 -576 0 -577 0 0 -561 0 -561 0 -561 0 -562 0 -561 0 
-561 0 -562 0 -561 0 -561 0 -562 0 0 0 0 577 0 576 
0 577 0 576 0 577 0 576 0 577 0 576 0 576 0 0 
62 0 500 -274 561 52 561 29 562 10 561 -100 346 -293 215 -40 
562 -121 561 33 561 95 159 33 402 72 1347 981 46 MP stroke
/c16 { 0.937500 0.000000 0.000000 sr} bdef
c16
0 -449 0 -577 0 -576 0 -53 -540 -524 -21 -19 -561 -557 0 0 
-520 -577 -41 -43 -519 -533 -43 -42 -527 -535 -34 0 -561 0 -562 0 
-561 0 -561 0 -562 0 0 0 0 577 0 576 0 577 0 576 
0 577 0 576 0 577 0 528 76 48 486 163 561 38 561 3 
562 6 455 -210 106 -23 561 -207 562 -83 561 44 561 76 561 66 
1347 1180 41 MP
PP
0 sg
0 0 0 -449 0 -577 0 -576 0 -53 -540 -524 -21 -19 -561 -557 
0 0 -520 -577 -41 -43 -519 -533 -43 -42 -527 -535 -34 0 -561 0 
-562 0 -561 0 -561 0 -562 0 0 0 0 577 0 576 0 577 
0 576 0 577 0 576 0 577 0 528 76 48 486 163 561 38 
561 3 562 6 455 -210 106 -23 561 -207 562 -83 561 44 561 76 
561 66 1347 1180 42 MP stroke
/c17 { 0.500000 0.000000 0.000000 sr} bdef
c17
0 -125 0 -146 -528 -431 -33 -31 -561 -342 -265 -203 -296 -211 -371 -366 
-191 -328 -305 -248 -256 -156 -389 -421 -172 -288 -305 -288 -257 -263 -280 -314 
-281 0 -561 0 -562 0 0 0 0 577 0 576 0 577 0 576 
0 577 0 576 0 577 0 228 371 -228 191 -39 52 39 509 504 
561 -107 562 14 561 -369 281 -42 280 -11 84 11 478 20 561 73 
561 25 561 7 1347 1504 43 MP
PP
0 sg
0 0 0 -125 0 -146 -528 -431 -33 -31 -561 -342 -265 -203 -296 -211 
-371 -366 -191 -328 -305 -248 -256 -156 -389 -421 -172 -288 -305 -288 -257 -263 
-280 -314 -281 0 -561 0 -562 0 0 0 0 577 0 576 0 577 
0 576 0 577 0 576 0 577 0 228 371 -228 191 -39 52 39 
509 504 561 -107 562 14 561 -369 281 -42 280 -11 84 11 478 20 
561 73 561 25 561 7 1347 1504 44 MP stroke
gr

0 sg
%%IncludeResource: font Helvetica
/Helvetica /ISOLatin1Encoding 288 FMSR

4048 6234 mt 
(C) s
%%IncludeResource: font Symbol
/Symbol /ISOLatin1Encoding 288 FMSR

 293 3131 mt  -90 rotate
(g) s
90 rotate
%%IncludeResource: font Helvetica
/Helvetica /ISOLatin1Encoding 120 FMSR

1330 5708 mt 
( ) s
6944  519 mt 
( ) s
4 w
DO
1817 5665 mt 1817  477 L
1817  477 mt 1817  477 L
2750 5665 mt 2750  477 L
2750  477 mt 2750  477 L
3682 5665 mt 3682  477 L
3682  477 mt 3682  477 L
4614 5665 mt 4614  477 L
4614  477 mt 4614  477 L
5547 5665 mt 5547  477 L
5547  477 mt 5547  477 L
6479 5665 mt 6479  477 L
6479  477 mt 6479  477 L
1347 5171 mt 6960 5171 L
6960 5171 mt 6960 5171 L
1347 4214 mt 6960 4214 L
6960 4214 mt 6960 4214 L
1347 3256 mt 6960 3256 L
6960 3256 mt 6960 3256 L
1347 2299 mt 6960 2299 L
6960 2299 mt 6960 2299 L
1347 1341 mt 6960 1341 L
6960 1341 mt 6960 1341 L
SO
6 w
1347 5665 mt 6960 5665 L
1347  477 mt 6960  477 L
1347 5665 mt 1347  477 L
6960 5665 mt 6960  477 L
1347 5665 mt 6960 5665 L
1347 5665 mt 1347  477 L
1817 5665 mt 1817 5636 L
1817  477 mt 1817  505 L
DO
1817 5665 mt 1817  477 L
1817  477 mt 1817  477 L
SO
1775 5665 mt 1775 5636 L
1775  477 mt 1775  505 L
DO
1775 5665 mt 1775  477 L
1775  477 mt 1775  477 L
SO
1727 5665 mt 1727 5636 L
1727  477 mt 1727  505 L
DO
1727 5665 mt 1727  477 L
1727  477 mt 1727  477 L
SO
1673 5665 mt 1673 5636 L
1673  477 mt 1673  505 L
DO
1673 5665 mt 1673  477 L
1673  477 mt 1673  477 L
SO
1611 5665 mt 1611 5636 L
1611  477 mt 1611  505 L
DO
1611 5665 mt 1611  477 L
1611  477 mt 1611  477 L
SO
1537 5665 mt 1537 5636 L
1537  477 mt 1537  505 L
DO
1537 5665 mt 1537  477 L
1537  477 mt 1537  477 L
SO
1446 5665 mt 1446 5636 L
1446  477 mt 1446  505 L
DO
1446 5665 mt 1446  477 L
1446  477 mt 1446  477 L
SO
1817 5665 mt 1817 5608 L
1817  477 mt 1817  533 L
%%IncludeResource: font Helvetica
/Helvetica /ISOLatin1Encoding 288 FMSR

1617 5967 mt 
(0.1) s
2098 5665 mt 2098 5636 L
2098  477 mt 2098  505 L
DO
2098 5665 mt 2098  477 L
2098  477 mt 2098  477 L
SO
2262 5665 mt 2262 5636 L
2262  477 mt 2262  505 L
DO
2262 5665 mt 2262  477 L
2262  477 mt 2262  477 L
SO
2379 5665 mt 2379 5636 L
2379  477 mt 2379  505 L
DO
2379 5665 mt 2379  477 L
2379  477 mt 2379  477 L
SO
2469 5665 mt 2469 5636 L
2469  477 mt 2469  505 L
DO
2469 5665 mt 2469  477 L
2469  477 mt 2469  477 L
SO
2543 5665 mt 2543 5636 L
2543  477 mt 2543  505 L
DO
2543 5665 mt 2543  477 L
2543  477 mt 2543  477 L
SO
2605 5665 mt 2605 5636 L
2605  477 mt 2605  505 L
DO
2605 5665 mt 2605  477 L
2605  477 mt 2605  477 L
SO
2659 5665 mt 2659 5636 L
2659  477 mt 2659  505 L
DO
2659 5665 mt 2659  477 L
2659  477 mt 2659  477 L
SO
2707 5665 mt 2707 5636 L
2707  477 mt 2707  505 L
DO
2707 5665 mt 2707  477 L
2707  477 mt 2707  477 L
SO
2750 5665 mt 2750 5636 L
2750  477 mt 2750  505 L
DO
2750 5665 mt 2750  477 L
2750  477 mt 2750  477 L
SO
2750 5665 mt 2750 5608 L
2750  477 mt 2750  533 L
2670 5967 mt 
(1) s
3030 5665 mt 3030 5636 L
3030  477 mt 3030  505 L
DO
3030 5665 mt 3030  477 L
3030  477 mt 3030  477 L
SO
3195 5665 mt 3195 5636 L
3195  477 mt 3195  505 L
DO
3195 5665 mt 3195  477 L
3195  477 mt 3195  477 L
SO
3311 5665 mt 3311 5636 L
3311  477 mt 3311  505 L
DO
3311 5665 mt 3311  477 L
3311  477 mt 3311  477 L
SO
3401 5665 mt 3401 5636 L
3401  477 mt 3401  505 L
DO
3401 5665 mt 3401  477 L
3401  477 mt 3401  477 L
SO
3475 5665 mt 3475 5636 L
3475  477 mt 3475  505 L
DO
3475 5665 mt 3475  477 L
3475  477 mt 3475  477 L
SO
3538 5665 mt 3538 5636 L
3538  477 mt 3538  505 L
DO
3538 5665 mt 3538  477 L
3538  477 mt 3538  477 L
SO
3592 5665 mt 3592 5636 L
3592  477 mt 3592  505 L
DO
3592 5665 mt 3592  477 L
3592  477 mt 3592  477 L
SO
3639 5665 mt 3639 5636 L
3639  477 mt 3639  505 L
DO
3639 5665 mt 3639  477 L
3639  477 mt 3639  477 L
SO
3682 5665 mt 3682 5636 L
3682  477 mt 3682  505 L
DO
3682 5665 mt 3682  477 L
3682  477 mt 3682  477 L
SO
3682 5665 mt 3682 5608 L
3682  477 mt 3682  533 L
3522 5967 mt 
(10) s
3963 5665 mt 3963 5636 L
3963  477 mt 3963  505 L
DO
3963 5665 mt 3963  477 L
3963  477 mt 3963  477 L
SO
4127 5665 mt 4127 5636 L
4127  477 mt 4127  505 L
DO
4127 5665 mt 4127  477 L
4127  477 mt 4127  477 L
SO
4243 5665 mt 4243 5636 L
4243  477 mt 4243  505 L
DO
4243 5665 mt 4243  477 L
4243  477 mt 4243  477 L
SO
4334 5665 mt 4334 5636 L
4334  477 mt 4334  505 L
DO
4334 5665 mt 4334  477 L
4334  477 mt 4334  477 L
SO
4408 5665 mt 4408 5636 L
4408  477 mt 4408  505 L
DO
4408 5665 mt 4408  477 L
4408  477 mt 4408  477 L
SO
4470 5665 mt 4470 5636 L
4470  477 mt 4470  505 L
DO
4470 5665 mt 4470  477 L
4470  477 mt 4470  477 L
SO
4524 5665 mt 4524 5636 L
4524  477 mt 4524  505 L
DO
4524 5665 mt 4524  477 L
4524  477 mt 4524  477 L
SO
4572 5665 mt 4572 5636 L
4572  477 mt 4572  505 L
DO
4572 5665 mt 4572  477 L
4572  477 mt 4572  477 L
SO
4614 5665 mt 4614 5636 L
4614  477 mt 4614  505 L
DO
4614 5665 mt 4614  477 L
4614  477 mt 4614  477 L
SO
4614 5665 mt 4614 5608 L
4614  477 mt 4614  533 L
4374 5967 mt 
(100) s
4895 5665 mt 4895 5636 L
4895  477 mt 4895  505 L
DO
4895 5665 mt 4895  477 L
4895  477 mt 4895  477 L
SO
5059 5665 mt 5059 5636 L
5059  477 mt 5059  505 L
DO
5059 5665 mt 5059  477 L
5059  477 mt 5059  477 L
SO
5176 5665 mt 5176 5636 L
5176  477 mt 5176  505 L
DO
5176 5665 mt 5176  477 L
5176  477 mt 5176  477 L
SO
5266 5665 mt 5266 5636 L
5266  477 mt 5266  505 L
DO
5266 5665 mt 5266  477 L
5266  477 mt 5266  477 L
SO
5340 5665 mt 5340 5636 L
5340  477 mt 5340  505 L
DO
5340 5665 mt 5340  477 L
5340  477 mt 5340  477 L
SO
5402 5665 mt 5402 5636 L
5402  477 mt 5402  505 L
DO
5402 5665 mt 5402  477 L
5402  477 mt 5402  477 L
SO
5456 5665 mt 5456 5636 L
5456  477 mt 5456  505 L
DO
5456 5665 mt 5456  477 L
5456  477 mt 5456  477 L
SO
5504 5665 mt 5504 5636 L
5504  477 mt 5504  505 L
DO
5504 5665 mt 5504  477 L
5504  477 mt 5504  477 L
SO
5547 5665 mt 5547 5636 L
5547  477 mt 5547  505 L
DO
5547 5665 mt 5547  477 L
5547  477 mt 5547  477 L
SO
5547 5665 mt 5547 5608 L
5547  477 mt 5547  533 L
5187 5967 mt 
(1,000) s
5827 5665 mt 5827 5636 L
5827  477 mt 5827  505 L
DO
5827 5665 mt 5827  477 L
5827  477 mt 5827  477 L
SO
5991 5665 mt 5991 5636 L
5991  477 mt 5991  505 L
DO
5991 5665 mt 5991  477 L
5991  477 mt 5991  477 L
SO
6108 5665 mt 6108 5636 L
6108  477 mt 6108  505 L
DO
6108 5665 mt 6108  477 L
6108  477 mt 6108  477 L
SO
6198 5665 mt 6198 5636 L
6198  477 mt 6198  505 L
DO
6198 5665 mt 6198  477 L
6198  477 mt 6198  477 L
SO
6272 5665 mt 6272 5636 L
6272  477 mt 6272  505 L
DO
6272 5665 mt 6272  477 L
6272  477 mt 6272  477 L
SO
6335 5665 mt 6335 5636 L
6335  477 mt 6335  505 L
DO
6335 5665 mt 6335  477 L
6335  477 mt 6335  477 L
SO
6389 5665 mt 6389 5636 L
6389  477 mt 6389  505 L
DO
6389 5665 mt 6389  477 L
6389  477 mt 6389  477 L
SO
6436 5665 mt 6436 5636 L
6436  477 mt 6436  505 L
DO
6436 5665 mt 6436  477 L
6436  477 mt 6436  477 L
SO
6479 5665 mt 6479 5636 L
6479  477 mt 6479  505 L
DO
6479 5665 mt 6479  477 L
6479  477 mt 6479  477 L
SO
6479 5665 mt 6479 5608 L
6479  477 mt 6479  533 L
6039 5967 mt 
(10,000) s
6760 5665 mt 6760 5636 L
6760  477 mt 6760  505 L
DO
6760 5665 mt 6760  477 L
6760  477 mt 6760  477 L
SO
6924 5665 mt 6924 5636 L
6924  477 mt 6924  505 L
DO
6924 5665 mt 6924  477 L
6924  477 mt 6924  477 L
SO
1347 5171 mt 1375 5171 L
6960 5171 mt 6931 5171 L
DO
1347 5171 mt 6960 5171 L
6960 5171 mt 6960 5171 L
SO
1347 5215 mt 1375 5215 L
6960 5215 mt 6931 5215 L
DO
1347 5215 mt 6960 5215 L
6960 5215 mt 6960 5215 L
SO
1347 5264 mt 1375 5264 L
6960 5264 mt 6931 5264 L
DO
1347 5264 mt 6960 5264 L
6960 5264 mt 6960 5264 L
SO
1347 5319 mt 1375 5319 L
6960 5319 mt 6931 5319 L
DO
1347 5319 mt 6960 5319 L
6960 5319 mt 6960 5319 L
SO
1347 5383 mt 1375 5383 L
6960 5383 mt 6931 5383 L
DO
1347 5383 mt 6960 5383 L
6960 5383 mt 6960 5383 L
SO
1347 5459 mt 1375 5459 L
6960 5459 mt 6931 5459 L
DO
1347 5459 mt 6960 5459 L
6960 5459 mt 6960 5459 L
SO
1347 5552 mt 1375 5552 L
6960 5552 mt 6931 5552 L
DO
1347 5552 mt 6960 5552 L
6960 5552 mt 6960 5552 L
SO
1347 5171 mt 1403 5171 L
6960 5171 mt 6903 5171 L
 432 5278 mt 
(0.0001) s
1347 4883 mt 1375 4883 L
6960 4883 mt 6931 4883 L
DO
1347 4883 mt 6960 4883 L
6960 4883 mt 6960 4883 L
SO
1347 4714 mt 1375 4714 L
6960 4714 mt 6931 4714 L
DO
1347 4714 mt 6960 4714 L
6960 4714 mt 6960 4714 L
SO
1347 4595 mt 1375 4595 L
6960 4595 mt 6931 4595 L
DO
1347 4595 mt 6960 4595 L
6960 4595 mt 6960 4595 L
SO
1347 4502 mt 1375 4502 L
6960 4502 mt 6931 4502 L
DO
1347 4502 mt 6960 4502 L
6960 4502 mt 6960 4502 L
SO
1347 4426 mt 1375 4426 L
6960 4426 mt 6931 4426 L
DO
1347 4426 mt 6960 4426 L
6960 4426 mt 6960 4426 L
SO
1347 4362 mt 1375 4362 L
6960 4362 mt 6931 4362 L
DO
1347 4362 mt 6960 4362 L
6960 4362 mt 6960 4362 L
SO
1347 4306 mt 1375 4306 L
6960 4306 mt 6931 4306 L
DO
1347 4306 mt 6960 4306 L
6960 4306 mt 6960 4306 L
SO
1347 4257 mt 1375 4257 L
6960 4257 mt 6931 4257 L
DO
1347 4257 mt 6960 4257 L
6960 4257 mt 6960 4257 L
SO
1347 4214 mt 1375 4214 L
6960 4214 mt 6931 4214 L
DO
1347 4214 mt 6960 4214 L
6960 4214 mt 6960 4214 L
SO
1347 4214 mt 1403 4214 L
6960 4214 mt 6903 4214 L
 592 4321 mt 
(0.001) s
1347 3925 mt 1375 3925 L
6960 3925 mt 6931 3925 L
DO
1347 3925 mt 6960 3925 L
6960 3925 mt 6960 3925 L
SO
1347 3757 mt 1375 3757 L
6960 3757 mt 6931 3757 L
DO
1347 3757 mt 6960 3757 L
6960 3757 mt 6960 3757 L
SO
1347 3637 mt 1375 3637 L
6960 3637 mt 6931 3637 L
DO
1347 3637 mt 6960 3637 L
6960 3637 mt 6960 3637 L
SO
1347 3544 mt 1375 3544 L
6960 3544 mt 6931 3544 L
DO
1347 3544 mt 6960 3544 L
6960 3544 mt 6960 3544 L
SO
1347 3468 mt 1375 3468 L
6960 3468 mt 6931 3468 L
DO
1347 3468 mt 6960 3468 L
6960 3468 mt 6960 3468 L
SO
1347 3404 mt 1375 3404 L
6960 3404 mt 6931 3404 L
DO
1347 3404 mt 6960 3404 L
6960 3404 mt 6960 3404 L
SO
1347 3349 mt 1375 3349 L
6960 3349 mt 6931 3349 L
DO
1347 3349 mt 6960 3349 L
6960 3349 mt 6960 3349 L
SO
1347 3300 mt 1375 3300 L
6960 3300 mt 6931 3300 L
DO
1347 3300 mt 6960 3300 L
6960 3300 mt 6960 3300 L
SO
1347 3256 mt 1375 3256 L
6960 3256 mt 6931 3256 L
DO
1347 3256 mt 6960 3256 L
6960 3256 mt 6960 3256 L
SO
1347 3256 mt 1403 3256 L
6960 3256 mt 6903 3256 L
 752 3363 mt 
(0.01) s
1347 2968 mt 1375 2968 L
6960 2968 mt 6931 2968 L
DO
1347 2968 mt 6960 2968 L
6960 2968 mt 6960 2968 L
SO
1347 2799 mt 1375 2799 L
6960 2799 mt 6931 2799 L
DO
1347 2799 mt 6960 2799 L
6960 2799 mt 6960 2799 L
SO
1347 2680 mt 1375 2680 L
6960 2680 mt 6931 2680 L
DO
1347 2680 mt 6960 2680 L
6960 2680 mt 6960 2680 L
SO
1347 2587 mt 1375 2587 L
6960 2587 mt 6931 2587 L
DO
1347 2587 mt 6960 2587 L
6960 2587 mt 6960 2587 L
SO
1347 2511 mt 1375 2511 L
6960 2511 mt 6931 2511 L
DO
1347 2511 mt 6960 2511 L
6960 2511 mt 6960 2511 L
SO
1347 2447 mt 1375 2447 L
6960 2447 mt 6931 2447 L
DO
1347 2447 mt 6960 2447 L
6960 2447 mt 6960 2447 L
SO
1347 2391 mt 1375 2391 L
6960 2391 mt 6931 2391 L
DO
1347 2391 mt 6960 2391 L
6960 2391 mt 6960 2391 L
SO
1347 2342 mt 1375 2342 L
6960 2342 mt 6931 2342 L
DO
1347 2342 mt 6960 2342 L
6960 2342 mt 6960 2342 L
SO
1347 2299 mt 1375 2299 L
6960 2299 mt 6931 2299 L
DO
1347 2299 mt 6960 2299 L
6960 2299 mt 6960 2299 L
SO
1347 2299 mt 1403 2299 L
6960 2299 mt 6903 2299 L
 912 2406 mt 
(0.1) s
1347 2010 mt 1375 2010 L
6960 2010 mt 6931 2010 L
DO
1347 2010 mt 6960 2010 L
6960 2010 mt 6960 2010 L
SO
1347 1842 mt 1375 1842 L
6960 1842 mt 6931 1842 L
DO
1347 1842 mt 6960 1842 L
6960 1842 mt 6960 1842 L
SO
1347 1722 mt 1375 1722 L
6960 1722 mt 6931 1722 L
DO
1347 1722 mt 6960 1722 L
6960 1722 mt 6960 1722 L
SO
1347 1629 mt 1375 1629 L
6960 1629 mt 6931 1629 L
DO
1347 1629 mt 6960 1629 L
6960 1629 mt 6960 1629 L
SO
1347 1554 mt 1375 1554 L
6960 1554 mt 6931 1554 L
DO
1347 1554 mt 6960 1554 L
6960 1554 mt 6960 1554 L
SO
1347 1489 mt 1375 1489 L
6960 1489 mt 6931 1489 L
DO
1347 1489 mt 6960 1489 L
6960 1489 mt 6960 1489 L
SO
1347 1434 mt 1375 1434 L
6960 1434 mt 6931 1434 L
DO
1347 1434 mt 6960 1434 L
6960 1434 mt 6960 1434 L
SO
1347 1385 mt 1375 1385 L
6960 1385 mt 6931 1385 L
DO
1347 1385 mt 6960 1385 L
6960 1385 mt 6960 1385 L
SO
1347 1341 mt 1375 1341 L
6960 1341 mt 6931 1341 L
DO
1347 1341 mt 6960 1341 L
6960 1341 mt 6960 1341 L
SO
1347 1341 mt 1403 1341 L
6960 1341 mt 6903 1341 L
1152 1448 mt 
(1) s
1347 1053 mt 1375 1053 L
6960 1053 mt 6931 1053 L
DO
1347 1053 mt 6960 1053 L
6960 1053 mt 6960 1053 L
SO
1347  884 mt 1375  884 L
6960  884 mt 6931  884 L
DO
1347  884 mt 6960  884 L
6960  884 mt 6960  884 L
SO
1347  765 mt 1375  765 L
6960  765 mt 6931  765 L
DO
1347  765 mt 6960  765 L
6960  765 mt 6960  765 L
SO
1347  672 mt 1375  672 L
6960  672 mt 6931  672 L
DO
1347  672 mt 6960  672 L
6960  672 mt 6960  672 L
SO
1347  596 mt 1375  596 L
6960  596 mt 6931  596 L
DO
1347  596 mt 6960  596 L
6960  596 mt 6960  596 L
SO
1347  532 mt 1375  532 L
6960  532 mt 6931  532 L
DO
1347  532 mt 6960  532 L
6960  532 mt 6960  532 L
SO
1347  477 mt 1375  477 L
6960  477 mt 6931  477 L
DO
1347  477 mt 6960  477 L
6960  477 mt 6960  477 L
SO
1347 5665 mt 6960 5665 L
1347  477 mt 6960  477 L
1347 5665 mt 1347  477 L
6960 5665 mt 6960  477 L
1 sg
0 5189 240 0 0 -5189 7140 5665 4 MP
PP
-240 0 0 5189 240 0 0 -5189 7140 5665 5 MP stroke
gs 7140 476 241 5190 rc
/mwscm { [/Indexed /DeviceRGB 63
  <
    00008f 00009f 0000af 0000bf 0000cf 0000df 0000ef 0000ff 000fff 001fff 
    002fff 003fff 004fff 005fff 006fff 007fff 008fff 009fff 00afff 00bfff 
    00cfff 00dfff 00efff 00ffff 0fffef 1fffdf 2fffcf 3fffbf 4fffaf 5fff9f 
    6fff8f 7fff7f 8fff6f 9fff5f afff4f bfff3f cfff2f dfff1f efff0f ffff00 
    ffef00 ffdf00 ffcf00 ffbf00 ffaf00 ff9f00 ff8f00 ff7f00 ff6f00 ff5f00 
    ff4f00 ff3f00 ff2f00 ff1f00 ff0f00 ff0000 ef0000 df0000 cf0000 bf0000 
    af0000 9f0000 8f0000 7f0000 
  >
] setcolorspace } bdef mwscm
gs np 7140 477 mt 0 5189 rl 240 0 rl 0 -5189 rl cp c np
[240 0 0 5189 7140 477] cc
<< % Image dictionary
  /ImageType 1
  /Width 1 /Height 64
  /BitsPerComponent 8
  /Decode [0 255]
  /ImageMatrix [1.000000 0 0 64.000000 0 0]
  /DataSource currentfile
  /ASCII85Decode filter
  /RunLengthDecode filter
>>
image
5<h=p4?GSa3&``Q1c$mA0J>%1/1W2!-mp>f,U4KV+<MXF*#fe6(`*r&'GD)k&.]6[$k!CK#R:P;"9S]+
!.Y
~>
gr
gr

4 w
DO
SO
6 w
0 sg
7140 5665 mt 7380 5665 L
7140  476 mt 7380  476 L
7140 5665 mt 7140  476 L
7380 5665 mt 7380  476 L
7140 5665 mt 7380 5665 L
7380 5665 mt 7380  476 L
7380 5551 mt 7328 5551 L
7140 5551 mt 7191 5551 L
7414 5658 mt 
(0.945) s
7380 4917 mt 7328 4917 L
7140 4917 mt 7191 4917 L
7414 5024 mt 
(0.95) s
7380 4283 mt 7328 4283 L
7140 4283 mt 7191 4283 L
7414 4390 mt 
(0.955) s
7380 3648 mt 7328 3648 L
7140 3648 mt 7191 3648 L
7414 3755 mt 
(0.96) s
7380 3014 mt 7328 3014 L
7140 3014 mt 7191 3014 L
7414 3121 mt 
(0.965) s
7380 2380 mt 7328 2380 L
7140 2380 mt 7191 2380 L
7414 2487 mt 
(0.97) s
7380 1745 mt 7328 1745 L
7140 1745 mt 7191 1745 L
7414 1852 mt 
(0.975) s
7380 1111 mt 7328 1111 L
7140 1111 mt 7191 1111 L
7414 1218 mt 
(0.98) s
7380  476 mt 7328  476 L
7140  476 mt 7191  476 L
7414  583 mt 
(0.985) s
7140 5665 mt 7380 5665 L
7140  476 mt 7380  476 L
7140 5665 mt 7140  476 L
7380 5665 mt 7380  476 L

end %%Color Dict

eplot
%%EndObject

epage
end

showpage

%%Trailer
%%EOF
