%!PS-Adobe-3.0 EPSF-3.0
%%Creator: MATLAB, The Mathworks, Inc. Version 7.10.0.499 (R2010a). Operating System: Microsoft Windows Server 2008 R2.
%%Title: D:\work\sre\results\hse\models\cmp-thesis\pr-graph.eps
%%CreationDate: 07/01/2012  12:26:12
%%DocumentNeededFonts: Helvetica
%%+ Times-Roman
%%DocumentProcessColors: Cyan Magenta Yellow Black
%%LanguageLevel: 2
%%Pages: 1
%%BoundingBox:   -91   126   703   665
%%EndComments

%%BeginProlog
% MathWorks dictionary
/MathWorks 160 dict begin
% definition operators
/bdef {bind def} bind def
/ldef {load def} bind def
/xdef {exch def} bdef
/xstore {exch store} bdef
% operator abbreviations
/c  /clip ldef
/cc /concat ldef
/cp /closepath ldef
/gr /grestore ldef
/gs /gsave ldef
/mt /moveto ldef
/np /newpath ldef
/cm /currentmatrix ldef
/sm /setmatrix ldef
/rm /rmoveto ldef
/rl /rlineto ldef
/s {show newpath} bdef
/sc {setcmykcolor} bdef
/sr /setrgbcolor ldef
/sg /setgray ldef
/w /setlinewidth ldef
/j /setlinejoin ldef
/cap /setlinecap ldef
/rc {rectclip} bdef
/rf {rectfill} bdef
% page state control
/pgsv () def
/bpage {/pgsv save def} bdef
/epage {pgsv restore} bdef
/bplot /gsave ldef
/eplot {stroke grestore} bdef
% orientation switch
/portraitMode 0 def /landscapeMode 1 def /rotateMode 2 def
% coordinate system mappings
/dpi2point 0 def
% font control
/FontSize 0 def
/FMS {/FontSize xstore findfont [FontSize 0 0 FontSize neg 0 0]
  makefont setfont} bdef
/ISOLatin1Encoding where {pop /WindowsLatin1Encoding 256 array bdef
ISOLatin1Encoding WindowsLatin1Encoding copy pop
/.notdef/.notdef/quotesinglbase/florin/quotedblbase/ellipsis/dagger
/daggerdbl/circumflex/perthousand/Scaron/guilsinglleft/OE/.notdef/.notdef
/.notdef/.notdef/quoteleft/quoteright/quotedblleft/quotedblright/bullet
/endash/emdash/tilde/trademark/scaron/guilsinglright/oe/.notdef/.notdef
/Ydieresis WindowsLatin1Encoding 128 32 getinterval astore pop}
{/WindowsLatin1Encoding StandardEncoding bdef} ifelse
/reencode {exch dup where {pop load} {pop StandardEncoding} ifelse
  exch dup 3 1 roll findfont dup length dict begin
  { 1 index /FID ne {def}{pop pop} ifelse } forall
  /Encoding exch def currentdict end definefont pop} bdef
/isroman {findfont /CharStrings get /Agrave known} bdef
/FMSR {3 1 roll 1 index dup isroman {reencode} {pop pop} ifelse
  exch FMS} bdef
/csm {1 dpi2point div -1 dpi2point div scale neg translate
 dup landscapeMode eq {pop -90 rotate}
  {rotateMode eq {90 rotate} if} ifelse} bdef
% line types: solid, dotted, dashed, dotdash
/SO { [] 0 setdash } bdef
/DO { [.5 dpi2point mul 4 dpi2point mul] 0 setdash } bdef
/DA { [6 dpi2point mul] 0 setdash } bdef
/DD { [.5 dpi2point mul 4 dpi2point mul 6 dpi2point mul 4
  dpi2point mul] 0 setdash } bdef
% macros for lines and objects
/L {lineto stroke} bdef
/MP {3 1 roll moveto 1 sub {rlineto} repeat} bdef
/AP {{rlineto} repeat} bdef
/PDlw -1 def
/W {/PDlw currentlinewidth def setlinewidth} def
/PP {closepath eofill} bdef
/DP {closepath stroke} bdef
/MR {4 -2 roll moveto dup  0 exch rlineto exch 0 rlineto
  neg 0 exch rlineto closepath} bdef
/FR {MR stroke} bdef
/PR {MR fill} bdef
/L1i {{currentfile picstr readhexstring pop} image} bdef
/tMatrix matrix def
/MakeOval {newpath tMatrix currentmatrix pop translate scale
0 0 1 0 360 arc tMatrix setmatrix} bdef
/FO {MakeOval stroke} bdef
/PO {MakeOval fill} bdef
/PD {currentlinewidth 2 div 0 360 arc fill
   PDlw -1 eq not {PDlw w /PDlw -1 def} if} def
/FA {newpath tMatrix currentmatrix pop translate scale
  0 0 1 5 -2 roll arc tMatrix setmatrix stroke} bdef
/PA {newpath tMatrix currentmatrix pop	translate 0 0 moveto scale
  0 0 1 5 -2 roll arc closepath tMatrix setmatrix fill} bdef
/FAn {newpath tMatrix currentmatrix pop translate scale
  0 0 1 5 -2 roll arcn tMatrix setmatrix stroke} bdef
/PAn {newpath tMatrix currentmatrix pop translate 0 0 moveto scale
  0 0 1 5 -2 roll arcn closepath tMatrix setmatrix fill} bdef
/vradius 0 def /hradius 0 def /lry 0 def
/lrx 0 def /uly 0 def /ulx 0 def /rad 0 def
/MRR {/vradius xdef /hradius xdef /lry xdef /lrx xdef /uly xdef
  /ulx xdef newpath tMatrix currentmatrix pop ulx hradius add uly
  vradius add translate hradius vradius scale 0 0 1 180 270 arc 
  tMatrix setmatrix lrx hradius sub uly vradius add translate
  hradius vradius scale 0 0 1 270 360 arc tMatrix setmatrix
  lrx hradius sub lry vradius sub translate hradius vradius scale
  0 0 1 0 90 arc tMatrix setmatrix ulx hradius add lry vradius sub
  translate hradius vradius scale 0 0 1 90 180 arc tMatrix setmatrix
  closepath} bdef
/FRR {MRR stroke } bdef
/PRR {MRR fill } bdef
/MlrRR {/lry xdef /lrx xdef /uly xdef /ulx xdef /rad lry uly sub 2 div def
  newpath tMatrix currentmatrix pop ulx rad add uly rad add translate
  rad rad scale 0 0 1 90 270 arc tMatrix setmatrix lrx rad sub lry rad
  sub translate rad rad scale 0 0 1 270 90 arc tMatrix setmatrix
  closepath} bdef
/FlrRR {MlrRR stroke } bdef
/PlrRR {MlrRR fill } bdef
/MtbRR {/lry xdef /lrx xdef /uly xdef /ulx xdef /rad lrx ulx sub 2 div def
  newpath tMatrix currentmatrix pop ulx rad add uly rad add translate
  rad rad scale 0 0 1 180 360 arc tMatrix setmatrix lrx rad sub lry rad
  sub translate rad rad scale 0 0 1 0 180 arc tMatrix setmatrix
  closepath} bdef
/FtbRR {MtbRR stroke } bdef
/PtbRR {MtbRR fill } bdef
/stri 6 array def /dtri 6 array def
/smat 6 array def /dmat 6 array def
/tmat1 6 array def /tmat2 6 array def /dif 3 array def
/asub {/ind2 exch def /ind1 exch def dup dup
  ind1 get exch ind2 get sub exch } bdef
/tri_to_matrix {
  2 0 asub 3 1 asub 4 0 asub 5 1 asub
  dup 0 get exch 1 get 7 -1 roll astore } bdef
/compute_transform {
  dmat dtri tri_to_matrix tmat1 invertmatrix 
  smat stri tri_to_matrix tmat2 concatmatrix } bdef
/ds {stri astore pop} bdef
/dt {dtri astore pop} bdef
/db {2 copy /cols xdef /rows xdef mul dup 3 mul string
  currentfile 
  3 index 0 eq {/ASCIIHexDecode filter}
  {/ASCII85Decode filter 3 index 2 eq {/RunLengthDecode filter} if }
  ifelse exch readstring pop
  dup 0 3 index getinterval /rbmap xdef
  dup 2 index dup getinterval /gbmap xdef
  1 index dup 2 mul exch getinterval /bbmap xdef pop pop}bdef
/it {gs np dtri aload pop moveto lineto lineto cp c
  cols rows 8 compute_transform 
  rbmap gbmap bbmap true 3 colorimage gr}bdef
/il {newpath moveto lineto stroke}bdef
currentdict end def
%%EndProlog

%%BeginSetup
MathWorks begin

0 cap

end
%%EndSetup

%%Page: 1 1
%%BeginPageSetup
%%PageBoundingBox:   -91   126   703   665
MathWorks begin
bpage
%%EndPageSetup

%%BeginObject: obj1
bplot

/dpi2point 12 def
portraitMode -1092 7980 csm

    0     0  9532  6465 rc
85 dict begin %Colortable dictionary
/c0 { 0.000000 0.000000 0.000000 sr} bdef
/c1 { 1.000000 1.000000 1.000000 sr} bdef
/c2 { 0.900000 0.000000 0.000000 sr} bdef
/c3 { 0.000000 0.820000 0.000000 sr} bdef
/c4 { 0.000000 0.000000 0.800000 sr} bdef
/c5 { 0.910000 0.820000 0.320000 sr} bdef
/c6 { 1.000000 0.260000 0.820000 sr} bdef
/c7 { 0.000000 0.820000 0.820000 sr} bdef
c0
1 j
1 sg
   0    0 9533 6466 rf
6 w
0 5245 7387 0 0 -5245 1239 5730 4 MP
PP
-7387 0 0 5245 7387 0 0 -5245 1239 5730 5 MP stroke
4 w
DO
0 sg
1239 5730 mt 1239  485 L
1239  485 mt 1239  485 L
2716 5730 mt 2716  485 L
2716  485 mt 2716  485 L
4193 5730 mt 4193  485 L
4193  485 mt 4193  485 L
5671 5730 mt 5671  485 L
5671  485 mt 5671  485 L
7148 5730 mt 7148  485 L
7148  485 mt 7148  485 L
8626 5730 mt 8626  485 L
8626  485 mt 8626  485 L
1239 5730 mt 8626 5730 L
8626 5730 mt 8626 5730 L
1239 4681 mt 8626 4681 L
8626 4681 mt 8626 4681 L
1239 3632 mt 8626 3632 L
8626 3632 mt 8626 3632 L
1239 2582 mt 8626 2582 L
8626 2582 mt 8626 2582 L
1239 1534 mt 8626 1534 L
8626 1534 mt 8626 1534 L
1239  485 mt 8626  485 L
8626  485 mt 8626  485 L
SO
6 w
1239 5730 mt 8626 5730 L
1239 5730 mt 1239  485 L
1239 5730 mt 1239 5656 L
%%IncludeResource: font Times-Roman
/Times-Roman /WindowsLatin1Encoding 360 FMSR

1149 6087 mt 
(0) s
2716 5730 mt 2716 5656 L
2491 6087 mt 
(0.2) s
4193 5730 mt 4193 5656 L
3968 6087 mt 
(0.4) s
5671 5730 mt 5671 5656 L
5446 6087 mt 
(0.6) s
7148 5730 mt 7148 5656 L
6923 6087 mt 
(0.8) s
8626 5730 mt 8626 5656 L
8536 6087 mt 
(1) s
1239 5730 mt 1312 5730 L
 754 5859 mt 
(0.5) s
1239 4681 mt 1312 4681 L
 754 4810 mt 
(0.6) s
1239 3632 mt 1312 3632 L
 754 3761 mt 
(0.7) s
1239 2582 mt 1312 2582 L
 754 2711 mt 
(0.8) s
1239 1534 mt 1312 1534 L
 754 1663 mt 
(0.9) s
1239  485 mt 1312  485 L
1024  614 mt 
(1) s
gs 1239 485 7388 5246 rc
DA
48 w
/c8 { 1.000000 0.000000 0.000000 sr} bdef
c8
77 -1 71 1 79 -6 75 0 78 -6 64 10 77 -1 69 3 
72 1 72 3 75 0 66 6 76 -3 81 -7 79 -3 71 2 
76 -2 67 5 80 -4 74 0 73 0 77 -4 82 -5 65 -1 
88 -7 79 -5 61 11 69 6 68 3 75 4 73 0 78 -4 
75 -1 70 2 74 0 81 -9 77 -3 73 1 67 7 71 5 
83 -12 72 0 71 6 71 -1 77 0 75 -1 73 0 70 6 
53 13 84 4 71 7 75 -5 72 4 70 7 75 -1 73 3 
71 4 82 -12 77 -6 74 -3 75 0 76 -3 67 16 68 9 
76 -7 80 -8 78 -9 73 -2 78 -7 83 -23 75 1 71 0 
70 10 68 -5 80 1 70 21 71 6 77 -13 76 -8 74 5 
73 -1 75 -4 66 34 70 13 76 4 75 -10 77 -19 72 15 
72 5 77 -11 74 5 76 -16 71 73 72 -35 78 14 68 118 
72 36 80 -40 18 108 1297 4995 100 MP stroke
SO
/c9 { 0.000000 0.000000 1.000000 sr} bdef
c9
1 60 3 55 4 57 2 61 4 58 4 65 4 64 5 63 
5 63 5 69 4 69 7 67 7 69 12 66 14 67 7 74 
10 73 14 71 11 77 16 74 13 77 21 70 20 79 18 65 
25 86 23 78 23 76 29 78 35 66 25 92 29 82 30 82 
38 79 31 84 41 78 38 85 45 79 46 83 47 78 52 77 
47 88 57 74 62 75 60 71 68 75 73 66 61 80 83 56 
70 47 87 84 88 56 89 51 85 62 96 50 98 47 104 40 
96 51 106 39 103 48 102 42 111 37 111 40 110 43 109 33 
117 27 125 20 115 37 115 34 118 39 126 19 128 18 119 25 
128 14 110 27 141 16 132 17 127 16 127 20 133 12 133 9 
129 15 132 14 133 6 130 6 137 11 133 3 134 3 134 7 
130 17 138 8 136 -1 135 11 140 0 127 2 142 12 131 19 
130 0 141 0 35 0 1341 485 100 MP stroke
gr

48 w
c9
0 sg
4471 6385 mt 
(Recall) s
 621 3778 mt  -90 rotate
(Precision) s
90 rotate
%%IncludeResource: font Helvetica
/Helvetica /WindowsLatin1Encoding 120 FMSR

1222 5773 mt 
( ) s
8610  527 mt 
( ) s
6 w
1 sg
0 918 3956 0 0 -918 1376 2860 4 MP
PP
-3956 0 0 918 3956 0 0 -918 1376 2860 5 MP stroke
4 w
DO
SO
6 w
0 sg
1376 1942 mt 5332 1942 L
1376 2860 mt 5332 2860 L
5332 2860 mt 5332 1942 L
1376 2860 mt 1376 1942 L
1376 2860 mt 5332 2860 L
1376 2860 mt 1376 1942 L
1376 1942 mt 5332 1942 L
1376 2860 mt 5332 2860 L
5332 2860 mt 5332 1942 L
1376 2860 mt 1376 1942 L
%%IncludeResource: font Times-Roman
/Times-Roman /WindowsLatin1Encoding 360 FMSR

1882 2305 mt 
(A Random Measure) s
gs 1376 1942 3957 919 rc
DA
48 w
c8
389 0 1453 2182 2 MP stroke
SO
gr

48 w
c8
0 sg
1882 2744 mt 
(A Similarity Measure) s
gs 1376 1942 3957 919 rc
c9
389 0 1453 2620 2 MP stroke
6 w
gr

6 w
c9

end %%Color Dict

eplot
%%EndObject

epage
end

showpage

%%Trailer
%%EOF
