%!PS-Adobe-3.0 EPSF-3.0
%%Creator: MATLAB, The MathWorks, Inc. Version 7.14.0.739 (R2012a). Operating System: Linux 3.5.0-17-generic #28-Ubuntu SMP Tue Oct 9 19:31:23 UTC 2012 x86_64.
%%Title: /home/sasha/work/research/phd/thesis/figures/mc-correlations.eps
%%CreationDate: 10/28/2012  16:30:43
%%DocumentNeededFonts: Helvetica
%%+ Times-Roman
%%DocumentProcessColors: Cyan Magenta Yellow Black
%%LanguageLevel: 2
%%Pages: 1
%%BoundingBox:  -180    25   792   765
%%EndComments

%%BeginProlog
% MathWorks dictionary
/MathWorks 160 dict begin
% definition operators
/bdef {bind def} bind def
/ldef {load def} bind def
/xdef {exch def} bdef
/xstore {exch store} bdef
% operator abbreviations
/c  /clip ldef
/cc /concat ldef
/cp /closepath ldef
/gr /grestore ldef
/gs /gsave ldef
/mt /moveto ldef
/np /newpath ldef
/cm /currentmatrix ldef
/sm /setmatrix ldef
/rm /rmoveto ldef
/rl /rlineto ldef
/s {show newpath} bdef
/sc {setcmykcolor} bdef
/sr /setrgbcolor ldef
/sg /setgray ldef
/w /setlinewidth ldef
/j /setlinejoin ldef
/cap /setlinecap ldef
/rc {rectclip} bdef
/rf {rectfill} bdef
% page state control
/pgsv () def
/bpage {/pgsv save def} bdef
/epage {pgsv restore} bdef
/bplot /gsave ldef
/eplot {stroke grestore} bdef
% orientation switch
/portraitMode 0 def /landscapeMode 1 def /rotateMode 2 def
% coordinate system mappings
/dpi2point 0 def
% font control
/FontSize 0 def
/FMS {/FontSize xstore findfont [FontSize 0 0 FontSize neg 0 0]
  makefont setfont} bdef
/reencode {exch dup where {pop load} {pop StandardEncoding} ifelse
  exch dup 3 1 roll findfont dup length dict begin
  { 1 index /FID ne {def}{pop pop} ifelse } forall
  /Encoding exch def currentdict end definefont pop} bdef
/isroman {findfont /CharStrings get /Agrave known} bdef
/FMSR {3 1 roll 1 index dup isroman {reencode} {pop pop} ifelse
  exch FMS} bdef
/csm {1 dpi2point div -1 dpi2point div scale neg translate
 dup landscapeMode eq {pop -90 rotate}
  {rotateMode eq {90 rotate} if} ifelse} bdef
% line types: solid, dotted, dashed, dotdash
/SO { [] 0 setdash } bdef
/DO { [.5 dpi2point mul 4 dpi2point mul] 0 setdash } bdef
/DA { [6 dpi2point mul] 0 setdash } bdef
/DD { [.5 dpi2point mul 4 dpi2point mul 6 dpi2point mul 4
  dpi2point mul] 0 setdash } bdef
% macros for lines and objects
/L {lineto stroke} bdef
/MP {3 1 roll moveto 1 sub {rlineto} repeat} bdef
/AP {{rlineto} repeat} bdef
/PDlw -1 def
/W {/PDlw currentlinewidth def setlinewidth} def
/PP {closepath eofill} bdef
/DP {closepath stroke} bdef
/MR {4 -2 roll moveto dup  0 exch rlineto exch 0 rlineto
  neg 0 exch rlineto closepath} bdef
/FR {MR stroke} bdef
/PR {MR fill} bdef
/L1i {{currentfile picstr readhexstring pop} image} bdef
/tMatrix matrix def
/MakeOval {newpath tMatrix currentmatrix pop translate scale
0 0 1 0 360 arc tMatrix setmatrix} bdef
/FO {MakeOval stroke} bdef
/PO {MakeOval fill} bdef
/PD {currentlinewidth 2 div 0 360 arc fill
   PDlw -1 eq not {PDlw w /PDlw -1 def} if} def
/FA {newpath tMatrix currentmatrix pop translate scale
  0 0 1 5 -2 roll arc tMatrix setmatrix stroke} bdef
/PA {newpath tMatrix currentmatrix pop	translate 0 0 moveto scale
  0 0 1 5 -2 roll arc closepath tMatrix setmatrix fill} bdef
/FAn {newpath tMatrix currentmatrix pop translate scale
  0 0 1 5 -2 roll arcn tMatrix setmatrix stroke} bdef
/PAn {newpath tMatrix currentmatrix pop translate 0 0 moveto scale
  0 0 1 5 -2 roll arcn closepath tMatrix setmatrix fill} bdef
/vradius 0 def /hradius 0 def /lry 0 def
/lrx 0 def /uly 0 def /ulx 0 def /rad 0 def
/MRR {/vradius xdef /hradius xdef /lry xdef /lrx xdef /uly xdef
  /ulx xdef newpath tMatrix currentmatrix pop ulx hradius add uly
  vradius add translate hradius vradius scale 0 0 1 180 270 arc 
  tMatrix setmatrix lrx hradius sub uly vradius add translate
  hradius vradius scale 0 0 1 270 360 arc tMatrix setmatrix
  lrx hradius sub lry vradius sub translate hradius vradius scale
  0 0 1 0 90 arc tMatrix setmatrix ulx hradius add lry vradius sub
  translate hradius vradius scale 0 0 1 90 180 arc tMatrix setmatrix
  closepath} bdef
/FRR {MRR stroke } bdef
/PRR {MRR fill } bdef
/MlrRR {/lry xdef /lrx xdef /uly xdef /ulx xdef /rad lry uly sub 2 div def
  newpath tMatrix currentmatrix pop ulx rad add uly rad add translate
  rad rad scale 0 0 1 90 270 arc tMatrix setmatrix lrx rad sub lry rad
  sub translate rad rad scale 0 0 1 270 90 arc tMatrix setmatrix
  closepath} bdef
/FlrRR {MlrRR stroke } bdef
/PlrRR {MlrRR fill } bdef
/MtbRR {/lry xdef /lrx xdef /uly xdef /ulx xdef /rad lrx ulx sub 2 div def
  newpath tMatrix currentmatrix pop ulx rad add uly rad add translate
  rad rad scale 0 0 1 180 360 arc tMatrix setmatrix lrx rad sub lry rad
  sub translate rad rad scale 0 0 1 0 180 arc tMatrix setmatrix
  closepath} bdef
/FtbRR {MtbRR stroke } bdef
/PtbRR {MtbRR fill } bdef
/stri 6 array def /dtri 6 array def
/smat 6 array def /dmat 6 array def
/tmat1 6 array def /tmat2 6 array def /dif 3 array def
/asub {/ind2 exch def /ind1 exch def dup dup
  ind1 get exch ind2 get sub exch } bdef
/tri_to_matrix {
  2 0 asub 3 1 asub 4 0 asub 5 1 asub
  dup 0 get exch 1 get 7 -1 roll astore } bdef
/compute_transform {
  dmat dtri tri_to_matrix tmat1 invertmatrix 
  smat stri tri_to_matrix tmat2 concatmatrix } bdef
/ds {stri astore pop} bdef
/dt {dtri astore pop} bdef
/db {2 copy /cols xdef /rows xdef mul dup 3 mul string
  currentfile 
  3 index 0 eq {/ASCIIHexDecode filter}
  {/ASCII85Decode filter 3 index 2 eq {/RunLengthDecode filter} if }
  ifelse exch readstring pop
  dup 0 3 index getinterval /rbmap xdef
  dup 2 index dup getinterval /gbmap xdef
  1 index dup 2 mul exch getinterval /bbmap xdef pop pop}bdef
/it {gs np dtri aload pop moveto lineto lineto cp c
  cols rows 8 compute_transform 
  rbmap gbmap bbmap true 3 colorimage gr}bdef
/il {newpath moveto lineto stroke}bdef
currentdict end def
%%EndProlog

%%BeginSetup
MathWorks begin

0 cap

end
%%EndSetup

%%Page: 1 1
%%BeginPageSetup
%%PageBoundingBox:  -180    25   792   765
MathWorks begin
bpage
%%EndPageSetup

%%BeginObject: obj1
bplot

/dpi2point 12 def
portraitMode -2160 9180 csm

    0     0 11664  8871 rc
86 dict begin %Colortable dictionary
/c0 { 0.000000 0.000000 0.000000 sr} bdef
/c1 { 1.000000 1.000000 1.000000 sr} bdef
/c2 { 0.900000 0.000000 0.000000 sr} bdef
/c3 { 0.000000 0.820000 0.000000 sr} bdef
/c4 { 0.000000 0.000000 0.800000 sr} bdef
/c5 { 0.910000 0.820000 0.320000 sr} bdef
/c6 { 1.000000 0.260000 0.820000 sr} bdef
/c7 { 0.000000 0.820000 0.820000 sr} bdef
c0
1 j
1 sg
   0    0 11665 8872 rf
6 w
0 7229 9039 0 0 -7229 1459 8154 4 MP
PP
-9039 0 0 7229 9039 0 0 -7229 1459 8154 5 MP stroke
4 w
DO
SO
6 w
0 sg
1459 8154 mt 10498 8154 L
1459  925 mt 10498  925 L
1459 8154 mt 1459  925 L
10498 8154 mt 10498  925 L
1459 8154 mt 10498 8154 L
1459 8154 mt 1459  925 L
1459 8154 mt 1459 8063 L
1459  925 mt 1459 1015 L
%%IncludeResource: font Times-Roman
/Times-Roman /ISOLatin1Encoding 360 FMSR

1369 8511 mt 
(0) s
2965 8154 mt 2965 8063 L
2965  925 mt 2965 1015 L
2875 8511 mt 
(5) s
4472 8154 mt 4472 8063 L
4472  925 mt 4472 1015 L
4292 8511 mt 
(10) s
5978 8154 mt 5978 8063 L
5978  925 mt 5978 1015 L
5798 8511 mt 
(15) s
7485 8154 mt 7485 8063 L
7485  925 mt 7485 1015 L
7305 8511 mt 
(20) s
8991 8154 mt 8991 8063 L
8991  925 mt 8991 1015 L
8811 8511 mt 
(25) s
10498 8154 mt 10498 8063 L
10498  925 mt 10498 1015 L
10318 8511 mt 
(30) s
1459 8154 mt 1549 8154 L
10498 8154 mt 10407 8154 L
1244 8283 mt 
(0) s
1459 6949 mt 1549 6949 L
10498 6949 mt 10407 6949 L
1244 7078 mt 
(5) s
1459 5744 mt 1549 5744 L
10498 5744 mt 10407 5744 L
1064 5873 mt 
(10) s
1459 4539 mt 1549 4539 L
10498 4539 mt 10407 4539 L
1064 4668 mt 
(15) s
1459 3334 mt 1549 3334 L
10498 3334 mt 10407 3334 L
1064 3463 mt 
(20) s
1459 2129 mt 1549 2129 L
10498 2129 mt 10407 2129 L
1064 2258 mt 
(25) s
1459  925 mt 1549  925 L
10498  925 mt 10407  925 L
1064 1054 mt 
(30) s
1459 8154 mt 10498 8154 L
1459  925 mt 10498  925 L
1459 8154 mt 1459  925 L
10498 8154 mt 10498  925 L
gs 1459 925 9040 7230 rc
72 w
0.8 sg
302 -240 301 -241 301 -241 302 -241 301 -241 301 -241 302 -241 301 -241 
301 -241 301 -241 302 -241 301 -241 301 -241 302 -241 301 -241 301 -241 
302 -241 301 -241 301 -241 301 -241 302 -241 301 -241 301 -241 302 -241 
301 -241 301 -241 302 -241 301 -241 301 -241 1760 7913 30 MP stroke
48 w
gr

48 w
0.8 sg
gs 1530 695 9199 7449 rc
0 j
0 -142 -142 0 0 142 142 0 1689 7842 5 MP
1 sg
gs
PP
gr
0 sg
DP
0 -142 -142 0 0 142 142 0 1990 6155 5 MP
1 sg
gs
PP
gr
0 sg
DP
0 -142 -142 0 0 142 142 0 2291 7360 5 MP
1 sg
gs
PP
gr
0 sg
DP
0 -142 -142 0 0 142 142 0 2593 7601 5 MP
1 sg
gs
PP
gr
0 sg
DP
0 -142 -142 0 0 142 142 0 2894 6396 5 MP
1 sg
gs
PP
gr
0 sg
DP
0 -142 -142 0 0 142 142 0 3195 6878 5 MP
1 sg
gs
PP
gr
0 sg
DP
0 -142 -142 0 0 142 142 0 3497 7119 5 MP
1 sg
gs
PP
gr
0 sg
DP
0 -142 -142 0 0 142 142 0 3798 5673 5 MP
1 sg
gs
PP
gr
0 sg
DP
0 -142 -142 0 0 142 142 0 4099 5914 5 MP
1 sg
gs
PP
gr
0 sg
DP
0 -142 -142 0 0 142 142 0 4401 4950 5 MP
1 sg
gs
PP
gr
0 sg
DP
0 -142 -142 0 0 142 142 0 4702 4227 5 MP
1 sg
gs
PP
gr
0 sg
DP
0 -142 -142 0 0 142 142 0 5003 5191 5 MP
1 sg
gs
PP
gr
0 sg
DP
0 -142 -142 0 0 142 142 0 5304 6637 5 MP
1 sg
gs
PP
gr
0 sg
DP
0 -142 -142 0 0 142 142 0 5606 3022 5 MP
1 sg
gs
PP
gr
0 sg
DP
0 -142 -142 0 0 142 142 0 5907 4709 5 MP
1 sg
gs
PP
gr
0 sg
DP
0 -142 -142 0 0 142 142 0 6208 5432 5 MP
1 sg
gs
PP
gr
0 sg
DP
0 -142 -142 0 0 142 142 0 6510 2058 5 MP
1 sg
gs
PP
gr
0 sg
DP
0 -142 -142 0 0 142 142 0 6811 3986 5 MP
1 sg
gs
PP
gr
0 sg
DP
0 -142 -142 0 0 142 142 0 7112 2299 5 MP
1 sg
gs
PP
gr
0 sg
DP
0 -142 -142 0 0 142 142 0 7414 1817 5 MP
1 sg
gs
PP
gr
0 sg
DP
0 -142 -142 0 0 142 142 0 7715 1335 5 MP
1 sg
gs
PP
gr
0 sg
DP
0 -142 -142 0 0 142 142 0 8016 2540 5 MP
1 sg
gs
PP
gr
0 sg
DP
0 -142 -142 0 0 142 142 0 8317 2781 5 MP
1 sg
gs
PP
gr
0 sg
DP
0 -142 -142 0 0 142 142 0 8619 3745 5 MP
1 sg
gs
PP
gr
0 sg
DP
0 -142 -142 0 0 142 142 0 8920 3504 5 MP
1 sg
gs
PP
gr
0 sg
DP
0 -142 -142 0 0 142 142 0 9221 3263 5 MP
1 sg
gs
PP
gr
0 sg
DP
0 -142 -142 0 0 142 142 0 9523 1094 5 MP
1 sg
gs
PP
gr
0 sg
DP
0 -142 -142 0 0 142 142 0 9824 1576 5 MP
1 sg
gs
PP
gr
0 sg
DP
0 -142 -142 0 0 142 142 0 10125 4468 5 MP
1 sg
gs
PP
gr
0 sg
DP
0 -142 -142 0 0 142 142 0 10427 854 5 MP
1 sg
gs
PP
gr
0 sg
DP
gr

0 sg
gs 1459 925 9040 7230 rc
gr

gs 1470 875 9319 7329 rc
1640 7190 mt 1880 7190 L
1760 7070 mt 1760 7310 L
1941 1165 mt 2181 1165 L
2061 1045 mt 2061 1285 L
2242 7913 mt 2482 7913 L
2362 7793 mt 2362 8033 L
2544 2370 mt 2784 2370 L
2664 2250 mt 2664 2490 L
2845 2129 mt 3085 2129 L
2965 2009 mt 2965 2249 L
3146 1647 mt 3386 1647 L
3266 1527 mt 3266 1767 L
3448 7431 mt 3688 7431 L
3568 7311 mt 3568 7551 L
3749 5262 mt 3989 5262 L
3869 5142 mt 3869 5382 L
4050 6226 mt 4290 6226 L
4170 6106 mt 4170 6346 L
4352 2129 mt 4592 2129 L
4472 2009 mt 4472 2249 L
4653 5021 mt 4893 5021 L
4773 4901 mt 4773 5141 L
4954 1406 mt 5194 1406 L
5074 1286 mt 5074 1526 L
5255 6708 mt 5495 6708 L
5375 6588 mt 5375 6828 L
5557 6226 mt 5797 6226 L
5677 6106 mt 5677 6346 L
5858 6949 mt 6098 6949 L
5978 6829 mt 5978 7069 L
6159 6949 mt 6399 6949 L
6279 6829 mt 6279 7069 L
6461 1647 mt 6701 1647 L
6581 1527 mt 6581 1767 L
6762 3816 mt 7002 3816 L
6882 3696 mt 6882 3936 L
7063 4057 mt 7303 4057 L
7183 3937 mt 7183 4177 L
7365 6949 mt 7605 6949 L
7485 6829 mt 7485 7069 L
7666 1888 mt 7906 1888 L
7786 1768 mt 7786 2008 L
7967 3575 mt 8207 3575 L
8087 3455 mt 8087 3695 L
8268 5503 mt 8508 5503 L
8388 5383 mt 8388 5623 L
8570 4298 mt 8810 4298 L
8690 4178 mt 8690 4418 L
8871 5021 mt 9111 5021 L
8991 4901 mt 8991 5141 L
9172 7431 mt 9412 7431 L
9292 7311 mt 9292 7551 L
9474 6226 mt 9714 6226 L
9594 6106 mt 9594 6346 L
9775 7190 mt 10015 7190 L
9895 7070 mt 9895 7310 L
10076 6708 mt 10316 6708 L
10196 6588 mt 10196 6828 L
10378 6226 mt 10618 6226 L
10498 6106 mt 10498 6346 L
gr

gs 1459 925 9040 7230 rc
gr

5249 8809 mt 
(Word Pair) s
 931 6007 mt  -90 rotate
(Rank of a Word Pair) s
90 rotate
%%IncludeResource: font Helvetica
/Helvetica /ISOLatin1Encoding 120 FMSR

1442 8197 mt 
( ) s
10482  967 mt 
( ) s
6 w
1 sg
0 1587 4411 0 0 -1587 1723 4113 4 MP
PP
-4411 0 0 1587 4411 0 0 -1587 1723 4113 5 MP stroke
4 w
DO
SO
6 w
0 sg
1723 4113 mt 6134 4113 L
1723 2526 mt 6134 2526 L
1723 4113 mt 1723 2526 L
6134 4113 mt 6134 2526 L
1723 4113 mt 6134 4113 L
1723 4113 mt 1723 2526 L
1723 4113 mt 6134 4113 L
1723 2526 mt 6134 2526 L
1723 4113 mt 1723 2526 L
6134 4113 mt 6134 2526 L
%%IncludeResource: font Times-Roman
/Times-Roman /ISOLatin1Encoding 360 FMSR

2300 2928 mt 
(MC Word Pairs ) s
gs 1723 2526 4412 1588 rc
72 w
0.8 sg
444 0 1811 2804 2 MP stroke
gr

72 w
0.8 sg
0 sg
2300 3443 mt 
(A Similarity Measure) s
gs 1723 2526 4412 1588 rc
48 w
gs 1803 3089 461 461 rc
0 j
0 -142 -142 0 0 142 142 0 1962 3248 5 MP
1 sg
gs
PP
gr
0 sg
DP
gr

gr

48 w
2300 3958 mt 
(Random) s
gs 1723 2526 4412 1588 rc
gr

gs 1743 3544 581 581 rc
1913 3834 mt 2153 3834 L
2033 3714 mt 2033 3954 L
gr

gs 1723 2526 4412 1588 rc
6 w
gr

6 w

end %%Color Dict

eplot
%%EndObject

epage
end

showpage

%%Trailer
%%EOF
