%!PS-Adobe-3.0 EPSF-3.0
%%Creator: MATLAB, The MathWorks, Inc. Version 7.14.0.739 (R2012a). Operating System: Linux 3.5.0-19-generic #30-Ubuntu SMP Tue Nov 13 17:48:01 UTC 2012 x86_64.
%%Title: /home/sasha/Desktop/tmp/pr-graph-thesis.eps
%%CreationDate: 12/14/2012  19:41:05
%%DocumentNeededFonts: Helvetica
%%+ Helvetica-Bold
%%DocumentProcessColors: Cyan Magenta Yellow Black
%%LanguageLevel: 2
%%Pages: 1
%%BoundingBox:  -436   -44  1048   836
%%EndComments

%%BeginProlog
% MathWorks dictionary
/MathWorks 160 dict begin
% definition operators
/bdef {bind def} bind def
/ldef {load def} bind def
/xdef {exch def} bdef
/xstore {exch store} bdef
% operator abbreviations
/c  /clip ldef
/cc /concat ldef
/cp /closepath ldef
/gr /grestore ldef
/gs /gsave ldef
/mt /moveto ldef
/np /newpath ldef
/cm /currentmatrix ldef
/sm /setmatrix ldef
/rm /rmoveto ldef
/rl /rlineto ldef
/s {show newpath} bdef
/sc {setcmykcolor} bdef
/sr /setrgbcolor ldef
/sg /setgray ldef
/w /setlinewidth ldef
/j /setlinejoin ldef
/cap /setlinecap ldef
/rc {rectclip} bdef
/rf {rectfill} bdef
% page state control
/pgsv () def
/bpage {/pgsv save def} bdef
/epage {pgsv restore} bdef
/bplot /gsave ldef
/eplot {stroke grestore} bdef
% orientation switch
/portraitMode 0 def /landscapeMode 1 def /rotateMode 2 def
% coordinate system mappings
/dpi2point 0 def
% font control
/FontSize 0 def
/FMS {/FontSize xstore findfont [FontSize 0 0 FontSize neg 0 0]
  makefont setfont} bdef
/reencode {exch dup where {pop load} {pop StandardEncoding} ifelse
  exch dup 3 1 roll findfont dup length dict begin
  { 1 index /FID ne {def}{pop pop} ifelse } forall
  /Encoding exch def currentdict end definefont pop} bdef
/isroman {findfont /CharStrings get /Agrave known} bdef
/FMSR {3 1 roll 1 index dup isroman {reencode} {pop pop} ifelse
  exch FMS} bdef
/csm {1 dpi2point div -1 dpi2point div scale neg translate
 dup landscapeMode eq {pop -90 rotate}
  {rotateMode eq {90 rotate} if} ifelse} bdef
% line types: solid, dotted, dashed, dotdash
/SO { [] 0 setdash } bdef
/DO { [.5 dpi2point mul 4 dpi2point mul] 0 setdash } bdef
/DA { [6 dpi2point mul] 0 setdash } bdef
/DD { [.5 dpi2point mul 4 dpi2point mul 6 dpi2point mul 4
  dpi2point mul] 0 setdash } bdef
% macros for lines and objects
/L {lineto stroke} bdef
/MP {3 1 roll moveto 1 sub {rlineto} repeat} bdef
/AP {{rlineto} repeat} bdef
/PDlw -1 def
/W {/PDlw currentlinewidth def setlinewidth} def
/PP {closepath eofill} bdef
/DP {closepath stroke} bdef
/MR {4 -2 roll moveto dup  0 exch rlineto exch 0 rlineto
  neg 0 exch rlineto closepath} bdef
/FR {MR stroke} bdef
/PR {MR fill} bdef
/L1i {{currentfile picstr readhexstring pop} image} bdef
/tMatrix matrix def
/MakeOval {newpath tMatrix currentmatrix pop translate scale
0 0 1 0 360 arc tMatrix setmatrix} bdef
/FO {MakeOval stroke} bdef
/PO {MakeOval fill} bdef
/PD {currentlinewidth 2 div 0 360 arc fill
   PDlw -1 eq not {PDlw w /PDlw -1 def} if} def
/FA {newpath tMatrix currentmatrix pop translate scale
  0 0 1 5 -2 roll arc tMatrix setmatrix stroke} bdef
/PA {newpath tMatrix currentmatrix pop	translate 0 0 moveto scale
  0 0 1 5 -2 roll arc closepath tMatrix setmatrix fill} bdef
/FAn {newpath tMatrix currentmatrix pop translate scale
  0 0 1 5 -2 roll arcn tMatrix setmatrix stroke} bdef
/PAn {newpath tMatrix currentmatrix pop translate 0 0 moveto scale
  0 0 1 5 -2 roll arcn closepath tMatrix setmatrix fill} bdef
/vradius 0 def /hradius 0 def /lry 0 def
/lrx 0 def /uly 0 def /ulx 0 def /rad 0 def
/MRR {/vradius xdef /hradius xdef /lry xdef /lrx xdef /uly xdef
  /ulx xdef newpath tMatrix currentmatrix pop ulx hradius add uly
  vradius add translate hradius vradius scale 0 0 1 180 270 arc 
  tMatrix setmatrix lrx hradius sub uly vradius add translate
  hradius vradius scale 0 0 1 270 360 arc tMatrix setmatrix
  lrx hradius sub lry vradius sub translate hradius vradius scale
  0 0 1 0 90 arc tMatrix setmatrix ulx hradius add lry vradius sub
  translate hradius vradius scale 0 0 1 90 180 arc tMatrix setmatrix
  closepath} bdef
/FRR {MRR stroke } bdef
/PRR {MRR fill } bdef
/MlrRR {/lry xdef /lrx xdef /uly xdef /ulx xdef /rad lry uly sub 2 div def
  newpath tMatrix currentmatrix pop ulx rad add uly rad add translate
  rad rad scale 0 0 1 90 270 arc tMatrix setmatrix lrx rad sub lry rad
  sub translate rad rad scale 0 0 1 270 90 arc tMatrix setmatrix
  closepath} bdef
/FlrRR {MlrRR stroke } bdef
/PlrRR {MlrRR fill } bdef
/MtbRR {/lry xdef /lrx xdef /uly xdef /ulx xdef /rad lrx ulx sub 2 div def
  newpath tMatrix currentmatrix pop ulx rad add uly rad add translate
  rad rad scale 0 0 1 180 360 arc tMatrix setmatrix lrx rad sub lry rad
  sub translate rad rad scale 0 0 1 0 180 arc tMatrix setmatrix
  closepath} bdef
/FtbRR {MtbRR stroke } bdef
/PtbRR {MtbRR fill } bdef
/stri 6 array def /dtri 6 array def
/smat 6 array def /dmat 6 array def
/tmat1 6 array def /tmat2 6 array def /dif 3 array def
/asub {/ind2 exch def /ind1 exch def dup dup
  ind1 get exch ind2 get sub exch } bdef
/tri_to_matrix {
  2 0 asub 3 1 asub 4 0 asub 5 1 asub
  dup 0 get exch 1 get 7 -1 roll astore } bdef
/compute_transform {
  dmat dtri tri_to_matrix tmat1 invertmatrix 
  smat stri tri_to_matrix tmat2 concatmatrix } bdef
/ds {stri astore pop} bdef
/dt {dtri astore pop} bdef
/db {2 copy /cols xdef /rows xdef mul dup 3 mul string
  currentfile 
  3 index 0 eq {/ASCIIHexDecode filter}
  {/ASCII85Decode filter 3 index 2 eq {/RunLengthDecode filter} if }
  ifelse exch readstring pop
  dup 0 3 index getinterval /rbmap xdef
  dup 2 index dup getinterval /gbmap xdef
  1 index dup 2 mul exch getinterval /bbmap xdef pop pop}bdef
/it {gs np dtri aload pop moveto lineto lineto cp c
  cols rows 8 compute_transform 
  rbmap gbmap bbmap true 3 colorimage gr}bdef
/il {newpath moveto lineto stroke}bdef
currentdict end def
%%EndProlog

%%BeginSetup
MathWorks begin

0 cap

end
%%EndSetup

%%Page: 1 1
%%BeginPageSetup
%%PageBoundingBox:  -436   -44  1048   836
MathWorks begin
bpage
%%EndPageSetup

%%BeginObject: obj1
bplot

/dpi2point 12 def
portraitMode -5232 10032 csm

    0     0 17808 10560 rc
88 dict begin %Colortable dictionary
/c0 { 0.000000 0.000000 0.000000 sr} bdef
/c1 { 1.000000 1.000000 1.000000 sr} bdef
/c2 { 0.900000 0.000000 0.000000 sr} bdef
/c3 { 0.000000 0.820000 0.000000 sr} bdef
/c4 { 0.000000 0.000000 0.800000 sr} bdef
/c5 { 0.910000 0.820000 0.320000 sr} bdef
/c6 { 1.000000 0.260000 0.820000 sr} bdef
/c7 { 0.000000 0.820000 0.820000 sr} bdef
c0
1 j
1 sg
   0    0 17809 10561 rf
6 w
0 8606 13801 0 0 -8606 2315 9398 4 MP
PP
-13801 0 0 8606 13801 0 0 -8606 2315 9398 5 MP stroke
4 w
DO
0 sg
2315 9398 mt 2315  792 L
2315  792 mt 2315  792 L
5075 9398 mt 5075  792 L
5075  792 mt 5075  792 L
7835 9398 mt 7835  792 L
7835  792 mt 7835  792 L
10595 9398 mt 10595  792 L
10595  792 mt 10595  792 L
13355 9398 mt 13355  792 L
13355  792 mt 13355  792 L
16116 9398 mt 16116  792 L
16116  792 mt 16116  792 L
2315 9398 mt 16116 9398 L
16116 9398 mt 16116 9398 L
2315 7676 mt 16116 7676 L
16116 7676 mt 16116 7676 L
2315 5955 mt 16116 5955 L
16116 5955 mt 16116 5955 L
2315 4234 mt 16116 4234 L
16116 4234 mt 16116 4234 L
2315 2513 mt 16116 2513 L
16116 2513 mt 16116 2513 L
2315  792 mt 16116  792 L
16116  792 mt 16116  792 L
SO
6 w
2315 9398 mt 16116 9398 L
2315 9398 mt 2315  792 L
2315 9398 mt 2315 9259 L
%%IncludeResource: font Helvetica
/Helvetica /ISOLatin1Encoding 480 FMSR

2182 9878 mt 
(0) s
5075 9398 mt 5075 9259 L
4742 9878 mt 
(0.1) s
7835 9398 mt 7835 9259 L
7502 9878 mt 
(0.2) s
10595 9398 mt 10595 9259 L
10262 9878 mt 
(0.3) s
13355 9398 mt 13355 9259 L
13022 9878 mt 
(0.4) s
16116 9398 mt 16116 9259 L
15783 9878 mt 
(0.5) s
2315 9398 mt 2453 9398 L
1346 9576 mt 
(0.75) s
2315 7676 mt 2453 7676 L
1613 7854 mt 
(0.8) s
2315 5955 mt 2453 5955 L
1346 6133 mt 
(0.85) s
2315 4234 mt 2453 4234 L
1613 4412 mt 
(0.9) s
2315 2513 mt 2453 2513 L
1346 2691 mt 
(0.95) s
2315  792 mt 2453  792 L
2014  970 mt 
(1) s
gs 2315 792 13802 8607 rc
48 w
201 170 287 286 302 299 299 325 290 383 337 225 343 275 316 245 
400 279 377 275 384 223 370 299 413 216 416 226 415 217 448 135 
442 168 448 114 470 145 460 130 476 65 483 54 480 26 492 100 
492 31 495 38 500 135 454 150 530 -52 484 -28 475 140 516 122 
127 213 2695 964 34 MP stroke
/c8 { 0.000000 1.000000 0.000000 sr} bdef
c8
201 59 434 111 415 92 439 91 402 65 503 47 438 143 452 59 
434 126 460 91 463 81 455 84 463 85 462 97 448 120 484 85 
467 93 467 119 482 57 486 -8 500 44 490 41 486 126 511 15 
467 -43 520 42 481 7 472 143 515 120 130 -175 2690 1480 31 MP stroke
/c9 { 0.000000 0.000000 1.000000 sr} bdef
c9
402 116 394 192 386 150 408 158 371 138 465 146 423 184 423 145 
416 189 426 207 446 153 441 158 455 137 473 74 461 84 486 103 
471 101 469 139 482 93 482 61 508 44 492 88 501 57 507 142 
471 19 532 24 488 44 486 23 525 63 130 0 2697 792 31 MP stroke
/c10 { 1.000000 0.000000 0.000000 sr} bdef
c10
212 154 281 198 305 138 314 146 308 198 325 169 331 183 326 165 
350 176 329 116 375 244 366 211 382 117 383 156 406 127 404 129 
386 184 397 179 413 158 409 132 452 63 433 73 426 159 429 175 
429 149 465 53 452 90 457 112 477 32 417 222 494 2 442 240 
455 -43 488 -7 119 377 2680 2341 36 MP stroke
gr

48 w
c10
0 j
0 -142 -142 0 0 142 142 0 2609 2270 5 MP
gs
PP
gr
DP
0 -142 -142 0 0 142 142 0 2728 2647 5 MP
gs
PP
gr
DP
0 -142 -142 0 0 142 142 0 3216 2640 5 MP
gs
PP
gr
DP
0 -142 -142 0 0 142 142 0 3671 2597 5 MP
gs
PP
gr
DP
0 -142 -142 0 0 142 142 0 4113 2837 5 MP
gs
PP
gr
DP
0 -142 -142 0 0 142 142 0 4607 2839 5 MP
gs
PP
gr
DP
0 -142 -142 0 0 142 142 0 5024 3061 5 MP
gs
PP
gr
DP
0 -142 -142 0 0 142 142 0 5501 3093 5 MP
gs
PP
gr
DP
0 -142 -142 0 0 142 142 0 5958 3205 5 MP
gs
PP
gr
DP
0 -142 -142 0 0 142 142 0 6410 3295 5 MP
gs
PP
gr
DP
0 -142 -142 0 0 142 142 0 6875 3348 5 MP
gs
PP
gr
DP
0 -142 -142 0 0 142 142 0 7304 3497 5 MP
gs
PP
gr
DP
0 -142 -142 0 0 142 142 0 7733 3672 5 MP
gs
PP
gr
DP
0 -142 -142 0 0 142 142 0 8159 3831 5 MP
gs
PP
gr
DP
0 -142 -142 0 0 142 142 0 8592 3904 5 MP
gs
PP
gr
DP
0 -142 -142 0 0 142 142 0 9044 3967 5 MP
gs
PP
gr
DP
0 -142 -142 0 0 142 142 0 9453 4099 5 MP
gs
PP
gr
DP
0 -142 -142 0 0 142 142 0 9866 4257 5 MP
gs
PP
gr
DP
0 -142 -142 0 0 142 142 0 10263 4436 5 MP
gs
PP
gr
DP
0 -142 -142 0 0 142 142 0 10649 4620 5 MP
gs
PP
gr
DP
0 -142 -142 0 0 142 142 0 11053 4749 5 MP
gs
PP
gr
DP
0 -142 -142 0 0 142 142 0 11459 4876 5 MP
gs
PP
gr
DP
0 -142 -142 0 0 142 142 0 11842 5032 5 MP
gs
PP
gr
DP
0 -142 -142 0 0 142 142 0 12224 5149 5 MP
gs
PP
gr
DP
0 -142 -142 0 0 142 142 0 12590 5360 5 MP
gs
PP
gr
DP
0 -142 -142 0 0 142 142 0 12965 5604 5 MP
gs
PP
gr
DP
0 -142 -142 0 0 142 142 0 13294 5720 5 MP
gs
PP
gr
DP
0 -142 -142 0 0 142 142 0 13644 5896 5 MP
gs
PP
gr
DP
0 -142 -142 0 0 142 142 0 13970 6061 5 MP
gs
PP
gr
DP
0 -142 -142 0 0 142 142 0 14301 6244 5 MP
gs
PP
gr
DP
0 -142 -142 0 0 142 142 0 14626 6413 5 MP
gs
PP
gr
DP
0 -142 -142 0 0 142 142 0 14934 6611 5 MP
gs
PP
gr
DP
0 -142 -142 0 0 142 142 0 15248 6757 5 MP
gs
PP
gr
DP
0 -142 -142 0 0 142 142 0 15553 6895 5 MP
gs
PP
gr
DP
0 -142 -142 0 0 142 142 0 15834 7093 5 MP
gs
PP
gr
DP
gs 2315 792 13802 8607 rc
/c11 { 1.000000 0.000000 1.000000 sr} bdef
c11
204 87 337 164 343 141 369 119 385 88 390 95 370 87 363 155 
318 174 389 224 380 177 402 78 396 109 410 108 412 107 409 95 
408 133 421 87 396 164 429 145 419 129 438 51 423 166 435 75 
453 89 433 203 449 128 469 72 416 214 476 231 442 250 450 113 
480 676 119 465 2684 1996 35 MP stroke
/c12 { 0.000000 1.000000 1.000000 sr} bdef
c12
84 46 302 173 322 166 306 196 323 152 337 159 299 255 331 210 
312 208 325 233 299 209 356 296 358 229 337 264 348 258 360 278 
386 206 354 319 366 332 392 253 402 196 429 212 406 273 421 242 
426 262 444 149 448 301 471 92 448 375 488 173 442 212 505 255 
481 17 471 226 514 251 131 -88 2693 1136 37 MP stroke
gr

c12
0 sg
%%IncludeResource: font Helvetica-Bold
/Helvetica-Bold /ISOLatin1Encoding 480 FMSR

8507 10286 mt 
(Recall) s
1182 6176 mt  -90 rotate
(Precision) s
90 rotate
%%IncludeResource: font Helvetica
/Helvetica /ISOLatin1Encoding 120 FMSR

2298 9441 mt 
( ) s
16100  834 mt 
( ) s
6 w
1 sg
0 4225 6011 0 0 -4225 2506 9067 4 MP
PP
-6011 0 0 4225 6011 0 0 -4225 2506 9067 5 MP stroke
4 w
DO
SO
6 w
0 sg
2506 9067 mt 8517 9067 L
2506 4842 mt 8517 4842 L
2506 9067 mt 2506 4842 L
8517 9067 mt 8517 4842 L
2506 9067 mt 8517 9067 L
2506 9067 mt 2506 4842 L
2506 9067 mt 8517 9067 L
2506 4842 mt 8517 4842 L
2506 9067 mt 2506 4842 L
8517 9067 mt 8517 4842 L
%%IncludeResource: font Helvetica
/Helvetica /ISOLatin1Encoding 480 FMSR

3000 5381 mt 
(WordNet-Resnik) s
gs 2506 4842 6012 4226 rc
48 w
380 0 2581 5211 2 MP stroke
gr

48 w
3000 6078 mt 
(Corpus-BDA-3-5000) s
gs 2506 4842 6012 4226 rc
c8
380 0 2581 5908 2 MP stroke
gr

c8
0 sg
3000 6775 mt 
(Corpus-SDA-21-100000) s
gs 2506 4842 6012 4226 rc
c9
380 0 2581 6605 2 MP stroke
gr

c9
0 sg
3000 7473 mt 
(Def-WktWiki-1000) s
gs 2506 4842 6012 4226 rc
c10
380 0 2581 7303 2 MP stroke
gs 2541 7073 461 461 rc
0 -142 -142 0 0 142 142 0 2700 7232 5 MP
gs
PP
gr
DP
gr

gr

c10
0 sg
3000 8170 mt 
(Def-GlossVectors) s
gs 2506 4842 6012 4226 rc
c11
380 0 2581 8000 2 MP stroke
gr

c11
0 sg
3000 8867 mt 
(Def-ExtenedLesk) s
gs 2506 4842 6012 4226 rc
c12
380 0 2581 8697 2 MP stroke
6 w
gr

6 w
c12

end %%Color Dict

eplot
%%EndObject

epage
end

showpage

%%Trailer
%%EOF
