%!PS-Adobe-3.0 EPSF-3.0
%%Creator: MATLAB, The MathWorks, Inc. Version 8.0.0.783 (R2012b). Operating System: Linux 3.2.0-37-generic #58-Ubuntu SMP Thu Jan 24 15:28:10 UTC 2013 x86_64.
%%Title: /home/sasha/Desktop/thesis/figures/pr-graph-4best.eps
%%CreationDate: 02/04/2013  12:30:56
%%DocumentNeededFonts: Helvetica
%%+ Times-Bold
%%DocumentProcessColors: Cyan Magenta Yellow Black
%%LanguageLevel: 2
%%Pages: 1
%%BoundingBox:   -47   122   660   670
%%EndComments

%%BeginProlog
% MathWorks dictionary
/MathWorks 160 dict begin
% definition operators
/bdef {bind def} bind def
/ldef {load def} bind def
/xdef {exch def} bdef
/xstore {exch store} bdef
% operator abbreviations
/c  /clip ldef
/cc /concat ldef
/cp /closepath ldef
/gr /grestore ldef
/gs /gsave ldef
/mt /moveto ldef
/np /newpath ldef
/cm /currentmatrix ldef
/sm /setmatrix ldef
/rm /rmoveto ldef
/rl /rlineto ldef
/s {show newpath} bdef
/sc {setcmykcolor} bdef
/sr /setrgbcolor ldef
/sg /setgray ldef
/w /setlinewidth ldef
/j /setlinejoin ldef
/cap /setlinecap ldef
/rc {rectclip} bdef
/rf {rectfill} bdef
% page state control
/pgsv () def
/bpage {/pgsv save def} bdef
/epage {pgsv restore} bdef
/bplot /gsave ldef
/eplot {stroke grestore} bdef
% orientation switch
/portraitMode 0 def /landscapeMode 1 def /rotateMode 2 def
% coordinate system mappings
/dpi2point 0 def
% font control
/FontSize 0 def
/FMS {/FontSize xstore findfont [FontSize 0 0 FontSize neg 0 0]
  makefont setfont} bdef
/reencode {exch dup where {pop load} {pop StandardEncoding} ifelse
  exch dup 3 1 roll findfont dup length dict begin
  { 1 index /FID ne {def}{pop pop} ifelse } forall
  /Encoding exch def currentdict end definefont pop} bdef
/isroman {findfont /CharStrings get /Agrave known} bdef
/FMSR {3 1 roll 1 index dup isroman {reencode} {pop pop} ifelse
  exch FMS} bdef
/csm {1 dpi2point div -1 dpi2point div scale neg translate
 dup landscapeMode eq {pop -90 rotate}
  {rotateMode eq {90 rotate} if} ifelse} bdef
% line types: solid, dotted, dashed, dotdash
/SO { [] 0 setdash } bdef
/DO { [.5 dpi2point mul 4 dpi2point mul] 0 setdash } bdef
/DA { [6 dpi2point mul] 0 setdash } bdef
/DD { [.5 dpi2point mul 4 dpi2point mul 6 dpi2point mul 4
  dpi2point mul] 0 setdash } bdef
% macros for lines and objects
/L {lineto stroke} bdef
/MP {3 1 roll moveto 1 sub {rlineto} repeat} bdef
/AP {{rlineto} repeat} bdef
/PDlw -1 def
/W {/PDlw currentlinewidth def setlinewidth} def
/PP {closepath eofill} bdef
/DP {closepath stroke} bdef
/MR {4 -2 roll moveto dup  0 exch rlineto exch 0 rlineto
  neg 0 exch rlineto closepath} bdef
/FR {MR stroke} bdef
/PR {MR fill} bdef
/L1i {{currentfile picstr readhexstring pop} image} bdef
/tMatrix matrix def
/MakeOval {newpath tMatrix currentmatrix pop translate scale
0 0 1 0 360 arc tMatrix setmatrix} bdef
/FO {MakeOval stroke} bdef
/PO {MakeOval fill} bdef
/PD {currentlinewidth 2 div 0 360 arc fill
   PDlw -1 eq not {PDlw w /PDlw -1 def} if} def
/FA {newpath tMatrix currentmatrix pop translate scale
  0 0 1 5 -2 roll arc tMatrix setmatrix stroke} bdef
/PA {newpath tMatrix currentmatrix pop	translate 0 0 moveto scale
  0 0 1 5 -2 roll arc closepath tMatrix setmatrix fill} bdef
/FAn {newpath tMatrix currentmatrix pop translate scale
  0 0 1 5 -2 roll arcn tMatrix setmatrix stroke} bdef
/PAn {newpath tMatrix currentmatrix pop translate 0 0 moveto scale
  0 0 1 5 -2 roll arcn closepath tMatrix setmatrix fill} bdef
/vradius 0 def /hradius 0 def /lry 0 def
/lrx 0 def /uly 0 def /ulx 0 def /rad 0 def
/MRR {/vradius xdef /hradius xdef /lry xdef /lrx xdef /uly xdef
  /ulx xdef newpath tMatrix currentmatrix pop ulx hradius add uly
  vradius add translate hradius vradius scale 0 0 1 180 270 arc 
  tMatrix setmatrix lrx hradius sub uly vradius add translate
  hradius vradius scale 0 0 1 270 360 arc tMatrix setmatrix
  lrx hradius sub lry vradius sub translate hradius vradius scale
  0 0 1 0 90 arc tMatrix setmatrix ulx hradius add lry vradius sub
  translate hradius vradius scale 0 0 1 90 180 arc tMatrix setmatrix
  closepath} bdef
/FRR {MRR stroke } bdef
/PRR {MRR fill } bdef
/MlrRR {/lry xdef /lrx xdef /uly xdef /ulx xdef /rad lry uly sub 2 div def
  newpath tMatrix currentmatrix pop ulx rad add uly rad add translate
  rad rad scale 0 0 1 90 270 arc tMatrix setmatrix lrx rad sub lry rad
  sub translate rad rad scale 0 0 1 270 90 arc tMatrix setmatrix
  closepath} bdef
/FlrRR {MlrRR stroke } bdef
/PlrRR {MlrRR fill } bdef
/MtbRR {/lry xdef /lrx xdef /uly xdef /ulx xdef /rad lrx ulx sub 2 div def
  newpath tMatrix currentmatrix pop ulx rad add uly rad add translate
  rad rad scale 0 0 1 180 360 arc tMatrix setmatrix lrx rad sub lry rad
  sub translate rad rad scale 0 0 1 0 180 arc tMatrix setmatrix
  closepath} bdef
/FtbRR {MtbRR stroke } bdef
/PtbRR {MtbRR fill } bdef
/stri 6 array def /dtri 6 array def
/smat 6 array def /dmat 6 array def
/tmat1 6 array def /tmat2 6 array def /dif 3 array def
/asub {/ind2 exch def /ind1 exch def dup dup
  ind1 get exch ind2 get sub exch } bdef
/tri_to_matrix {
  2 0 asub 3 1 asub 4 0 asub 5 1 asub
  dup 0 get exch 1 get 7 -1 roll astore } bdef
/compute_transform {
  dmat dtri tri_to_matrix tmat1 invertmatrix 
  smat stri tri_to_matrix tmat2 concatmatrix } bdef
/ds {stri astore pop} bdef
/dt {dtri astore pop} bdef
/db {2 copy /cols xdef /rows xdef mul dup 3 mul string
  currentfile 
  3 index 0 eq {/ASCIIHexDecode filter}
  {/ASCII85Decode filter 3 index 2 eq {/RunLengthDecode filter} if }
  ifelse exch readstring pop
  dup 0 3 index getinterval /rbmap xdef
  dup 2 index dup getinterval /gbmap xdef
  1 index dup 2 mul exch getinterval /bbmap xdef pop pop}bdef
/it {gs np dtri aload pop moveto lineto lineto cp c
  cols rows 8 compute_transform 
  rbmap gbmap bbmap true 3 colorimage gr}bdef
/il {newpath moveto lineto stroke}bdef
currentdict end def
%%EndProlog

%%BeginSetup
MathWorks begin

0 cap

end
%%EndSetup

%%Page: 1 1
%%BeginPageSetup
%%PageBoundingBox:   -47   122   660   670
MathWorks begin
bpage
%%EndPageSetup

%%BeginObject: obj1
bplot

/dpi2point 12 def
portraitMode -0564 8040 csm

    0     0  8486  6576 rc
89 dict begin %Colortable dictionary
/c0 { 0.000000 0.000000 0.000000 sr} bdef
/c1 { 1.000000 1.000000 1.000000 sr} bdef
/c2 { 0.900000 0.000000 0.000000 sr} bdef
/c3 { 0.000000 0.820000 0.000000 sr} bdef
/c4 { 0.000000 0.000000 0.800000 sr} bdef
/c5 { 0.910000 0.820000 0.320000 sr} bdef
/c6 { 1.000000 0.260000 0.820000 sr} bdef
/c7 { 0.000000 0.820000 0.820000 sr} bdef
c0
1 j
1 sg
   0    0 8487 6577 rf
6 w
0 5360 6577 0 0 -5360 1103 5853 4 MP
PP
-6577 0 0 5360 6577 0 0 -5360 1103 5853 5 MP stroke
4 w
DO
0 sg
1103 5853 mt 1103  493 L
1103  493 mt 1103  493 L
2418 5853 mt 2418  493 L
2418  493 mt 2418  493 L
3733 5853 mt 3733  493 L
3733  493 mt 3733  493 L
5049 5853 mt 5049  493 L
5049  493 mt 5049  493 L
6364 5853 mt 6364  493 L
6364  493 mt 6364  493 L
7680 5853 mt 7680  493 L
7680  493 mt 7680  493 L
1103 5853 mt 7680 5853 L
7680 5853 mt 7680 5853 L
1103 4780 mt 7680 4780 L
7680 4780 mt 7680 4780 L
1103 3709 mt 7680 3709 L
7680 3709 mt 7680 3709 L
1103 2636 mt 7680 2636 L
7680 2636 mt 7680 2636 L
1103 1565 mt 7680 1565 L
7680 1565 mt 7680 1565 L
1103  493 mt 7680  493 L
7680  493 mt 7680  493 L
SO
6 w
1103 5853 mt 7680 5853 L
1103 5853 mt 1103  493 L
1103 5853 mt 1103 5787 L
%%IncludeResource: font Times-Bold
/Times-Bold /ISOLatin1Encoding 288 FMSR

1031 6156 mt 
(0) s
2418 5853 mt 2418 5787 L
2238 6156 mt 
(0.1) s
3733 5853 mt 3733 5787 L
3553 6156 mt 
(0.2) s
5049 5853 mt 5049 5787 L
4869 6156 mt 
(0.3) s
6364 5853 mt 6364 5787 L
6184 6156 mt 
(0.4) s
7680 5853 mt 7680 5787 L
7500 6156 mt 
(0.5) s
1103 5853 mt 1168 5853 L
 564 5960 mt 
(0.75) s
1103 4780 mt 1168 4780 L
 708 4887 mt 
(0.8) s
1103 3709 mt 1168 3709 L
 564 3816 mt 
(0.85) s
1103 2636 mt 1168 2636 L
 708 2743 mt 
(0.9) s
1103 1565 mt 1168 1565 L
 564 1672 mt 
(0.95) s
1103  493 mt 1168  493 L
 924  600 mt 
(1) s
gs 1103 493 6578 5361 rc
36 w
/c8 { 0.870588 0.490196 0.000000 sr} bdef
c8
96 106 137 178 144 186 143 203 138 238 161 141 163 171 150 152 
191 174 180 171 183 139 176 187 197 134 198 141 198 135 213 84 
211 104 214 72 224 90 219 81 227 41 230 33 229 16 234 63 
234 19 237 23 238 85 216 93 253 -33 230 -17 227 88 246 76 
60 132 1284 600 34 MP stroke
gr

36 w
c8
gs 1150 466 6666 3775 rc
0 j
0 -76 -76 0 0 76 76 0 1246 562 5 MP
gs
PP
gr
DP
0 -76 -76 0 0 76 76 0 1306 694 5 MP
gs
PP
gr
DP
0 -76 -76 0 0 76 76 0 1552 770 5 MP
gs
PP
gr
DP
0 -76 -76 0 0 76 76 0 1779 858 5 MP
gs
PP
gr
DP
0 -76 -76 0 0 76 76 0 2009 841 5 MP
gs
PP
gr
DP
0 -76 -76 0 0 76 76 0 2262 808 5 MP
gs
PP
gr
DP
0 -76 -76 0 0 76 76 0 2478 901 5 MP
gs
PP
gr
DP
0 -76 -76 0 0 76 76 0 2716 986 5 MP
gs
PP
gr
DP
0 -76 -76 0 0 76 76 0 2953 1009 5 MP
gs
PP
gr
DP
0 -76 -76 0 0 76 76 0 3187 1028 5 MP
gs
PP
gr
DP
0 -76 -76 0 0 76 76 0 3421 1091 5 MP
gs
PP
gr
DP
0 -76 -76 0 0 76 76 0 3650 1107 5 MP
gs
PP
gr
DP
0 -76 -76 0 0 76 76 0 3880 1140 5 MP
gs
PP
gr
DP
0 -76 -76 0 0 76 76 0 4107 1181 5 MP
gs
PP
gr
DP
0 -76 -76 0 0 76 76 0 4326 1262 5 MP
gs
PP
gr
DP
0 -76 -76 0 0 76 76 0 4550 1352 5 MP
gs
PP
gr
DP
0 -76 -76 0 0 76 76 0 4764 1424 5 MP
gs
PP
gr
DP
0 -76 -76 0 0 76 76 0 4975 1528 5 MP
gs
PP
gr
DP
0 -76 -76 0 0 76 76 0 5188 1612 5 MP
gs
PP
gr
DP
0 -76 -76 0 0 76 76 0 5386 1747 5 MP
gs
PP
gr
DP
0 -76 -76 0 0 76 76 0 5584 1888 5 MP
gs
PP
gr
DP
0 -76 -76 0 0 76 76 0 5781 2022 5 MP
gs
PP
gr
DP
0 -76 -76 0 0 76 76 0 5957 2209 5 MP
gs
PP
gr
DP
0 -76 -76 0 0 76 76 0 6140 2348 5 MP
gs
PP
gr
DP
0 -76 -76 0 0 76 76 0 6320 2519 5 MP
gs
PP
gr
DP
0 -76 -76 0 0 76 76 0 6511 2693 5 MP
gs
PP
gr
DP
0 -76 -76 0 0 76 76 0 6661 2845 5 MP
gs
PP
gr
DP
0 -76 -76 0 0 76 76 0 6824 3016 5 MP
gs
PP
gr
DP
0 -76 -76 0 0 76 76 0 6985 3157 5 MP
gs
PP
gr
DP
0 -76 -76 0 0 76 76 0 7123 3395 5 MP
gs
PP
gr
DP
0 -76 -76 0 0 76 76 0 7266 3598 5 MP
gs
PP
gr
DP
0 -76 -76 0 0 76 76 0 7410 3784 5 MP
gs
PP
gr
DP
0 -76 -76 0 0 76 76 0 7547 3962 5 MP
gs
PP
gr
DP
gr

gs 1103 493 6578 5361 rc
DA
/c9 { 0.000000 1.000000 0.000000 sr} bdef
c9
96 37 207 69 198 58 209 56 192 41 240 29 208 89 216 37 
207 78 219 57 220 50 217 53 221 53 220 60 213 75 231 53 
223 58 222 74 230 35 232 -4 238 27 233 25 232 79 244 9 
222 -26 248 26 229 4 225 89 246 74 62 -108 1281 921 31 MP stroke
SO
/c10 { 1.000000 0.000000 1.000000 sr} bdef
c10
58 53 152 133 171 107 178 90 167 138 159 128 176 117 160 110 
202 119 188 120 188 102 199 69 196 110 198 108 206 61 209 66 
207 79 208 56 222 51 209 88 212 83 213 97 211 110 230 39 
222 83 228 47 228 142 210 101 240 129 222 153 223 143 246 74 
60 106 1283 707 34 MP stroke
gr

c10
gs 1149 573 6667 3481 rc
0 j
-27 -20 10 -33 -29 19 -28 -19 10 33 -27 20 34 0 11 33 
12 -33 34 0 1237 692 11 MP
/c11 { 0.749020 0.000000 0.749020 sr} bdef
c11
gs
PP
gr
c10
DP
-27 -20 10 -33 -29 19 -28 -19 10 33 -27 20 34 0 11 33 
12 -33 34 0 1297 798 11 MP
c11
gs
PP
gr
c10
DP
-27 -20 10 -33 -29 19 -28 -19 10 33 -27 20 34 0 11 33 
12 -33 34 0 1543 872 11 MP
c11
gs
PP
gr
c10
DP
-27 -20 10 -33 -29 19 -28 -19 10 33 -27 20 34 0 11 33 
12 -33 34 0 1766 1015 11 MP
c11
gs
PP
gr
c10
DP
-27 -20 10 -33 -29 19 -28 -19 10 33 -27 20 34 0 11 33 
12 -33 34 0 1988 1168 11 MP
c11
gs
PP
gr
c10
DP
-27 -20 10 -33 -29 19 -28 -19 10 33 -27 20 34 0 11 33 
12 -33 34 0 2228 1297 11 MP
c11
gs
PP
gr
c10
DP
-27 -20 10 -33 -29 19 -28 -19 10 33 -27 20 34 0 11 33 
12 -33 34 0 2438 1398 11 MP
c11
gs
PP
gr
c10
DP
-27 -20 10 -33 -29 19 -28 -19 10 33 -27 20 34 0 11 33 
12 -33 34 0 2666 1540 11 MP
c11
gs
PP
gr
c10
DP
-27 -20 10 -33 -29 19 -28 -19 10 33 -27 20 34 0 11 33 
12 -33 34 0 2894 1587 11 MP
c11
gs
PP
gr
c10
DP
-27 -20 10 -33 -29 19 -28 -19 10 33 -27 20 34 0 11 33 
12 -33 34 0 3116 1670 11 MP
c11
gs
PP
gr
c10
DP
-27 -20 10 -33 -29 19 -28 -19 10 33 -27 20 34 0 11 33 
12 -33 34 0 3346 1709 11 MP
c11
gs
PP
gr
c10
DP
-27 -20 10 -33 -29 19 -28 -19 10 33 -27 20 34 0 11 33 
12 -33 34 0 3557 1819 11 MP
c11
gs
PP
gr
c10
DP
-27 -20 10 -33 -29 19 -28 -19 10 33 -27 20 34 0 11 33 
12 -33 34 0 3770 1916 11 MP
c11
gs
PP
gr
c10
DP
-27 -20 10 -33 -29 19 -28 -19 10 33 -27 20 34 0 11 33 
12 -33 34 0 3982 1999 11 MP
c11
gs
PP
gr
c10
DP
-27 -20 10 -33 -29 19 -28 -19 10 33 -27 20 34 0 11 33 
12 -33 34 0 4191 2087 11 MP
c11
gs
PP
gr
c10
DP
-27 -20 10 -33 -29 19 -28 -19 10 33 -27 20 34 0 11 33 
12 -33 34 0 4413 2138 11 MP
c11
gs
PP
gr
c10
DP
-27 -20 10 -33 -29 19 -28 -19 10 33 -27 20 34 0 11 33 
12 -33 34 0 4621 2194 11 MP
c11
gs
PP
gr
c10
DP
-27 -20 10 -33 -29 19 -28 -19 10 33 -27 20 34 0 11 33 
12 -33 34 0 4828 2273 11 MP
c11
gs
PP
gr
c10
DP
-27 -20 10 -33 -29 19 -28 -19 10 33 -27 20 34 0 11 33 
12 -33 34 0 5037 2339 11 MP
c11
gs
PP
gr
c10
DP
-27 -20 10 -33 -29 19 -28 -19 10 33 -27 20 34 0 11 33 
12 -33 34 0 5243 2400 11 MP
c11
gs
PP
gr
c10
DP
-27 -20 10 -33 -29 19 -28 -19 10 33 -27 20 34 0 11 33 
12 -33 34 0 5441 2508 11 MP
c11
gs
PP
gr
c10
DP
-27 -20 10 -33 -29 19 -28 -19 10 33 -27 20 34 0 11 33 
12 -33 34 0 5637 2618 11 MP
c11
gs
PP
gr
c10
DP
-27 -20 10 -33 -29 19 -28 -19 10 33 -27 20 34 0 11 33 
12 -33 34 0 5836 2687 11 MP
c11
gs
PP
gr
c10
DP
-27 -20 10 -33 -29 19 -28 -19 10 33 -27 20 34 0 11 33 
12 -33 34 0 6024 2789 11 MP
c11
gs
PP
gr
c10
DP
-27 -20 10 -33 -29 19 -28 -19 10 33 -27 20 34 0 11 33 
12 -33 34 0 6212 2909 11 MP
c11
gs
PP
gr
c10
DP
-27 -20 10 -33 -29 19 -28 -19 10 33 -27 20 34 0 11 33 
12 -33 34 0 6414 3028 11 MP
c11
gs
PP
gr
c10
DP
-27 -20 10 -33 -29 19 -28 -19 10 33 -27 20 34 0 11 33 
12 -33 34 0 6574 3138 11 MP
c11
gs
PP
gr
c10
DP
-27 -20 10 -33 -29 19 -28 -19 10 33 -27 20 34 0 11 33 
12 -33 34 0 6750 3255 11 MP
c11
gs
PP
gr
c10
DP
-27 -20 10 -33 -29 19 -28 -19 10 33 -27 20 34 0 11 33 
12 -33 34 0 6909 3383 11 MP
c11
gs
PP
gr
c10
DP
-27 -20 10 -33 -29 19 -28 -19 10 33 -27 20 34 0 11 33 
12 -33 34 0 7076 3521 11 MP
c11
gs
PP
gr
c10
DP
-27 -20 10 -33 -29 19 -28 -19 10 33 -27 20 34 0 11 33 
12 -33 34 0 7254 3611 11 MP
c11
gs
PP
gr
c10
DP
-27 -20 10 -33 -29 19 -28 -19 10 33 -27 20 34 0 11 33 
12 -33 34 0 7425 3718 11 MP
c11
gs
PP
gr
c10
DP
-27 -20 10 -33 -29 19 -28 -19 10 33 -27 20 34 0 11 33 
12 -33 34 0 7577 3851 11 MP
c11
gs
PP
gr
c10
DP
gr

gs 1103 493 6578 5361 rc
/c12 { 0.000000 1.000000 1.000000 sr} bdef
c12
192 73 188 119 184 94 195 98 176 86 222 91 202 114 201 91 
198 118 204 128 212 96 210 98 217 85 225 46 220 53 232 64 
224 63 224 86 229 59 230 38 242 27 234 54 239 36 242 88 
224 12 254 15 232 28 232 14 250 39 62 0 1285 493 31 MP stroke
gr

c12
gs 1151 359 6665 2282 rc
0 j
-55 95 -55 -95 110 0 1230 525 4 MP
DP
-55 95 -55 -95 110 0 1292 525 4 MP
DP
-55 95 -55 -95 110 0 1542 564 4 MP
DP
-55 95 -55 -95 110 0 1774 578 4 MP
DP
-55 95 -55 -95 110 0 2006 606 4 MP
DP
-55 95 -55 -95 110 0 2260 621 4 MP
DP
-55 95 -55 -95 110 0 2484 633 4 MP
DP
-55 95 -55 -95 110 0 2726 721 4 MP
DP
-55 95 -55 -95 110 0 2965 757 4 MP
DP
-55 95 -55 -95 110 0 3199 811 4 MP
DP
-55 95 -55 -95 110 0 3441 838 4 MP
DP
-55 95 -55 -95 110 0 3671 876 4 MP
DP
-55 95 -55 -95 110 0 3900 935 4 MP
DP
-55 95 -55 -95 110 0 4124 1021 4 MP
DP
-55 95 -55 -95 110 0 4348 1084 4 MP
DP
-55 95 -55 -95 110 0 4580 1148 4 MP
DP
-55 95 -55 -95 110 0 4800 1201 4 MP
DP
-55 95 -55 -95 110 0 5025 1247 4 MP
DP
-55 95 -55 -95 110 0 5242 1332 4 MP
DP
-55 95 -55 -95 110 0 5452 1430 4 MP
DP
-55 95 -55 -95 110 0 5664 1526 4 MP
DP
-55 95 -55 -95 110 0 5868 1654 4 MP
DP
-55 95 -55 -95 110 0 6066 1772 4 MP
DP
-55 95 -55 -95 110 0 6267 1863 4 MP
DP
-55 95 -55 -95 110 0 6469 1977 4 MP
DP
-55 95 -55 -95 110 0 6691 2068 4 MP
DP
-55 95 -55 -95 110 0 6867 2154 4 MP
DP
-55 95 -55 -95 110 0 7062 2252 4 MP
DP
-55 95 -55 -95 110 0 7246 2346 4 MP
DP
-55 95 -55 -95 110 0 7434 2465 4 MP
DP
gr

gs 1103 493 6578 5361 rc
/c13 { 0.000000 0.000000 1.000000 sr} bdef
c13
53 40 187 138 187 103 198 100 184 80 217 128 209 108 208 86 
221 40 220 76 226 50 221 61 226 53 222 81 225 37 238 42 
229 49 233 37 230 65 233 31 245 9 237 43 241 31 250 -12 
226 -15 254 15 232 55 231 26 251 0 62 0 1285 493 31 MP stroke
72 w
/c14 { 1.000000 0.000000 0.000000 sr} bdef
c14
182 81 187 107 200 104 179 100 226 108 211 106 210 87 217 69 
225 66 232 32 224 58 229 50 232 31 227 36 244 16 234 21 
236 23 234 42 236 3 245 20 240 6 242 18 247 25 226 -13 
253 40 234 -13 232 14 250 39 62 0 1285 493 30 MP stroke
gr

72 w
c14
0 sg
%%IncludeResource: font Times-Bold
/Times-Bold /ISOLatin1Encoding 312 FMSR

3974 6426 mt 
(Recall) s
 441 3786 mt  -90 rotate
(Precision) s
90 rotate
%%IncludeResource: font Helvetica
/Helvetica /ISOLatin1Encoding 120 FMSR

1086 5896 mt 
( ) s
7664  535 mt 
( ) s
6 w
1 sg
0 2244 5076 0 0 -2244 1548 5580 4 MP
PP
-5076 0 0 2244 5076 0 0 -2244 1548 5580 5 MP stroke
4 w
DO
SO
6 w
0 sg
1548 5580 mt 6624 5580 L
1548 3336 mt 6624 3336 L
1548 5580 mt 1548 3336 L
6624 5580 mt 6624 3336 L
1548 5580 mt 6624 5580 L
1548 5580 mt 1548 3336 L
1548 5580 mt 6624 5580 L
1548 3336 mt 6624 3336 L
1548 5580 mt 1548 3336 L
6624 5580 mt 6624 3336 L
%%IncludeResource: font Times-Bold
/Times-Bold /ISOLatin1Encoding 288 FMSR

2834 3669 mt 
(Resnik) s
gs 1548 3336 5077 2245 rc
36 w
c8
989 0 1745 3564 2 MP stroke
gr

36 w
c8
0 j
0 -76 -76 0 0 76 76 0 2202 3526 5 MP
gs
PP
gr
DP
gs 1548 3336 5077 2245 rc
gr

0 sg
2834 4026 mt 
(BDA-3-Cos) s
gs 1548 3336 5077 2245 rc
DA
c9
989 0 1745 3922 2 MP stroke
SO
gr

c9
0 sg
2834 4384 mt 
(DefVectors-WktWiki-1000) s
gs 1548 3336 5077 2245 rc
c10
989 0 1745 4279 2 MP stroke
gr

c10
-27 -20 10 -33 -29 19 -28 -19 10 33 -27 20 34 0 11 33 
12 -33 34 0 2194 4264 11 MP
c11
gs
PP
gr
c10
DP
gs 1548 3336 5077 2245 rc
gr

0 sg
2834 4741 mt 
(SDA-21-Cos) s
gs 1548 3336 5077 2245 rc
c12
989 0 1745 4636 2 MP stroke
gr

c12
-55 95 -55 -95 110 0 2185 4668 4 MP
DP
gs 1548 3336 5077 2245 rc
gr

0 sg
2834 5099 mt 
(Mean-4best) s
gs 1548 3336 5077 2245 rc
c13
989 0 1745 4993 2 MP stroke
gr

c13
0 sg
2834 5456 mt 
(Mean-E15) s
gs 1548 3336 5077 2245 rc
72 w
c14
989 0 1745 5351 2 MP stroke
6 w
gr

6 w
c14

end %%Color Dict

eplot
%%EndObject

epage
end

showpage

%%Trailer
%%EOF
