%!PS-Adobe-3.0 EPSF-3.0
%%Creator: MATLAB, The Mathworks, Inc. Version 7.10.0.499 (R2010a). Operating System: Microsoft Windows Server 2008 R2.
%%Title: D:\work\sre\results\eacl\cmb\cmp-4best-4mean-8mean-14mean\pr-graph-2.eps
%%CreationDate: 07/17/2012  17:16:12
%%DocumentNeededFonts: Helvetica
%%+ Times-Bold
%%DocumentProcessColors: Cyan Magenta Yellow Black
%%LanguageLevel: 2
%%Pages: 1
%%BoundingBox:   -37   147   651   643
%%EndComments

%%BeginProlog
% MathWorks dictionary
/MathWorks 160 dict begin
% definition operators
/bdef {bind def} bind def
/ldef {load def} bind def
/xdef {exch def} bdef
/xstore {exch store} bdef
% operator abbreviations
/c  /clip ldef
/cc /concat ldef
/cp /closepath ldef
/gr /grestore ldef
/gs /gsave ldef
/mt /moveto ldef
/np /newpath ldef
/cm /currentmatrix ldef
/sm /setmatrix ldef
/rm /rmoveto ldef
/rl /rlineto ldef
/s {show newpath} bdef
/sc {setcmykcolor} bdef
/sr /setrgbcolor ldef
/sg /setgray ldef
/w /setlinewidth ldef
/j /setlinejoin ldef
/cap /setlinecap ldef
/rc {rectclip} bdef
/rf {rectfill} bdef
% page state control
/pgsv () def
/bpage {/pgsv save def} bdef
/epage {pgsv restore} bdef
/bplot /gsave ldef
/eplot {stroke grestore} bdef
% orientation switch
/portraitMode 0 def /landscapeMode 1 def /rotateMode 2 def
% coordinate system mappings
/dpi2point 0 def
% font control
/FontSize 0 def
/FMS {/FontSize xstore findfont [FontSize 0 0 FontSize neg 0 0]
  makefont setfont} bdef
/ISOLatin1Encoding where {pop /WindowsLatin1Encoding 256 array bdef
ISOLatin1Encoding WindowsLatin1Encoding copy pop
/.notdef/.notdef/quotesinglbase/florin/quotedblbase/ellipsis/dagger
/daggerdbl/circumflex/perthousand/Scaron/guilsinglleft/OE/.notdef/.notdef
/.notdef/.notdef/quoteleft/quoteright/quotedblleft/quotedblright/bullet
/endash/emdash/tilde/trademark/scaron/guilsinglright/oe/.notdef/.notdef
/Ydieresis WindowsLatin1Encoding 128 32 getinterval astore pop}
{/WindowsLatin1Encoding StandardEncoding bdef} ifelse
/reencode {exch dup where {pop load} {pop StandardEncoding} ifelse
  exch dup 3 1 roll findfont dup length dict begin
  { 1 index /FID ne {def}{pop pop} ifelse } forall
  /Encoding exch def currentdict end definefont pop} bdef
/isroman {findfont /CharStrings get /Agrave known} bdef
/FMSR {3 1 roll 1 index dup isroman {reencode} {pop pop} ifelse
  exch FMS} bdef
/csm {1 dpi2point div -1 dpi2point div scale neg translate
 dup landscapeMode eq {pop -90 rotate}
  {rotateMode eq {90 rotate} if} ifelse} bdef
% line types: solid, dotted, dashed, dotdash
/SO { [] 0 setdash } bdef
/DO { [.5 dpi2point mul 4 dpi2point mul] 0 setdash } bdef
/DA { [6 dpi2point mul] 0 setdash } bdef
/DD { [.5 dpi2point mul 4 dpi2point mul 6 dpi2point mul 4
  dpi2point mul] 0 setdash } bdef
% macros for lines and objects
/L {lineto stroke} bdef
/MP {3 1 roll moveto 1 sub {rlineto} repeat} bdef
/AP {{rlineto} repeat} bdef
/PDlw -1 def
/W {/PDlw currentlinewidth def setlinewidth} def
/PP {closepath eofill} bdef
/DP {closepath stroke} bdef
/MR {4 -2 roll moveto dup  0 exch rlineto exch 0 rlineto
  neg 0 exch rlineto closepath} bdef
/FR {MR stroke} bdef
/PR {MR fill} bdef
/L1i {{currentfile picstr readhexstring pop} image} bdef
/tMatrix matrix def
/MakeOval {newpath tMatrix currentmatrix pop translate scale
0 0 1 0 360 arc tMatrix setmatrix} bdef
/FO {MakeOval stroke} bdef
/PO {MakeOval fill} bdef
/PD {currentlinewidth 2 div 0 360 arc fill
   PDlw -1 eq not {PDlw w /PDlw -1 def} if} def
/FA {newpath tMatrix currentmatrix pop translate scale
  0 0 1 5 -2 roll arc tMatrix setmatrix stroke} bdef
/PA {newpath tMatrix currentmatrix pop	translate 0 0 moveto scale
  0 0 1 5 -2 roll arc closepath tMatrix setmatrix fill} bdef
/FAn {newpath tMatrix currentmatrix pop translate scale
  0 0 1 5 -2 roll arcn tMatrix setmatrix stroke} bdef
/PAn {newpath tMatrix currentmatrix pop translate 0 0 moveto scale
  0 0 1 5 -2 roll arcn closepath tMatrix setmatrix fill} bdef
/vradius 0 def /hradius 0 def /lry 0 def
/lrx 0 def /uly 0 def /ulx 0 def /rad 0 def
/MRR {/vradius xdef /hradius xdef /lry xdef /lrx xdef /uly xdef
  /ulx xdef newpath tMatrix currentmatrix pop ulx hradius add uly
  vradius add translate hradius vradius scale 0 0 1 180 270 arc 
  tMatrix setmatrix lrx hradius sub uly vradius add translate
  hradius vradius scale 0 0 1 270 360 arc tMatrix setmatrix
  lrx hradius sub lry vradius sub translate hradius vradius scale
  0 0 1 0 90 arc tMatrix setmatrix ulx hradius add lry vradius sub
  translate hradius vradius scale 0 0 1 90 180 arc tMatrix setmatrix
  closepath} bdef
/FRR {MRR stroke } bdef
/PRR {MRR fill } bdef
/MlrRR {/lry xdef /lrx xdef /uly xdef /ulx xdef /rad lry uly sub 2 div def
  newpath tMatrix currentmatrix pop ulx rad add uly rad add translate
  rad rad scale 0 0 1 90 270 arc tMatrix setmatrix lrx rad sub lry rad
  sub translate rad rad scale 0 0 1 270 90 arc tMatrix setmatrix
  closepath} bdef
/FlrRR {MlrRR stroke } bdef
/PlrRR {MlrRR fill } bdef
/MtbRR {/lry xdef /lrx xdef /uly xdef /ulx xdef /rad lrx ulx sub 2 div def
  newpath tMatrix currentmatrix pop ulx rad add uly rad add translate
  rad rad scale 0 0 1 180 360 arc tMatrix setmatrix lrx rad sub lry rad
  sub translate rad rad scale 0 0 1 0 180 arc tMatrix setmatrix
  closepath} bdef
/FtbRR {MtbRR stroke } bdef
/PtbRR {MtbRR fill } bdef
/stri 6 array def /dtri 6 array def
/smat 6 array def /dmat 6 array def
/tmat1 6 array def /tmat2 6 array def /dif 3 array def
/asub {/ind2 exch def /ind1 exch def dup dup
  ind1 get exch ind2 get sub exch } bdef
/tri_to_matrix {
  2 0 asub 3 1 asub 4 0 asub 5 1 asub
  dup 0 get exch 1 get 7 -1 roll astore } bdef
/compute_transform {
  dmat dtri tri_to_matrix tmat1 invertmatrix 
  smat stri tri_to_matrix tmat2 concatmatrix } bdef
/ds {stri astore pop} bdef
/dt {dtri astore pop} bdef
/db {2 copy /cols xdef /rows xdef mul dup 3 mul string
  currentfile 
  3 index 0 eq {/ASCIIHexDecode filter}
  {/ASCII85Decode filter 3 index 2 eq {/RunLengthDecode filter} if }
  ifelse exch readstring pop
  dup 0 3 index getinterval /rbmap xdef
  dup 2 index dup getinterval /gbmap xdef
  1 index dup 2 mul exch getinterval /bbmap xdef pop pop}bdef
/it {gs np dtri aload pop moveto lineto lineto cp c
  cols rows 8 compute_transform 
  rbmap gbmap bbmap true 3 colorimage gr}bdef
/il {newpath moveto lineto stroke}bdef
currentdict end def
%%EndProlog

%%BeginSetup
MathWorks begin

0 cap

end
%%EndSetup

%%Page: 1 1
%%BeginPageSetup
%%PageBoundingBox:   -37   147   651   643
MathWorks begin
bpage
%%EndPageSetup

%%BeginObject: obj1
bplot

/dpi2point 12 def
portraitMode -0444 7716 csm

    0     0  8259  5943 rc
89 dict begin %Colortable dictionary
/c0 { 0.000000 0.000000 0.000000 sr} bdef
/c1 { 1.000000 1.000000 1.000000 sr} bdef
/c2 { 0.900000 0.000000 0.000000 sr} bdef
/c3 { 0.000000 0.820000 0.000000 sr} bdef
/c4 { 0.000000 0.000000 0.800000 sr} bdef
/c5 { 0.910000 0.820000 0.320000 sr} bdef
/c6 { 1.000000 0.260000 0.820000 sr} bdef
/c7 { 0.000000 0.820000 0.820000 sr} bdef
c0
1 j
1 sg
   0    0 8260 5944 rf
6 w
0 4843 6400 0 0 -4843 1074 5289 4 MP
PP
-6400 0 0 4843 6400 0 0 -4843 1074 5289 5 MP stroke
4 w
DO
0 sg
1074 5289 mt 1074  446 L
1074  446 mt 1074  446 L
2354 5289 mt 2354  446 L
2354  446 mt 2354  446 L
3634 5289 mt 3634  446 L
3634  446 mt 3634  446 L
4914 5289 mt 4914  446 L
4914  446 mt 4914  446 L
6194 5289 mt 6194  446 L
6194  446 mt 6194  446 L
7474 5289 mt 7474  446 L
7474  446 mt 7474  446 L
1074 5289 mt 7474 5289 L
7474 5289 mt 7474 5289 L
1074 4320 mt 7474 4320 L
7474 4320 mt 7474 4320 L
1074 3351 mt 7474 3351 L
7474 3351 mt 7474 3351 L
1074 2383 mt 7474 2383 L
7474 2383 mt 7474 2383 L
1074 1414 mt 7474 1414 L
7474 1414 mt 7474 1414 L
1074  446 mt 7474  446 L
7474  446 mt 7474  446 L
SO
6 w
1074 5289 mt 7474 5289 L
1074 5289 mt 1074  446 L
1074 5289 mt 1074 5225 L
%%IncludeResource: font Times-Bold
/Times-Bold /WindowsLatin1Encoding 240 FMSR

1014 5547 mt 
(0) s
2354 5289 mt 2354 5225 L
2204 5547 mt 
(0.1) s
3634 5289 mt 3634 5225 L
3484 5547 mt 
(0.2) s
4914 5289 mt 4914 5225 L
4764 5547 mt 
(0.3) s
6194 5289 mt 6194 5225 L
6044 5547 mt 
(0.4) s
7474 5289 mt 7474 5225 L
7324 5547 mt 
(0.5) s
1074 5289 mt 1138 5289 L
 619 5378 mt 
(0.75) s
1074 4320 mt 1138 4320 L
 739 4409 mt 
(0.8) s
1074 3351 mt 1138 3351 L
 619 3440 mt 
(0.85) s
1074 2383 mt 1138 2383 L
 739 2472 mt 
(0.9) s
1074 1414 mt 1138 1414 L
 619 1503 mt 
(0.95) s
1074  446 mt 1138  446 L
 919  535 mt 
(1) s
gs 1074 446 6401 4844 rc
36 w
/c8 { 0.870588 0.490196 0.000000 sr} bdef
c8
94 96 133 161 140 168 139 183 135 216 156 127 159 155 146 137 
186 157 174 155 179 125 171 169 192 121 192 127 193 123 208 75 
205 95 207 64 219 82 213 73 221 37 223 30 223 15 228 56 
228 17 230 22 232 76 210 84 246 -29 225 -16 220 79 239 69 
59 120 1250 542 34 MP stroke
gr

36 w
c8
0 j
0 -76 -76 0 0 76 76 0 1212 504 5 MP
gs
PP
gr
DP
0 -76 -76 0 0 76 76 0 1271 624 5 MP
gs
PP
gr
DP
0 -76 -76 0 0 76 76 0 1510 693 5 MP
gs
PP
gr
DP
0 -76 -76 0 0 76 76 0 1730 772 5 MP
gs
PP
gr
DP
0 -76 -76 0 0 76 76 0 1955 756 5 MP
gs
PP
gr
DP
0 -76 -76 0 0 76 76 0 2201 727 5 MP
gs
PP
gr
DP
0 -76 -76 0 0 76 76 0 2411 811 5 MP
gs
PP
gr
DP
0 -76 -76 0 0 76 76 0 2643 887 5 MP
gs
PP
gr
DP
0 -76 -76 0 0 76 76 0 2873 909 5 MP
gs
PP
gr
DP
0 -76 -76 0 0 76 76 0 3101 926 5 MP
gs
PP
gr
DP
0 -76 -76 0 0 76 76 0 3329 982 5 MP
gs
PP
gr
DP
0 -76 -76 0 0 76 76 0 3552 997 5 MP
gs
PP
gr
DP
0 -76 -76 0 0 76 76 0 3775 1027 5 MP
gs
PP
gr
DP
0 -76 -76 0 0 76 76 0 3996 1064 5 MP
gs
PP
gr
DP
0 -76 -76 0 0 76 76 0 4209 1137 5 MP
gs
PP
gr
DP
0 -76 -76 0 0 76 76 0 4428 1219 5 MP
gs
PP
gr
DP
0 -76 -76 0 0 76 76 0 4635 1283 5 MP
gs
PP
gr
DP
0 -76 -76 0 0 76 76 0 4840 1378 5 MP
gs
PP
gr
DP
0 -76 -76 0 0 76 76 0 5048 1453 5 MP
gs
PP
gr
DP
0 -76 -76 0 0 76 76 0 5241 1576 5 MP
gs
PP
gr
DP
0 -76 -76 0 0 76 76 0 5433 1703 5 MP
gs
PP
gr
DP
0 -76 -76 0 0 76 76 0 5625 1824 5 MP
gs
PP
gr
DP
0 -76 -76 0 0 76 76 0 5796 1993 5 MP
gs
PP
gr
DP
0 -76 -76 0 0 76 76 0 5975 2118 5 MP
gs
PP
gr
DP
0 -76 -76 0 0 76 76 0 6149 2273 5 MP
gs
PP
gr
DP
0 -76 -76 0 0 76 76 0 6335 2430 5 MP
gs
PP
gr
DP
0 -76 -76 0 0 76 76 0 6481 2567 5 MP
gs
PP
gr
DP
0 -76 -76 0 0 76 76 0 6640 2722 5 MP
gs
PP
gr
DP
0 -76 -76 0 0 76 76 0 6796 2849 5 MP
gs
PP
gr
DP
0 -76 -76 0 0 76 76 0 6931 3065 5 MP
gs
PP
gr
DP
0 -76 -76 0 0 76 76 0 7070 3248 5 MP
gs
PP
gr
DP
0 -76 -76 0 0 76 76 0 7210 3416 5 MP
gs
PP
gr
DP
0 -76 -76 0 0 76 76 0 7343 3577 5 MP
gs
PP
gr
DP
gs 1074 446 6401 4844 rc
DA
/c9 { 0.000000 1.000000 0.000000 sr} bdef
c9
94 33 201 63 193 52 203 50 186 37 234 27 203 80 210 33 
201 71 213 51 215 46 211 47 215 48 214 55 207 67 225 48 
217 52 216 67 224 32 225 -4 232 25 227 23 226 71 236 8 
217 -24 241 24 223 4 219 80 239 67 61 -98 1247 833 31 MP stroke
SO
/c10 { 1.000000 0.000000 1.000000 sr} bdef
c10
57 47 148 121 166 96 173 81 162 125 156 116 171 106 155 99 
196 108 184 108 183 92 193 62 191 99 193 99 200 54 204 60 
201 72 202 50 216 46 203 80 207 75 208 87 205 100 223 35 
216 75 222 43 222 127 205 92 233 116 216 139 217 129 239 67 
59 96 1249 639 34 MP stroke
gr

c10
-27 -20 10 -33 -29 19 -28 -19 10 33 -27 20 34 0 11 33 
12 -33 34 0 1203 624 11 MP
/c11 { 0.749020 0.000000 0.749020 sr} bdef
c11
gs
PP
gr
c10
DP
-27 -20 10 -33 -29 19 -28 -19 10 33 -27 20 34 0 11 33 
12 -33 34 0 1262 720 11 MP
c11
gs
PP
gr
c10
DP
-27 -20 10 -33 -29 19 -28 -19 10 33 -27 20 34 0 11 33 
12 -33 34 0 1501 787 11 MP
c11
gs
PP
gr
c10
DP
-27 -20 10 -33 -29 19 -28 -19 10 33 -27 20 34 0 11 33 
12 -33 34 0 1718 916 11 MP
c11
gs
PP
gr
c10
DP
-27 -20 10 -33 -29 19 -28 -19 10 33 -27 20 34 0 11 33 
12 -33 34 0 1934 1055 11 MP
c11
gs
PP
gr
c10
DP
-27 -20 10 -33 -29 19 -28 -19 10 33 -27 20 34 0 11 33 
12 -33 34 0 2167 1171 11 MP
c11
gs
PP
gr
c10
DP
-27 -20 10 -33 -29 19 -28 -19 10 33 -27 20 34 0 11 33 
12 -33 34 0 2372 1263 11 MP
c11
gs
PP
gr
c10
DP
-27 -20 10 -33 -29 19 -28 -19 10 33 -27 20 34 0 11 33 
12 -33 34 0 2594 1390 11 MP
c11
gs
PP
gr
c10
DP
-27 -20 10 -33 -29 19 -28 -19 10 33 -27 20 34 0 11 33 
12 -33 34 0 2816 1433 11 MP
c11
gs
PP
gr
c10
DP
-27 -20 10 -33 -29 19 -28 -19 10 33 -27 20 34 0 11 33 
12 -33 34 0 3032 1508 11 MP
c11
gs
PP
gr
c10
DP
-27 -20 10 -33 -29 19 -28 -19 10 33 -27 20 34 0 11 33 
12 -33 34 0 3255 1543 11 MP
c11
gs
PP
gr
c10
DP
-27 -20 10 -33 -29 19 -28 -19 10 33 -27 20 34 0 11 33 
12 -33 34 0 3460 1643 11 MP
c11
gs
PP
gr
c10
DP
-27 -20 10 -33 -29 19 -28 -19 10 33 -27 20 34 0 11 33 
12 -33 34 0 3668 1730 11 MP
c11
gs
PP
gr
c10
DP
-27 -20 10 -33 -29 19 -28 -19 10 33 -27 20 34 0 11 33 
12 -33 34 0 3875 1805 11 MP
c11
gs
PP
gr
c10
DP
-27 -20 10 -33 -29 19 -28 -19 10 33 -27 20 34 0 11 33 
12 -33 34 0 4078 1885 11 MP
c11
gs
PP
gr
c10
DP
-27 -20 10 -33 -29 19 -28 -19 10 33 -27 20 34 0 11 33 
12 -33 34 0 4294 1931 11 MP
c11
gs
PP
gr
c10
DP
-27 -20 10 -33 -29 19 -28 -19 10 33 -27 20 34 0 11 33 
12 -33 34 0 4496 1981 11 MP
c11
gs
PP
gr
c10
DP
-27 -20 10 -33 -29 19 -28 -19 10 33 -27 20 34 0 11 33 
12 -33 34 0 4697 2053 11 MP
c11
gs
PP
gr
c10
DP
-27 -20 10 -33 -29 19 -28 -19 10 33 -27 20 34 0 11 33 
12 -33 34 0 4901 2113 11 MP
c11
gs
PP
gr
c10
DP
-27 -20 10 -33 -29 19 -28 -19 10 33 -27 20 34 0 11 33 
12 -33 34 0 5101 2167 11 MP
c11
gs
PP
gr
c10
DP
-27 -20 10 -33 -29 19 -28 -19 10 33 -27 20 34 0 11 33 
12 -33 34 0 5294 2266 11 MP
c11
gs
PP
gr
c10
DP
-27 -20 10 -33 -29 19 -28 -19 10 33 -27 20 34 0 11 33 
12 -33 34 0 5485 2365 11 MP
c11
gs
PP
gr
c10
DP
-27 -20 10 -33 -29 19 -28 -19 10 33 -27 20 34 0 11 33 
12 -33 34 0 5678 2427 11 MP
c11
gs
PP
gr
c10
DP
-27 -20 10 -33 -29 19 -28 -19 10 33 -27 20 34 0 11 33 
12 -33 34 0 5861 2519 11 MP
c11
gs
PP
gr
c10
DP
-27 -20 10 -33 -29 19 -28 -19 10 33 -27 20 34 0 11 33 
12 -33 34 0 6045 2627 11 MP
c11
gs
PP
gr
c10
DP
-27 -20 10 -33 -29 19 -28 -19 10 33 -27 20 34 0 11 33 
12 -33 34 0 6241 2735 11 MP
c11
gs
PP
gr
c10
DP
-27 -20 10 -33 -29 19 -28 -19 10 33 -27 20 34 0 11 33 
12 -33 34 0 6396 2834 11 MP
c11
gs
PP
gr
c10
DP
-27 -20 10 -33 -29 19 -28 -19 10 33 -27 20 34 0 11 33 
12 -33 34 0 6567 2940 11 MP
c11
gs
PP
gr
c10
DP
-27 -20 10 -33 -29 19 -28 -19 10 33 -27 20 34 0 11 33 
12 -33 34 0 6723 3056 11 MP
c11
gs
PP
gr
c10
DP
-27 -20 10 -33 -29 19 -28 -19 10 33 -27 20 34 0 11 33 
12 -33 34 0 6885 3181 11 MP
c11
gs
PP
gr
c10
DP
-27 -20 10 -33 -29 19 -28 -19 10 33 -27 20 34 0 11 33 
12 -33 34 0 7058 3262 11 MP
c11
gs
PP
gr
c10
DP
-27 -20 10 -33 -29 19 -28 -19 10 33 -27 20 34 0 11 33 
12 -33 34 0 7224 3358 11 MP
c11
gs
PP
gr
c10
DP
-27 -20 10 -33 -29 19 -28 -19 10 33 -27 20 34 0 11 33 
12 -33 34 0 7372 3479 11 MP
c11
gs
PP
gr
c10
DP
gs 1074 446 6401 4844 rc
/c12 { 0.000000 1.000000 1.000000 sr} bdef
c12
187 66 183 108 179 84 189 89 172 78 216 82 196 103 196 82 
193 107 198 116 207 86 204 89 211 77 219 41 214 48 226 58 
218 57 217 78 224 52 224 35 235 24 228 50 232 32 236 80 
218 10 247 14 226 25 225 13 244 35 60 0 1251 446 31 MP stroke
gr

c12
-55 95 -55 -95 110 0 1196 478 4 MP
DP
-55 95 -55 -95 110 0 1256 478 4 MP
DP
-55 95 -55 -95 110 0 1500 513 4 MP
DP
-55 95 -55 -95 110 0 1725 526 4 MP
DP
-55 95 -55 -95 110 0 1951 551 4 MP
DP
-55 95 -55 -95 110 0 2198 565 4 MP
DP
-55 95 -55 -95 110 0 2416 575 4 MP
DP
-55 95 -55 -95 110 0 2652 655 4 MP
DP
-55 95 -55 -95 110 0 2884 687 4 MP
DP
-55 95 -55 -95 110 0 3112 737 4 MP
DP
-55 95 -55 -95 110 0 3347 761 4 MP
DP
-55 95 -55 -95 110 0 3571 796 4 MP
DP
-55 95 -55 -95 110 0 3795 848 4 MP
DP
-55 95 -55 -95 110 0 4012 926 4 MP
DP
-55 95 -55 -95 110 0 4230 983 4 MP
DP
-55 95 -55 -95 110 0 4456 1041 4 MP
DP
-55 95 -55 -95 110 0 4670 1089 4 MP
DP
-55 95 -55 -95 110 0 4889 1130 4 MP
DP
-55 95 -55 -95 110 0 5100 1207 4 MP
DP
-55 95 -55 -95 110 0 5304 1296 4 MP
DP
-55 95 -55 -95 110 0 5511 1382 4 MP
DP
-55 95 -55 -95 110 0 5709 1498 4 MP
DP
-55 95 -55 -95 110 0 5902 1605 4 MP
DP
-55 95 -55 -95 110 0 6098 1687 4 MP
DP
-55 95 -55 -95 110 0 6294 1790 4 MP
DP
-55 95 -55 -95 110 0 6510 1872 4 MP
DP
-55 95 -55 -95 110 0 6682 1950 4 MP
DP
-55 95 -55 -95 110 0 6871 2039 4 MP
DP
-55 95 -55 -95 110 0 7050 2123 4 MP
DP
-55 95 -55 -95 110 0 7233 2231 4 MP
DP
gs 1074 446 6401 4844 rc
/c13 { 0.000000 0.000000 1.000000 sr} bdef
c13
52 36 182 125 181 93 194 90 178 73 211 115 203 98 203 78 
215 36 214 69 220 45 215 55 220 48 216 73 219 34 232 37 
223 44 226 34 225 59 226 27 239 9 230 38 235 29 243 -11 
220 -14 247 14 225 49 226 24 244 0 60 0 1251 446 31 MP stroke
72 w
/c14 { 1.000000 0.000000 0.000000 sr} bdef
c14
177 74 182 96 195 94 174 90 220 98 206 95 204 79 211 62 
218 61 227 28 217 52 223 45 226 29 221 32 237 15 228 18 
229 21 228 39 230 2 238 18 234 5 235 17 241 22 220 -11 
246 36 228 -12 225 13 244 35 60 0 1251 446 30 MP stroke
gr

72 w
c14
0 sg
3953 5768 mt 
(Recall) s
 512 3339 mt  -90 rotate
(Precision) s
90 rotate
%%IncludeResource: font Helvetica
/Helvetica /WindowsLatin1Encoding 120 FMSR

1057 5332 mt 
( ) s
7458  488 mt 
( ) s
6 w
1 sg
0 1863 2297 0 0 -1863 1360 4960 4 MP
PP
-2297 0 0 1863 2297 0 0 -1863 1360 4960 5 MP stroke
4 w
DO
SO
6 w
0 sg
1360 3097 mt 3657 3097 L
1360 4960 mt 3657 4960 L
3657 4960 mt 3657 3097 L
1360 4960 mt 1360 3097 L
1360 4960 mt 3657 4960 L
1360 4960 mt 1360 3097 L
1360 3097 mt 3657 3097 L
1360 4960 mt 3657 4960 L
3657 4960 mt 3657 3097 L
1360 4960 mt 1360 3097 L
%%IncludeResource: font Times-Bold
/Times-Bold /WindowsLatin1Encoding 240 FMSR

1884 3356 mt 
(Resnik) s
gs 1360 3097 2298 1864 rc
36 w
c8
403 0 1440 3270 2 MP stroke
gs 1507 3136 269 269 rc
0 -76 -76 0 0 76 76 0 1603 3232 5 MP
gs
PP
gr
DP
gr

gr

36 w
c8
0 sg
1884 3660 mt 
(BDA-3-Cos) s
gs 1360 3097 2298 1864 rc
DA
c9
403 0 1440 3573 2 MP stroke
SO
gr

c9
0 sg
1884 3963 mt 
(WktWiki-1000) s
gs 1360 3097 2298 1864 rc
c10
403 0 1440 3876 2 MP stroke
gs 1507 3742 269 269 rc
-27 -20 10 -33 -29 19 -28 -19 10 33 -27 20 34 0 11 33 
12 -33 34 0 1595 3861 11 MP
c11
gs
PP
gr
c10
DP
gr

gr

c10
0 sg
1884 4267 mt 
(SDA-21-Cos) s
gs 1360 3097 2298 1864 rc
c12
403 0 1440 4180 2 MP stroke
gs 1507 4046 269 269 rc
-55 95 -55 -95 110 0 1586 4212 4 MP
DP
gr

gr

c12
0 sg
1884 4570 mt 
(Mean-4best) s
gs 1360 3097 2298 1864 rc
c13
403 0 1440 4483 2 MP stroke
gr

c13
0 sg
1884 4874 mt 
(Mean-E15) s
gs 1360 3097 2298 1864 rc
72 w
c14
403 0 1440 4786 2 MP stroke
6 w
gr

6 w
c14

end %%Color Dict

eplot
%%EndObject

epage
end

showpage

%%Trailer
%%EOF
