digraph {
// syn
subgraph cluster0{
style=dashed;
"means of transport";
}

subgraph cluster1{
	style=dashed;
	vehicle->car[label=syn,dir=both];
	vehicle->automobile[label=syn,dir=both];
	car->automobile[label=syn,dir=both];
}

subgraph cluster2{
style=dashed;
"large vehicle"->truck[label=syn,dir=both];
"large vehicle"->bus[label=syn,dir=both];
"large vehicle"->van[label=syn,dir=both];
truck->bus[label=syn,dir=both];
truck->van[label=syn,dir=both];
bus->van[label=syn,dir=both];
}

subgraph cluster3{
style=dashed;
"electric vehicle"->electromobile[label=syn,dir=both];
}

subgraph cluster4{
style=dashed;
"air-cushion vehicle";
}

// hyper
"means of transport"->vehicle;
"means of transport"->car;
"means of transport"->automobile;

vehicle->"air-cushion vehicle"[label=hyper];
car->"air-cushion vehicle"[label=hyper];
automobile->"air-cushion vehicle"[label=hyper];

vehicle->"large vehicle"[label=hyper];
vehicle->truck[label=hyper];
vehicle->bus[label=hyper];
vehicle->van[label=hyper];
car->"large vehicle"[label=hyper];
car->truck[label=hyper];
car->bus[label=hyper];
car->van[label=hyper];
automobile->"large vehicle"[label=hyper];
automobile->truck[label=hyper];
automobile->bus[label=hyper];
automobile->van[label=hyper];

vehicle->"electric vehicle"[label=hyper];
vehicle->electromobile[label=hyper];
car->"electric vehicle"[label=hyper];
car->electromobile[label=hyper];
automobile->"electric vehicle"[label=hyper];
automobile->electromobile[label=hyper];

}


