digraph {
rankdir=BT;
vehicle [label="vehicle\ncar,automobile"]
means_of_transport [label="means of transport"] 
air_cushion_vehicle [label="air-cushion vehicle"]
large_vehicle [label="large vehicle\ntruck, bus, van"]
electric_vehicle [label="electric vehicle\nelectromobile"]
//motor_vehicle[label="motor vehicle\nmotorcar, motorized vehicle"]

vehicle ->means_of_transport[label=hyper];
air_cushion_vehicle -> vehicle[label=hyper];
//"camping vehicle" -> vehicle[label=hyper];
electric_vehicle -> vehicle[label=hyper];
large_vehicle -> vehicle[label=hyper];	
//motor_vehicle -> vehicle[label=hyper];
}


