<?xml version="1.0" encoding="UTF-8" standalone="no"?>
<!-- Created with Inkscape (http://www.inkscape.org/) -->

<svg
   xmlns:osb="http://www.openswatchbook.org/uri/2009/osb"
   xmlns:dc="http://purl.org/dc/elements/1.1/"
   xmlns:cc="http://creativecommons.org/ns#"
   xmlns:rdf="http://www.w3.org/1999/02/22-rdf-syntax-ns#"
   xmlns:svg="http://www.w3.org/2000/svg"
   xmlns="http://www.w3.org/2000/svg"
   xmlns:xlink="http://www.w3.org/1999/xlink"
   xmlns:sodipodi="http://sodipodi.sourceforge.net/DTD/sodipodi-0.dtd"
   xmlns:inkscape="http://www.inkscape.org/namespaces/inkscape"
   width="3052.3601"
   height="3744.0901"
   id="svg2"
   version="1.1"
   inkscape:version="0.48.3.1 r9886"
   sodipodi:docname="single-and-hybrid-2.svg">
  <defs
     id="defs4">
    <linearGradient
       id="linearGradient4999"
       osb:paint="solid">
      <stop
         style="stop-color:#000000;stop-opacity:1;"
         offset="0"
         id="stop5001" />
    </linearGradient>
    <marker
       inkscape:stockid="Arrow1Lend"
       orient="auto"
       refY="0.0"
       refX="0.0"
       id="Arrow1Lend"
       style="overflow:visible;">
      <path
         id="path4183"
         d="M 0.0,0.0 L 5.0,-5.0 L -12.5,0.0 L 5.0,5.0 L 0.0,0.0 z "
         style="fill-rule:evenodd;stroke:#000000;stroke-width:1.0pt;marker-start:none;"
         transform="scale(0.8) rotate(180) translate(12.5,0)" />
    </marker>
    <marker
       inkscape:stockid="Arrow2Lstart"
       orient="auto"
       refY="0"
       refX="0"
       id="Arrow2Lstart"
       style="overflow:visible">
      <path
         id="path5088"
         style="font-size:12px;fill-rule:evenodd;stroke-width:0.625;stroke-linejoin:round"
         d="M 8.7185878,4.0337352 -2.2072895,0.01601326 8.7185884,-4.0017078 c -1.7454984,2.3720609 -1.7354408,5.6174519 -6e-7,8.035443 z"
         transform="matrix(1.1,0,0,1.1,1.1,0)"
         inkscape:connector-curvature="0" />
    </marker>
    <marker
       inkscape:stockid="Arrow1Lstart"
       orient="auto"
       refY="0"
       refX="0"
       id="Arrow1Lstart"
       style="overflow:visible">
      <path
         id="path5070"
         d="M 0,0 5,-5 -12.5,0 5,5 0,0 z"
         style="fill-rule:evenodd;stroke:#000000;stroke-width:1pt;marker-start:none"
         transform="matrix(0.8,0,0,0.8,10,0)"
         inkscape:connector-curvature="0" />
    </marker>
    <marker
       inkscape:stockid="Arrow2Lend"
       orient="auto"
       refY="0"
       refX="0"
       id="Arrow2Lend"
       style="overflow:visible">
      <path
         id="path5091"
         style="font-size:12px;fill-rule:evenodd;stroke-width:0.625;stroke-linejoin:round"
         d="M 8.7185878,4.0337352 -2.2072895,0.01601326 8.7185884,-4.0017078 c -1.7454984,2.3720609 -1.7354408,5.6174519 -6e-7,8.035443 z"
         transform="matrix(-1.1,0,0,-1.1,-1.1,0)"
         inkscape:connector-curvature="0" />
    </marker>
    <marker
       inkscape:stockid="Arrow2Lend"
       orient="auto"
       refY="0"
       refX="0"
       id="Arrow2Lend-6"
       style="overflow:visible">
      <path
         id="path5091-1"
         style="font-size:12px;fill-rule:evenodd;stroke-width:0.625;stroke-linejoin:round"
         d="M 8.7185878,4.0337352 -2.2072895,0.01601326 8.7185884,-4.0017078 c -1.7454984,2.3720609 -1.7354408,5.6174519 -6e-7,8.035443 z"
         transform="matrix(-1.1,0,0,-1.1,-1.1,0)"
         inkscape:connector-curvature="0" />
    </marker>
    <marker
       inkscape:stockid="Arrow2Lend"
       orient="auto"
       refY="0"
       refX="0"
       id="Arrow2Lend-6-2"
       style="overflow:visible">
      <path
         id="path5091-1-1"
         style="font-size:12px;fill-rule:evenodd;stroke-width:0.625;stroke-linejoin:round"
         d="M 8.7185878,4.0337352 -2.2072895,0.01601326 8.7185884,-4.0017078 c -1.7454984,2.3720609 -1.7354408,5.6174519 -6e-7,8.035443 z"
         transform="matrix(-1.1,0,0,-1.1,-1.1,0)"
         inkscape:connector-curvature="0" />
    </marker>
    <marker
       inkscape:stockid="Arrow2Lend"
       orient="auto"
       refY="0"
       refX="0"
       id="Arrow2Lend-6-2-0"
       style="overflow:visible">
      <path
         id="path5091-1-1-1"
         style="font-size:12px;fill-rule:evenodd;stroke-width:0.625;stroke-linejoin:round"
         d="M 8.7185878,4.0337352 -2.2072895,0.01601326 8.7185884,-4.0017078 c -1.7454984,2.3720609 -1.7354408,5.6174519 -6e-7,8.035443 z"
         transform="matrix(-1.1,0,0,-1.1,-1.1,0)"
         inkscape:connector-curvature="0" />
    </marker>
    <marker
       inkscape:stockid="Arrow2Lend"
       orient="auto"
       refY="0"
       refX="0"
       id="marker6027"
       style="overflow:visible">
      <path
         id="path6029"
         style="font-size:12px;fill-rule:evenodd;stroke-width:0.625;stroke-linejoin:round"
         d="M 8.7185878,4.0337352 -2.2072895,0.01601326 8.7185884,-4.0017078 c -1.7454984,2.3720609 -1.7354408,5.6174519 -6e-7,8.035443 z"
         transform="matrix(-1.1,0,0,-1.1,-1.1,0)"
         inkscape:connector-curvature="0" />
    </marker>
    <marker
       inkscape:stockid="Arrow2Lend"
       orient="auto"
       refY="0"
       refX="0"
       id="Arrow2Lend-6-3"
       style="overflow:visible">
      <path
         id="path5091-1-7"
         style="font-size:12px;fill-rule:evenodd;stroke-width:0.625;stroke-linejoin:round"
         d="M 8.7185878,4.0337352 -2.2072895,0.01601326 8.7185884,-4.0017078 c -1.7454984,2.3720609 -1.7354408,5.6174519 -6e-7,8.035443 z"
         transform="matrix(-1.1,0,0,-1.1,-1.1,0)"
         inkscape:connector-curvature="0" />
    </marker>
    <marker
       inkscape:stockid="Arrow2Lend"
       orient="auto"
       refY="0"
       refX="0"
       id="Arrow2Lend-4"
       style="overflow:visible">
      <path
         id="path5091-5"
         style="font-size:12px;fill-rule:evenodd;stroke-width:0.625;stroke-linejoin:round"
         d="M 8.7185878,4.0337352 -2.2072895,0.01601326 8.7185884,-4.0017078 c -1.7454984,2.3720609 -1.7354408,5.6174519 -6e-7,8.035443 z"
         transform="matrix(-1.1,0,0,-1.1,-1.1,0)"
         inkscape:connector-curvature="0" />
    </marker>
    <marker
       inkscape:stockid="Arrow2Lend"
       orient="auto"
       refY="0"
       refX="0"
       id="Arrow2Lend-6-2-3"
       style="overflow:visible">
      <path
         id="path5091-1-1-3"
         style="font-size:12px;fill-rule:evenodd;stroke-width:0.625;stroke-linejoin:round"
         d="M 8.7185878,4.0337352 -2.2072895,0.01601326 8.7185884,-4.0017078 c -1.7454984,2.3720609 -1.7354408,5.6174519 -6e-7,8.035443 z"
         transform="matrix(-1.1,0,0,-1.1,-1.1,0)"
         inkscape:connector-curvature="0" />
    </marker>
    <marker
       inkscape:stockid="Arrow2Lend"
       orient="auto"
       refY="0"
       refX="0"
       id="marker6143"
       style="overflow:visible">
      <path
         id="path6145"
         style="font-size:12px;fill-rule:evenodd;stroke-width:0.625;stroke-linejoin:round"
         d="M 8.7185878,4.0337352 -2.2072895,0.01601326 8.7185884,-4.0017078 c -1.7454984,2.3720609 -1.7354408,5.6174519 -6e-7,8.035443 z"
         transform="matrix(-1.1,0,0,-1.1,-1.1,0)"
         inkscape:connector-curvature="0" />
    </marker>
    <marker
       inkscape:stockid="Arrow2Lend"
       orient="auto"
       refY="0"
       refX="0"
       id="Arrow2Lend-6-0"
       style="overflow:visible">
      <path
         id="path5091-1-4"
         style="font-size:12px;fill-rule:evenodd;stroke-width:0.625;stroke-linejoin:round"
         d="M 8.7185878,4.0337352 -2.2072895,0.01601326 8.7185884,-4.0017078 c -1.7454984,2.3720609 -1.7354408,5.6174519 -6e-7,8.035443 z"
         transform="matrix(-1.1,0,0,-1.1,-1.1,0)"
         inkscape:connector-curvature="0" />
    </marker>
    <marker
       inkscape:stockid="Arrow2Lend"
       orient="auto"
       refY="0"
       refX="0"
       id="Arrow2Lend-68"
       style="overflow:visible">
      <path
         id="path5091-6"
         style="font-size:12px;fill-rule:evenodd;stroke-width:0.625;stroke-linejoin:round"
         d="M 8.7185878,4.0337352 -2.2072895,0.01601326 8.7185884,-4.0017078 c -1.7454984,2.3720609 -1.7354408,5.6174519 -6e-7,8.035443 z"
         transform="matrix(-1.1,0,0,-1.1,-1.1,0)"
         inkscape:connector-curvature="0" />
    </marker>
    <marker
       inkscape:stockid="Arrow2Lend"
       orient="auto"
       refY="0"
       refX="0"
       id="Arrow2Lend-6-2-7"
       style="overflow:visible">
      <path
         id="path5091-1-1-5"
         style="font-size:12px;fill-rule:evenodd;stroke-width:0.625;stroke-linejoin:round"
         d="M 8.7185878,4.0337352 -2.2072895,0.01601326 8.7185884,-4.0017078 c -1.7454984,2.3720609 -1.7354408,5.6174519 -6e-7,8.035443 z"
         transform="matrix(-1.1,0,0,-1.1,-1.1,0)"
         inkscape:connector-curvature="0" />
    </marker>
    <marker
       inkscape:stockid="Arrow2Lend"
       orient="auto"
       refY="0"
       refX="0"
       id="marker6259"
       style="overflow:visible">
      <path
         id="path6261"
         style="font-size:12px;fill-rule:evenodd;stroke-width:0.625;stroke-linejoin:round"
         d="M 8.7185878,4.0337352 -2.2072895,0.01601326 8.7185884,-4.0017078 c -1.7454984,2.3720609 -1.7354408,5.6174519 -6e-7,8.035443 z"
         transform="matrix(-1.1,0,0,-1.1,-1.1,0)"
         inkscape:connector-curvature="0" />
    </marker>
    <marker
       inkscape:stockid="Arrow2Lend"
       orient="auto"
       refY="0"
       refX="0"
       id="Arrow2Lend-6-4"
       style="overflow:visible">
      <path
         id="path5091-1-2"
         style="font-size:12px;fill-rule:evenodd;stroke-width:0.625;stroke-linejoin:round"
         d="M 8.7185878,4.0337352 -2.2072895,0.01601326 8.7185884,-4.0017078 c -1.7454984,2.3720609 -1.7354408,5.6174519 -6e-7,8.035443 z"
         transform="matrix(-1.1,0,0,-1.1,-1.1,0)"
         inkscape:connector-curvature="0" />
    </marker>
    <marker
       inkscape:stockid="Arrow2Lend"
       orient="auto"
       refY="0"
       refX="0"
       id="Arrow2Lend-0"
       style="overflow:visible">
      <path
         id="path5091-14"
         style="font-size:12px;fill-rule:evenodd;stroke-width:0.625;stroke-linejoin:round"
         d="M 8.7185878,4.0337352 -2.2072895,0.01601326 8.7185884,-4.0017078 c -1.7454984,2.3720609 -1.7354408,5.6174519 -6e-7,8.035443 z"
         transform="matrix(-1.1,0,0,-1.1,-1.1,0)"
         inkscape:connector-curvature="0" />
    </marker>
    <marker
       inkscape:stockid="Arrow2Lend"
       orient="auto"
       refY="0"
       refX="0"
       id="Arrow2Lend-6-2-76"
       style="overflow:visible">
      <path
         id="path5091-1-1-2"
         style="font-size:12px;fill-rule:evenodd;stroke-width:0.625;stroke-linejoin:round"
         d="M 8.7185878,4.0337352 -2.2072895,0.01601326 8.7185884,-4.0017078 c -1.7454984,2.3720609 -1.7354408,5.6174519 -6e-7,8.035443 z"
         transform="matrix(-1.1,0,0,-1.1,-1.1,0)"
         inkscape:connector-curvature="0" />
    </marker>
    <marker
       inkscape:stockid="Arrow2Lend"
       orient="auto"
       refY="0"
       refX="0"
       id="Arrow2Lend-6-2-8"
       style="overflow:visible">
      <path
         id="path5091-1-1-24"
         style="font-size:12px;fill-rule:evenodd;stroke-width:0.625;stroke-linejoin:round"
         d="M 8.7185878,4.0337352 -2.2072895,0.01601326 8.7185884,-4.0017078 c -1.7454984,2.3720609 -1.7354408,5.6174519 -6e-7,8.035443 z"
         transform="matrix(-1.1,0,0,-1.1,-1.1,0)"
         inkscape:connector-curvature="0" />
    </marker>
    <marker
       inkscape:stockid="Arrow2Lend"
       orient="auto"
       refY="0"
       refX="0"
       id="marker6423"
       style="overflow:visible">
      <path
         id="path6425"
         style="font-size:12px;fill-rule:evenodd;stroke-width:0.625;stroke-linejoin:round"
         d="M 8.7185878,4.0337352 -2.2072895,0.01601326 8.7185884,-4.0017078 c -1.7454984,2.3720609 -1.7354408,5.6174519 -6e-7,8.035443 z"
         transform="matrix(-1.1,0,0,-1.1,-1.1,0)"
         inkscape:connector-curvature="0" />
    </marker>
    <marker
       inkscape:stockid="Arrow2Lend"
       orient="auto"
       refY="0"
       refX="0"
       id="marker6427"
       style="overflow:visible">
      <path
         id="path6429"
         style="font-size:12px;fill-rule:evenodd;stroke-width:0.625;stroke-linejoin:round"
         d="M 8.7185878,4.0337352 -2.2072895,0.01601326 8.7185884,-4.0017078 c -1.7454984,2.3720609 -1.7354408,5.6174519 -6e-7,8.035443 z"
         transform="matrix(-1.1,0,0,-1.1,-1.1,0)"
         inkscape:connector-curvature="0" />
    </marker>
    <marker
       inkscape:stockid="Arrow2Lend"
       orient="auto"
       refY="0"
       refX="0"
       id="Arrow2Lend-6-39"
       style="overflow:visible">
      <path
         id="path5091-1-5"
         style="font-size:12px;fill-rule:evenodd;stroke-width:0.625;stroke-linejoin:round"
         d="M 8.7185878,4.0337352 -2.2072895,0.01601326 8.7185884,-4.0017078 c -1.7454984,2.3720609 -1.7354408,5.6174519 -6e-7,8.035443 z"
         transform="matrix(-1.1,0,0,-1.1,-1.1,0)"
         inkscape:connector-curvature="0" />
    </marker>
    <marker
       inkscape:stockid="Arrow2Lend"
       orient="auto"
       refY="0"
       refX="0"
       id="Arrow2Lend-2"
       style="overflow:visible">
      <path
         id="path5091-0"
         style="font-size:12px;fill-rule:evenodd;stroke-width:0.625;stroke-linejoin:round"
         d="M 8.7185878,4.0337352 -2.2072895,0.01601326 8.7185884,-4.0017078 c -1.7454984,2.3720609 -1.7354408,5.6174519 -6e-7,8.035443 z"
         transform="matrix(-1.1,0,0,-1.1,-1.1,0)"
         inkscape:connector-curvature="0" />
    </marker>
    <marker
       inkscape:stockid="Arrow2Lend"
       orient="auto"
       refY="0"
       refX="0"
       id="marker6435"
       style="overflow:visible">
      <path
         id="path6437"
         style="font-size:12px;fill-rule:evenodd;stroke-width:0.625;stroke-linejoin:round"
         d="M 8.7185878,4.0337352 -2.2072895,0.01601326 8.7185884,-4.0017078 c -1.7454984,2.3720609 -1.7354408,5.6174519 -6e-7,8.035443 z"
         transform="matrix(-1.1,0,0,-1.1,-1.1,0)"
         inkscape:connector-curvature="0" />
    </marker>
    <marker
       inkscape:stockid="Arrow2Lend"
       orient="auto"
       refY="0"
       refX="0"
       id="marker6439"
       style="overflow:visible">
      <path
         id="path6441"
         style="font-size:12px;fill-rule:evenodd;stroke-width:0.625;stroke-linejoin:round"
         d="M 8.7185878,4.0337352 -2.2072895,0.01601326 8.7185884,-4.0017078 c -1.7454984,2.3720609 -1.7354408,5.6174519 -6e-7,8.035443 z"
         transform="matrix(-1.1,0,0,-1.1,-1.1,0)"
         inkscape:connector-curvature="0" />
    </marker>
    <marker
       inkscape:stockid="Arrow2Lend"
       orient="auto"
       refY="0"
       refX="0"
       id="marker6443"
       style="overflow:visible">
      <path
         id="path6445"
         style="font-size:12px;fill-rule:evenodd;stroke-width:0.625;stroke-linejoin:round"
         d="M 8.7185878,4.0337352 -2.2072895,0.01601326 8.7185884,-4.0017078 c -1.7454984,2.3720609 -1.7354408,5.6174519 -6e-7,8.035443 z"
         transform="matrix(-1.1,0,0,-1.1,-1.1,0)"
         inkscape:connector-curvature="0" />
    </marker>
    <marker
       inkscape:stockid="Arrow2Lend"
       orient="auto"
       refY="0"
       refX="0"
       id="marker6447"
       style="overflow:visible">
      <path
         id="path6449"
         style="font-size:12px;fill-rule:evenodd;stroke-width:0.625;stroke-linejoin:round"
         d="M 8.7185878,4.0337352 -2.2072895,0.01601326 8.7185884,-4.0017078 c -1.7454984,2.3720609 -1.7354408,5.6174519 -6e-7,8.035443 z"
         transform="matrix(-1.1,0,0,-1.1,-1.1,0)"
         inkscape:connector-curvature="0" />
    </marker>
    <marker
       inkscape:stockid="Arrow2Lend"
       orient="auto"
       refY="0"
       refX="0"
       id="marker6451"
       style="overflow:visible">
      <path
         id="path6453"
         style="font-size:12px;fill-rule:evenodd;stroke-width:0.625;stroke-linejoin:round"
         d="M 8.7185878,4.0337352 -2.2072895,0.01601326 8.7185884,-4.0017078 c -1.7454984,2.3720609 -1.7354408,5.6174519 -6e-7,8.035443 z"
         transform="matrix(-1.1,0,0,-1.1,-1.1,0)"
         inkscape:connector-curvature="0" />
    </marker>
    <marker
       inkscape:stockid="Arrow2Lend"
       orient="auto"
       refY="0"
       refX="0"
       id="marker6455"
       style="overflow:visible">
      <path
         id="path6457"
         style="font-size:12px;fill-rule:evenodd;stroke-width:0.625;stroke-linejoin:round"
         d="M 8.7185878,4.0337352 -2.2072895,0.01601326 8.7185884,-4.0017078 c -1.7454984,2.3720609 -1.7354408,5.6174519 -6e-7,8.035443 z"
         transform="matrix(-1.1,0,0,-1.1,-1.1,0)"
         inkscape:connector-curvature="0" />
    </marker>
    <marker
       inkscape:stockid="Arrow2Lend"
       orient="auto"
       refY="0"
       refX="0"
       id="marker6459"
       style="overflow:visible">
      <path
         id="path6461"
         style="font-size:12px;fill-rule:evenodd;stroke-width:0.625;stroke-linejoin:round"
         d="M 8.7185878,4.0337352 -2.2072895,0.01601326 8.7185884,-4.0017078 c -1.7454984,2.3720609 -1.7354408,5.6174519 -6e-7,8.035443 z"
         transform="matrix(-1.1,0,0,-1.1,-1.1,0)"
         inkscape:connector-curvature="0" />
    </marker>
    <marker
       inkscape:stockid="Arrow2Lend"
       orient="auto"
       refY="0"
       refX="0"
       id="marker6463"
       style="overflow:visible">
      <path
         id="path6465"
         style="font-size:12px;fill-rule:evenodd;stroke-width:0.625;stroke-linejoin:round"
         d="M 8.7185878,4.0337352 -2.2072895,0.01601326 8.7185884,-4.0017078 c -1.7454984,2.3720609 -1.7354408,5.6174519 -6e-7,8.035443 z"
         transform="matrix(-1.1,0,0,-1.1,-1.1,0)"
         inkscape:connector-curvature="0" />
    </marker>
    <marker
       inkscape:stockid="Arrow2Lend"
       orient="auto"
       refY="0"
       refX="0"
       id="Arrow2Lend-6-2-9"
       style="overflow:visible">
      <path
         id="path5091-1-1-13"
         style="font-size:12px;fill-rule:evenodd;stroke-width:0.625;stroke-linejoin:round"
         d="M 8.7185878,4.0337352 -2.2072895,0.01601326 8.7185884,-4.0017078 c -1.7454984,2.3720609 -1.7354408,5.6174519 -6e-7,8.035443 z"
         transform="matrix(-1.1,0,0,-1.1,-1.1,0)"
         inkscape:connector-curvature="0" />
    </marker>
    <marker
       inkscape:stockid="Arrow2Lend"
       orient="auto"
       refY="0"
       refX="0"
       id="marker7123"
       style="overflow:visible">
      <path
         id="path7125"
         style="font-size:12px;fill-rule:evenodd;stroke-width:0.625;stroke-linejoin:round"
         d="M 8.7185878,4.0337352 -2.2072895,0.01601326 8.7185884,-4.0017078 c -1.7454984,2.3720609 -1.7354408,5.6174519 -6e-7,8.035443 z"
         transform="matrix(-1.1,0,0,-1.1,-1.1,0)"
         inkscape:connector-curvature="0" />
    </marker>
    <marker
       inkscape:stockid="Arrow2Lend"
       orient="auto"
       refY="0"
       refX="0"
       id="marker7127"
       style="overflow:visible">
      <path
         id="path7129"
         style="font-size:12px;fill-rule:evenodd;stroke-width:0.625;stroke-linejoin:round"
         d="M 8.7185878,4.0337352 -2.2072895,0.01601326 8.7185884,-4.0017078 c -1.7454984,2.3720609 -1.7354408,5.6174519 -6e-7,8.035443 z"
         transform="matrix(-1.1,0,0,-1.1,-1.1,0)"
         inkscape:connector-curvature="0" />
    </marker>
    <marker
       inkscape:stockid="Arrow2Lend"
       orient="auto"
       refY="0"
       refX="0"
       id="Arrow2Lend-6-34"
       style="overflow:visible">
      <path
         id="path5091-1-43"
         style="font-size:12px;fill-rule:evenodd;stroke-width:0.625;stroke-linejoin:round"
         d="M 8.7185878,4.0337352 -2.2072895,0.01601326 8.7185884,-4.0017078 c -1.7454984,2.3720609 -1.7354408,5.6174519 -6e-7,8.035443 z"
         transform="matrix(-1.1,0,0,-1.1,-1.1,0)"
         inkscape:connector-curvature="0" />
    </marker>
    <marker
       inkscape:stockid="Arrow2Lend"
       orient="auto"
       refY="0"
       refX="0"
       id="Arrow2Lend-01"
       style="overflow:visible">
      <path
         id="path5091-64"
         style="font-size:12px;fill-rule:evenodd;stroke-width:0.625;stroke-linejoin:round"
         d="M 8.7185878,4.0337352 -2.2072895,0.01601326 8.7185884,-4.0017078 c -1.7454984,2.3720609 -1.7354408,5.6174519 -6e-7,8.035443 z"
         transform="matrix(-1.1,0,0,-1.1,-1.1,0)"
         inkscape:connector-curvature="0" />
    </marker>
    <marker
       inkscape:stockid="Arrow2Lend"
       orient="auto"
       refY="0"
       refX="0"
       id="marker7135"
       style="overflow:visible">
      <path
         id="path7137"
         style="font-size:12px;fill-rule:evenodd;stroke-width:0.625;stroke-linejoin:round"
         d="M 8.7185878,4.0337352 -2.2072895,0.01601326 8.7185884,-4.0017078 c -1.7454984,2.3720609 -1.7354408,5.6174519 -6e-7,8.035443 z"
         transform="matrix(-1.1,0,0,-1.1,-1.1,0)"
         inkscape:connector-curvature="0" />
    </marker>
    <marker
       inkscape:stockid="Arrow2Lend"
       orient="auto"
       refY="0"
       refX="0"
       id="marker7139"
       style="overflow:visible">
      <path
         id="path7141"
         style="font-size:12px;fill-rule:evenodd;stroke-width:0.625;stroke-linejoin:round"
         d="M 8.7185878,4.0337352 -2.2072895,0.01601326 8.7185884,-4.0017078 c -1.7454984,2.3720609 -1.7354408,5.6174519 -6e-7,8.035443 z"
         transform="matrix(-1.1,0,0,-1.1,-1.1,0)"
         inkscape:connector-curvature="0" />
    </marker>
    <marker
       inkscape:stockid="Arrow2Lend"
       orient="auto"
       refY="0"
       refX="0"
       id="marker7143"
       style="overflow:visible">
      <path
         id="path7145"
         style="font-size:12px;fill-rule:evenodd;stroke-width:0.625;stroke-linejoin:round"
         d="M 8.7185878,4.0337352 -2.2072895,0.01601326 8.7185884,-4.0017078 c -1.7454984,2.3720609 -1.7354408,5.6174519 -6e-7,8.035443 z"
         transform="matrix(-1.1,0,0,-1.1,-1.1,0)"
         inkscape:connector-curvature="0" />
    </marker>
    <marker
       inkscape:stockid="Arrow2Lend"
       orient="auto"
       refY="0"
       refX="0"
       id="marker7147"
       style="overflow:visible">
      <path
         id="path7149"
         style="font-size:12px;fill-rule:evenodd;stroke-width:0.625;stroke-linejoin:round"
         d="M 8.7185878,4.0337352 -2.2072895,0.01601326 8.7185884,-4.0017078 c -1.7454984,2.3720609 -1.7354408,5.6174519 -6e-7,8.035443 z"
         transform="matrix(-1.1,0,0,-1.1,-1.1,0)"
         inkscape:connector-curvature="0" />
    </marker>
    <marker
       inkscape:stockid="Arrow2Lend"
       orient="auto"
       refY="0"
       refX="0"
       id="marker7151"
       style="overflow:visible">
      <path
         id="path7153"
         style="font-size:12px;fill-rule:evenodd;stroke-width:0.625;stroke-linejoin:round"
         d="M 8.7185878,4.0337352 -2.2072895,0.01601326 8.7185884,-4.0017078 c -1.7454984,2.3720609 -1.7354408,5.6174519 -6e-7,8.035443 z"
         transform="matrix(-1.1,0,0,-1.1,-1.1,0)"
         inkscape:connector-curvature="0" />
    </marker>
    <marker
       inkscape:stockid="Arrow2Lend"
       orient="auto"
       refY="0"
       refX="0"
       id="marker7155"
       style="overflow:visible">
      <path
         id="path7157"
         style="font-size:12px;fill-rule:evenodd;stroke-width:0.625;stroke-linejoin:round"
         d="M 8.7185878,4.0337352 -2.2072895,0.01601326 8.7185884,-4.0017078 c -1.7454984,2.3720609 -1.7354408,5.6174519 -6e-7,8.035443 z"
         transform="matrix(-1.1,0,0,-1.1,-1.1,0)"
         inkscape:connector-curvature="0" />
    </marker>
    <marker
       inkscape:stockid="Arrow2Lend"
       orient="auto"
       refY="0"
       refX="0"
       id="marker7159"
       style="overflow:visible">
      <path
         id="path7161"
         style="font-size:12px;fill-rule:evenodd;stroke-width:0.625;stroke-linejoin:round"
         d="M 8.7185878,4.0337352 -2.2072895,0.01601326 8.7185884,-4.0017078 c -1.7454984,2.3720609 -1.7354408,5.6174519 -6e-7,8.035443 z"
         transform="matrix(-1.1,0,0,-1.1,-1.1,0)"
         inkscape:connector-curvature="0" />
    </marker>
    <marker
       inkscape:stockid="Arrow2Lend"
       orient="auto"
       refY="0"
       refX="0"
       id="marker7163"
       style="overflow:visible">
      <path
         id="path7165"
         style="font-size:12px;fill-rule:evenodd;stroke-width:0.625;stroke-linejoin:round"
         d="M 8.7185878,4.0337352 -2.2072895,0.01601326 8.7185884,-4.0017078 c -1.7454984,2.3720609 -1.7354408,5.6174519 -6e-7,8.035443 z"
         transform="matrix(-1.1,0,0,-1.1,-1.1,0)"
         inkscape:connector-curvature="0" />
    </marker>
    <marker
       inkscape:stockid="Arrow2Lend"
       orient="auto"
       refY="0"
       refX="0"
       id="marker7163-5"
       style="overflow:visible">
      <path
         id="path7165-9"
         style="font-size:12px;fill-rule:evenodd;stroke-width:0.625;stroke-linejoin:round"
         d="M 8.7185878,4.0337352 -2.2072895,0.01601326 8.7185884,-4.0017078 c -1.7454984,2.3720609 -1.7354408,5.6174519 -6e-7,8.035443 z"
         transform="matrix(-1.1,0,0,-1.1,-1.1,0)"
         inkscape:connector-curvature="0" />
    </marker>
    <marker
       inkscape:stockid="Arrow2Lend"
       orient="auto"
       refY="0"
       refX="0"
       id="marker10590"
       style="overflow:visible">
      <path
         id="path10592"
         style="font-size:12px;fill-rule:evenodd;stroke-width:0.625;stroke-linejoin:round"
         d="M 8.7185878,4.0337352 -2.2072895,0.01601326 8.7185884,-4.0017078 c -1.7454984,2.3720609 -1.7354408,5.6174519 -6e-7,8.035443 z"
         transform="matrix(-1.1,0,0,-1.1,-1.1,0)"
         inkscape:connector-curvature="0" />
    </marker>
    <marker
       inkscape:stockid="Arrow2Lend"
       orient="auto"
       refY="0"
       refX="0"
       id="marker10594"
       style="overflow:visible">
      <path
         id="path10596"
         style="font-size:12px;fill-rule:evenodd;stroke-width:0.625;stroke-linejoin:round"
         d="M 8.7185878,4.0337352 -2.2072895,0.01601326 8.7185884,-4.0017078 c -1.7454984,2.3720609 -1.7354408,5.6174519 -6e-7,8.035443 z"
         transform="matrix(-1.1,0,0,-1.1,-1.1,0)"
         inkscape:connector-curvature="0" />
    </marker>
    <marker
       inkscape:stockid="Arrow1Lstart"
       orient="auto"
       refY="0"
       refX="0"
       id="Arrow1Lstart-4"
       style="overflow:visible">
      <path
         id="path5070-1"
         d="M 0,0 5,-5 -12.5,0 5,5 0,0 z"
         style="fill-rule:evenodd;stroke:#000000;stroke-width:1pt;marker-start:none"
         transform="matrix(0.8,0,0,0.8,10,0)"
         inkscape:connector-curvature="0" />
    </marker>
    <marker
       inkscape:stockid="Arrow2Lend"
       orient="auto"
       refY="0"
       refX="0"
       id="Arrow2Lend-6-2-1"
       style="overflow:visible">
      <path
         id="path5091-1-1-56"
         style="font-size:12px;fill-rule:evenodd;stroke-width:0.625;stroke-linejoin:round"
         d="M 8.7185878,4.0337352 -2.2072895,0.01601326 8.7185884,-4.0017078 c -1.7454984,2.3720609 -1.7354408,5.6174519 -6e-7,8.035443 z"
         transform="matrix(-1.1,0,0,-1.1,-1.1,0)"
         inkscape:connector-curvature="0" />
    </marker>
    <marker
       inkscape:stockid="Arrow2Lend"
       orient="auto"
       refY="0"
       refX="0"
       id="marker10602"
       style="overflow:visible">
      <path
         id="path10604"
         style="font-size:12px;fill-rule:evenodd;stroke-width:0.625;stroke-linejoin:round"
         d="M 8.7185878,4.0337352 -2.2072895,0.01601326 8.7185884,-4.0017078 c -1.7454984,2.3720609 -1.7354408,5.6174519 -6e-7,8.035443 z"
         transform="matrix(-1.1,0,0,-1.1,-1.1,0)"
         inkscape:connector-curvature="0" />
    </marker>
    <marker
       inkscape:stockid="Arrow2Lend"
       orient="auto"
       refY="0"
       refX="0"
       id="marker10606"
       style="overflow:visible">
      <path
         id="path10608"
         style="font-size:12px;fill-rule:evenodd;stroke-width:0.625;stroke-linejoin:round"
         d="M 8.7185878,4.0337352 -2.2072895,0.01601326 8.7185884,-4.0017078 c -1.7454984,2.3720609 -1.7354408,5.6174519 -6e-7,8.035443 z"
         transform="matrix(-1.1,0,0,-1.1,-1.1,0)"
         inkscape:connector-curvature="0" />
    </marker>
    <marker
       inkscape:stockid="Arrow2Lend"
       orient="auto"
       refY="0"
       refX="0"
       id="Arrow2Lend-6-27"
       style="overflow:visible">
      <path
         id="path5091-1-45"
         style="font-size:12px;fill-rule:evenodd;stroke-width:0.625;stroke-linejoin:round"
         d="M 8.7185878,4.0337352 -2.2072895,0.01601326 8.7185884,-4.0017078 c -1.7454984,2.3720609 -1.7354408,5.6174519 -6e-7,8.035443 z"
         transform="matrix(-1.1,0,0,-1.1,-1.1,0)"
         inkscape:connector-curvature="0" />
    </marker>
    <marker
       inkscape:stockid="Arrow2Lend"
       orient="auto"
       refY="0"
       refX="0"
       id="marker10612"
       style="overflow:visible">
      <path
         id="path10614"
         style="font-size:12px;fill-rule:evenodd;stroke-width:0.625;stroke-linejoin:round"
         d="M 8.7185878,4.0337352 -2.2072895,0.01601326 8.7185884,-4.0017078 c -1.7454984,2.3720609 -1.7354408,5.6174519 -6e-7,8.035443 z"
         transform="matrix(-1.1,0,0,-1.1,-1.1,0)"
         inkscape:connector-curvature="0" />
    </marker>
    <marker
       inkscape:stockid="Arrow2Lend"
       orient="auto"
       refY="0"
       refX="0"
       id="marker10616"
       style="overflow:visible">
      <path
         id="path10618"
         style="font-size:12px;fill-rule:evenodd;stroke-width:0.625;stroke-linejoin:round"
         d="M 8.7185878,4.0337352 -2.2072895,0.01601326 8.7185884,-4.0017078 c -1.7454984,2.3720609 -1.7354408,5.6174519 -6e-7,8.035443 z"
         transform="matrix(-1.1,0,0,-1.1,-1.1,0)"
         inkscape:connector-curvature="0" />
    </marker>
    <marker
       inkscape:stockid="Arrow2Lend"
       orient="auto"
       refY="0"
       refX="0"
       id="marker10620"
       style="overflow:visible">
      <path
         id="path10622"
         style="font-size:12px;fill-rule:evenodd;stroke-width:0.625;stroke-linejoin:round"
         d="M 8.7185878,4.0337352 -2.2072895,0.01601326 8.7185884,-4.0017078 c -1.7454984,2.3720609 -1.7354408,5.6174519 -6e-7,8.035443 z"
         transform="matrix(-1.1,0,0,-1.1,-1.1,0)"
         inkscape:connector-curvature="0" />
    </marker>
    <marker
       inkscape:stockid="Arrow2Lend"
       orient="auto"
       refY="0"
       refX="0"
       id="marker10624"
       style="overflow:visible">
      <path
         id="path10626"
         style="font-size:12px;fill-rule:evenodd;stroke-width:0.625;stroke-linejoin:round"
         d="M 8.7185878,4.0337352 -2.2072895,0.01601326 8.7185884,-4.0017078 c -1.7454984,2.3720609 -1.7354408,5.6174519 -6e-7,8.035443 z"
         transform="matrix(-1.1,0,0,-1.1,-1.1,0)"
         inkscape:connector-curvature="0" />
    </marker>
    <marker
       inkscape:stockid="Arrow2Lend"
       orient="auto"
       refY="0"
       refX="0"
       id="marker10628"
       style="overflow:visible">
      <path
         id="path10630"
         style="font-size:12px;fill-rule:evenodd;stroke-width:0.625;stroke-linejoin:round"
         d="M 8.7185878,4.0337352 -2.2072895,0.01601326 8.7185884,-4.0017078 c -1.7454984,2.3720609 -1.7354408,5.6174519 -6e-7,8.035443 z"
         transform="matrix(-1.1,0,0,-1.1,-1.1,0)"
         inkscape:connector-curvature="0" />
    </marker>
    <marker
       inkscape:stockid="Arrow2Lend"
       orient="auto"
       refY="0"
       refX="0"
       id="marker10632"
       style="overflow:visible">
      <path
         id="path10634"
         style="font-size:12px;fill-rule:evenodd;stroke-width:0.625;stroke-linejoin:round"
         d="M 8.7185878,4.0337352 -2.2072895,0.01601326 8.7185884,-4.0017078 c -1.7454984,2.3720609 -1.7354408,5.6174519 -6e-7,8.035443 z"
         transform="matrix(-1.1,0,0,-1.1,-1.1,0)"
         inkscape:connector-curvature="0" />
    </marker>
    <marker
       inkscape:stockid="Arrow2Lend"
       orient="auto"
       refY="0"
       refX="0"
       id="marker7163-9"
       style="overflow:visible">
      <path
         id="path7165-6"
         style="font-size:12px;fill-rule:evenodd;stroke-width:0.625;stroke-linejoin:round"
         d="M 8.7185878,4.0337352 -2.2072895,0.01601326 8.7185884,-4.0017078 c -1.7454984,2.3720609 -1.7354408,5.6174519 -6e-7,8.035443 z"
         transform="matrix(-1.1,0,0,-1.1,-1.1,0)"
         inkscape:connector-curvature="0" />
    </marker>
    <marker
       inkscape:stockid="Arrow2Lend"
       orient="auto"
       refY="0"
       refX="0"
       id="Arrow2Lend-6-2-5"
       style="overflow:visible">
      <path
         id="path5091-1-1-6"
         style="font-size:12px;fill-rule:evenodd;stroke-width:0.625;stroke-linejoin:round"
         d="M 8.7185878,4.0337352 -2.2072895,0.01601326 8.7185884,-4.0017078 c -1.7454984,2.3720609 -1.7354408,5.6174519 -6e-7,8.035443 z"
         transform="matrix(-1.1,0,0,-1.1,-1.1,0)"
         inkscape:connector-curvature="0" />
    </marker>
    <marker
       inkscape:stockid="Arrow2Lend"
       orient="auto"
       refY="0"
       refX="0"
       id="marker11634"
       style="overflow:visible">
      <path
         id="path11636"
         style="font-size:12px;fill-rule:evenodd;stroke-width:0.625;stroke-linejoin:round"
         d="M 8.7185878,4.0337352 -2.2072895,0.01601326 8.7185884,-4.0017078 c -1.7454984,2.3720609 -1.7354408,5.6174519 -6e-7,8.035443 z"
         transform="matrix(-1.1,0,0,-1.1,-1.1,0)"
         inkscape:connector-curvature="0" />
    </marker>
    <marker
       inkscape:stockid="Arrow2Lend"
       orient="auto"
       refY="0"
       refX="0"
       id="marker11638"
       style="overflow:visible">
      <path
         id="path11640"
         style="font-size:12px;fill-rule:evenodd;stroke-width:0.625;stroke-linejoin:round"
         d="M 8.7185878,4.0337352 -2.2072895,0.01601326 8.7185884,-4.0017078 c -1.7454984,2.3720609 -1.7354408,5.6174519 -6e-7,8.035443 z"
         transform="matrix(-1.1,0,0,-1.1,-1.1,0)"
         inkscape:connector-curvature="0" />
    </marker>
    <marker
       inkscape:stockid="Arrow2Lend"
       orient="auto"
       refY="0"
       refX="0"
       id="Arrow2Lend-6-2-2"
       style="overflow:visible">
      <path
         id="path5091-1-1-29"
         style="font-size:12px;fill-rule:evenodd;stroke-width:0.625;stroke-linejoin:round"
         d="M 8.7185878,4.0337352 -2.2072895,0.01601326 8.7185884,-4.0017078 c -1.7454984,2.3720609 -1.7354408,5.6174519 -6e-7,8.035443 z"
         transform="matrix(-1.1,0,0,-1.1,-1.1,0)"
         inkscape:connector-curvature="0" />
    </marker>
    <marker
       inkscape:stockid="Arrow2Lend"
       orient="auto"
       refY="0"
       refX="0"
       id="Arrow2Lend-6-2-87"
       style="overflow:visible">
      <path
         id="path5091-1-1-4"
         style="font-size:12px;fill-rule:evenodd;stroke-width:0.625;stroke-linejoin:round"
         d="M 8.7185878,4.0337352 -2.2072895,0.01601326 8.7185884,-4.0017078 c -1.7454984,2.3720609 -1.7354408,5.6174519 -6e-7,8.035443 z"
         transform="matrix(-1.1,0,0,-1.1,-1.1,0)"
         inkscape:connector-curvature="0" />
    </marker>
    <marker
       inkscape:stockid="Arrow2Lend"
       orient="auto"
       refY="0"
       refX="0"
       id="marker7163-4"
       style="overflow:visible">
      <path
         id="path7165-3"
         style="font-size:12px;fill-rule:evenodd;stroke-width:0.625;stroke-linejoin:round"
         d="M 8.7185878,4.0337352 -2.2072895,0.01601326 8.7185884,-4.0017078 c -1.7454984,2.3720609 -1.7354408,5.6174519 -6e-7,8.035443 z"
         transform="matrix(-1.1,0,0,-1.1,-1.1,0)"
         inkscape:connector-curvature="0" />
    </marker>
    <marker
       inkscape:stockid="Arrow2Lend"
       orient="auto"
       refY="0"
       refX="0"
       id="marker11865"
       style="overflow:visible">
      <path
         id="path11867"
         style="font-size:12px;fill-rule:evenodd;stroke-width:0.625;stroke-linejoin:round"
         d="M 8.7185878,4.0337352 -2.2072895,0.01601326 8.7185884,-4.0017078 c -1.7454984,2.3720609 -1.7354408,5.6174519 -6e-7,8.035443 z"
         transform="matrix(-1.1,0,0,-1.1,-1.1,0)"
         inkscape:connector-curvature="0" />
    </marker>
    <marker
       inkscape:stockid="Arrow2Lend"
       orient="auto"
       refY="0"
       refX="0"
       id="marker11869"
       style="overflow:visible">
      <path
         id="path11871"
         style="font-size:12px;fill-rule:evenodd;stroke-width:0.625;stroke-linejoin:round"
         d="M 8.7185878,4.0337352 -2.2072895,0.01601326 8.7185884,-4.0017078 c -1.7454984,2.3720609 -1.7354408,5.6174519 -6e-7,8.035443 z"
         transform="matrix(-1.1,0,0,-1.1,-1.1,0)"
         inkscape:connector-curvature="0" />
    </marker>
    <marker
       inkscape:stockid="Arrow1Lstart"
       orient="auto"
       refY="0"
       refX="0"
       id="Arrow1Lstart-1"
       style="overflow:visible">
      <path
         id="path5070-8"
         d="M 0,0 5,-5 -12.5,0 5,5 0,0 z"
         style="fill-rule:evenodd;stroke:#000000;stroke-width:1pt;marker-start:none"
         transform="matrix(0.8,0,0,0.8,10,0)"
         inkscape:connector-curvature="0" />
    </marker>
    <marker
       inkscape:stockid="Arrow2Lend"
       orient="auto"
       refY="0"
       refX="0"
       id="marker11875"
       style="overflow:visible">
      <path
         id="path11877"
         style="font-size:12px;fill-rule:evenodd;stroke-width:0.625;stroke-linejoin:round"
         d="M 8.7185878,4.0337352 -2.2072895,0.01601326 8.7185884,-4.0017078 c -1.7454984,2.3720609 -1.7354408,5.6174519 -6e-7,8.035443 z"
         transform="matrix(-1.1,0,0,-1.1,-1.1,0)"
         inkscape:connector-curvature="0" />
    </marker>
    <marker
       inkscape:stockid="Arrow2Lend"
       orient="auto"
       refY="0"
       refX="0"
       id="marker11879"
       style="overflow:visible">
      <path
         id="path11881"
         style="font-size:12px;fill-rule:evenodd;stroke-width:0.625;stroke-linejoin:round"
         d="M 8.7185878,4.0337352 -2.2072895,0.01601326 8.7185884,-4.0017078 c -1.7454984,2.3720609 -1.7354408,5.6174519 -6e-7,8.035443 z"
         transform="matrix(-1.1,0,0,-1.1,-1.1,0)"
         inkscape:connector-curvature="0" />
    </marker>
    <marker
       inkscape:stockid="Arrow2Lend"
       orient="auto"
       refY="0"
       refX="0"
       id="Arrow2Lend-6-1"
       style="overflow:visible">
      <path
         id="path5091-1-73"
         style="font-size:12px;fill-rule:evenodd;stroke-width:0.625;stroke-linejoin:round"
         d="M 8.7185878,4.0337352 -2.2072895,0.01601326 8.7185884,-4.0017078 c -1.7454984,2.3720609 -1.7354408,5.6174519 -6e-7,8.035443 z"
         transform="matrix(-1.1,0,0,-1.1,-1.1,0)"
         inkscape:connector-curvature="0" />
    </marker>
    <marker
       inkscape:stockid="Arrow2Lend"
       orient="auto"
       refY="0"
       refX="0"
       id="marker11885"
       style="overflow:visible">
      <path
         id="path11887"
         style="font-size:12px;fill-rule:evenodd;stroke-width:0.625;stroke-linejoin:round"
         d="M 8.7185878,4.0337352 -2.2072895,0.01601326 8.7185884,-4.0017078 c -1.7454984,2.3720609 -1.7354408,5.6174519 -6e-7,8.035443 z"
         transform="matrix(-1.1,0,0,-1.1,-1.1,0)"
         inkscape:connector-curvature="0" />
    </marker>
    <marker
       inkscape:stockid="Arrow2Lend"
       orient="auto"
       refY="0"
       refX="0"
       id="marker11889"
       style="overflow:visible">
      <path
         id="path11891"
         style="font-size:12px;fill-rule:evenodd;stroke-width:0.625;stroke-linejoin:round"
         d="M 8.7185878,4.0337352 -2.2072895,0.01601326 8.7185884,-4.0017078 c -1.7454984,2.3720609 -1.7354408,5.6174519 -6e-7,8.035443 z"
         transform="matrix(-1.1,0,0,-1.1,-1.1,0)"
         inkscape:connector-curvature="0" />
    </marker>
    <marker
       inkscape:stockid="Arrow2Lend"
       orient="auto"
       refY="0"
       refX="0"
       id="marker11893"
       style="overflow:visible">
      <path
         id="path11895"
         style="font-size:12px;fill-rule:evenodd;stroke-width:0.625;stroke-linejoin:round"
         d="M 8.7185878,4.0337352 -2.2072895,0.01601326 8.7185884,-4.0017078 c -1.7454984,2.3720609 -1.7354408,5.6174519 -6e-7,8.035443 z"
         transform="matrix(-1.1,0,0,-1.1,-1.1,0)"
         inkscape:connector-curvature="0" />
    </marker>
    <marker
       inkscape:stockid="Arrow2Lend"
       orient="auto"
       refY="0"
       refX="0"
       id="marker11897"
       style="overflow:visible">
      <path
         id="path11899"
         style="font-size:12px;fill-rule:evenodd;stroke-width:0.625;stroke-linejoin:round"
         d="M 8.7185878,4.0337352 -2.2072895,0.01601326 8.7185884,-4.0017078 c -1.7454984,2.3720609 -1.7354408,5.6174519 -6e-7,8.035443 z"
         transform="matrix(-1.1,0,0,-1.1,-1.1,0)"
         inkscape:connector-curvature="0" />
    </marker>
    <marker
       inkscape:stockid="Arrow2Lend"
       orient="auto"
       refY="0"
       refX="0"
       id="Arrow2Lend-6-2-52"
       style="overflow:visible">
      <path
         id="path5091-1-1-14"
         style="font-size:12px;fill-rule:evenodd;stroke-width:0.625;stroke-linejoin:round"
         d="M 8.7185878,4.0337352 -2.2072895,0.01601326 8.7185884,-4.0017078 c -1.7454984,2.3720609 -1.7354408,5.6174519 -6e-7,8.035443 z"
         transform="matrix(-1.1,0,0,-1.1,-1.1,0)"
         inkscape:connector-curvature="0" />
    </marker>
    <marker
       inkscape:stockid="Arrow2Lend"
       orient="auto"
       refY="0"
       refX="0"
       id="Arrow2Lend-6-2-05"
       style="overflow:visible">
      <path
         id="path5091-1-1-52"
         style="font-size:12px;fill-rule:evenodd;stroke-width:0.625;stroke-linejoin:round"
         d="M 8.7185878,4.0337352 -2.2072895,0.01601326 8.7185884,-4.0017078 c -1.7454984,2.3720609 -1.7354408,5.6174519 -6e-7,8.035443 z"
         transform="matrix(-1.1,0,0,-1.1,-1.1,0)"
         inkscape:connector-curvature="0" />
    </marker>
    <marker
       inkscape:stockid="Arrow2Lend"
       orient="auto"
       refY="0"
       refX="0"
       id="Arrow2Lend-6-5"
       style="overflow:visible">
      <path
         id="path5091-1-79"
         style="font-size:12px;fill-rule:evenodd;stroke-width:0.625;stroke-linejoin:round"
         d="M 8.7185878,4.0337352 -2.2072895,0.01601326 8.7185884,-4.0017078 c -1.7454984,2.3720609 -1.7354408,5.6174519 -6e-7,8.035443 z"
         transform="matrix(-1.1,0,0,-1.1,-1.1,0)"
         inkscape:connector-curvature="0" />
    </marker>
    <marker
       inkscape:stockid="Arrow2Lend"
       orient="auto"
       refY="0"
       refX="0"
       id="marker12534"
       style="overflow:visible">
      <path
         id="path12536"
         style="font-size:12px;fill-rule:evenodd;stroke-width:0.625;stroke-linejoin:round"
         d="M 8.7185878,4.0337352 -2.2072895,0.01601326 8.7185884,-4.0017078 c -1.7454984,2.3720609 -1.7354408,5.6174519 -6e-7,8.035443 z"
         transform="matrix(-1.1,0,0,-1.1,-1.1,0)"
         inkscape:connector-curvature="0" />
    </marker>
    <marker
       inkscape:stockid="Arrow2Lend"
       orient="auto"
       refY="0"
       refX="0"
       id="marker12538"
       style="overflow:visible">
      <path
         id="path12540"
         style="font-size:12px;fill-rule:evenodd;stroke-width:0.625;stroke-linejoin:round"
         d="M 8.7185878,4.0337352 -2.2072895,0.01601326 8.7185884,-4.0017078 c -1.7454984,2.3720609 -1.7354408,5.6174519 -6e-7,8.035443 z"
         transform="matrix(-1.1,0,0,-1.1,-1.1,0)"
         inkscape:connector-curvature="0" />
    </marker>
    <marker
       inkscape:stockid="Arrow2Lend"
       orient="auto"
       refY="0"
       refX="0"
       id="marker7163-56"
       style="overflow:visible">
      <path
         id="path7165-64"
         style="font-size:12px;fill-rule:evenodd;stroke-width:0.625;stroke-linejoin:round"
         d="M 8.7185878,4.0337352 -2.2072895,0.01601326 8.7185884,-4.0017078 c -1.7454984,2.3720609 -1.7354408,5.6174519 -6e-7,8.035443 z"
         transform="matrix(-1.1,0,0,-1.1,-1.1,0)"
         inkscape:connector-curvature="0" />
    </marker>
    <marker
       inkscape:stockid="Arrow2Lend"
       orient="auto"
       refY="0"
       refX="0"
       id="marker7163-7"
       style="overflow:visible">
      <path
         id="path7165-2"
         style="font-size:12px;fill-rule:evenodd;stroke-width:0.625;stroke-linejoin:round"
         d="M 8.7185878,4.0337352 -2.2072895,0.01601326 8.7185884,-4.0017078 c -1.7454984,2.3720609 -1.7354408,5.6174519 -6e-7,8.035443 z"
         transform="matrix(-1.1,0,0,-1.1,-1.1,0)"
         inkscape:connector-curvature="0" />
    </marker>
    <marker
       inkscape:stockid="Arrow2Lend"
       orient="auto"
       refY="0"
       refX="0"
       id="Arrow2Lend-6-2-35"
       style="overflow:visible">
      <path
         id="path5091-1-1-48"
         style="font-size:12px;fill-rule:evenodd;stroke-width:0.625;stroke-linejoin:round"
         d="M 8.7185878,4.0337352 -2.2072895,0.01601326 8.7185884,-4.0017078 c -1.7454984,2.3720609 -1.7354408,5.6174519 -6e-7,8.035443 z"
         transform="matrix(-1.1,0,0,-1.1,-1.1,0)"
         inkscape:connector-curvature="0" />
    </marker>
    <marker
       inkscape:stockid="Arrow2Lend"
       orient="auto"
       refY="0"
       refX="0"
       id="Arrow2Lend-6-2-97"
       style="overflow:visible">
      <path
         id="path5091-1-1-66"
         style="font-size:12px;fill-rule:evenodd;stroke-width:0.625;stroke-linejoin:round"
         d="M 8.7185878,4.0337352 -2.2072895,0.01601326 8.7185884,-4.0017078 c -1.7454984,2.3720609 -1.7354408,5.6174519 -6e-7,8.035443 z"
         transform="matrix(-1.1,0,0,-1.1,-1.1,0)"
         inkscape:connector-curvature="0" />
    </marker>
    <marker
       inkscape:stockid="Arrow2Lend"
       orient="auto"
       refY="0"
       refX="0"
       id="Arrow2Lend-6-2-6"
       style="overflow:visible">
      <path
         id="path5091-1-1-34"
         style="font-size:12px;fill-rule:evenodd;stroke-width:0.625;stroke-linejoin:round"
         d="M 8.7185878,4.0337352 -2.2072895,0.01601326 8.7185884,-4.0017078 c -1.7454984,2.3720609 -1.7354408,5.6174519 -6e-7,8.035443 z"
         transform="matrix(-1.1,0,0,-1.1,-1.1,0)"
         inkscape:connector-curvature="0" />
    </marker>
    <marker
       inkscape:stockid="Arrow2Lend"
       orient="auto"
       refY="0"
       refX="0"
       id="marker9533"
       style="overflow:visible">
      <path
         id="path9535"
         style="font-size:12px;fill-rule:evenodd;stroke-width:0.625;stroke-linejoin:round"
         d="M 8.7185878,4.0337352 -2.2072895,0.01601326 8.7185884,-4.0017078 c -1.7454984,2.3720609 -1.7354408,5.6174519 -6e-7,8.035443 z"
         transform="matrix(-1.1,0,0,-1.1,-1.1,0)"
         inkscape:connector-curvature="0" />
    </marker>
    <marker
       inkscape:stockid="Arrow2Lend"
       orient="auto"
       refY="0"
       refX="0"
       id="marker9537"
       style="overflow:visible">
      <path
         id="path9539"
         style="font-size:12px;fill-rule:evenodd;stroke-width:0.625;stroke-linejoin:round"
         d="M 8.7185878,4.0337352 -2.2072895,0.01601326 8.7185884,-4.0017078 c -1.7454984,2.3720609 -1.7354408,5.6174519 -6e-7,8.035443 z"
         transform="matrix(-1.1,0,0,-1.1,-1.1,0)"
         inkscape:connector-curvature="0" />
    </marker>
    <marker
       inkscape:stockid="Arrow2Lend"
       orient="auto"
       refY="0"
       refX="0"
       id="Arrow2Lend-6-7"
       style="overflow:visible">
      <path
         id="path5091-1-46"
         style="font-size:12px;fill-rule:evenodd;stroke-width:0.625;stroke-linejoin:round"
         d="M 8.7185878,4.0337352 -2.2072895,0.01601326 8.7185884,-4.0017078 c -1.7454984,2.3720609 -1.7354408,5.6174519 -6e-7,8.035443 z"
         transform="matrix(-1.1,0,0,-1.1,-1.1,0)"
         inkscape:connector-curvature="0" />
    </marker>
    <marker
       inkscape:stockid="Arrow2Lend"
       orient="auto"
       refY="0"
       refX="0"
       id="Arrow2Lend-6-33"
       style="overflow:visible">
      <path
         id="path5091-1-44"
         style="font-size:12px;fill-rule:evenodd;stroke-width:0.625;stroke-linejoin:round"
         d="M 8.7185878,4.0337352 -2.2072895,0.01601326 8.7185884,-4.0017078 c -1.7454984,2.3720609 -1.7354408,5.6174519 -6e-7,8.035443 z"
         transform="matrix(-1.1,0,0,-1.1,-1.1,0)"
         inkscape:connector-curvature="0" />
    </marker>
    <marker
       inkscape:stockid="Arrow2Lend"
       orient="auto"
       refY="0"
       refX="0"
       id="Arrow2Lend-6-2-82"
       style="overflow:visible">
      <path
         id="path5091-1-1-69"
         style="font-size:12px;fill-rule:evenodd;stroke-width:0.625;stroke-linejoin:round"
         d="M 8.7185878,4.0337352 -2.2072895,0.01601326 8.7185884,-4.0017078 c -1.7454984,2.3720609 -1.7354408,5.6174519 -6e-7,8.035443 z"
         transform="matrix(-1.1,0,0,-1.1,-1.1,0)"
         inkscape:connector-curvature="0" />
    </marker>
  </defs>
  <sodipodi:namedview
     id="base"
     pagecolor="#ffffff"
     bordercolor="#666666"
     borderopacity="1.0"
     inkscape:pageopacity="0.0"
     inkscape:pageshadow="2"
     inkscape:zoom="0.70710678"
     inkscape:cx="504.66549"
     inkscape:cy="3156.1628"
     inkscape:document-units="px"
     inkscape:current-layer="layer1"
     showgrid="false"
     inkscape:window-width="1855"
     inkscape:window-height="1176"
     inkscape:window-x="65"
     inkscape:window-y="24"
     inkscape:window-maximized="1"
     showguides="true"
     inkscape:guide-bbox="true">
    <sodipodi:guide
       orientation="0,1"
       position="295.71429,642.85714"
       id="guide3813" />
    <sodipodi:guide
       orientation="0,1"
       position="242.85714,540"
       id="guide3815" />
    <sodipodi:guide
       orientation="0,1"
       position="267.14286,377.14286"
       id="guide4596" />
    <sodipodi:guide
       orientation="0,1"
       position="618.21335,3485.0263"
       id="guide3087" />
    <sodipodi:guide
       orientation="1,0"
       position="748.57142,3485.0263"
       id="guide3110" />
    <sodipodi:guide
       orientation="1,0"
       position="1568.5714,3268.5714"
       id="guide3112" />
    <sodipodi:guide
       orientation="1,0"
       position="2305.7143,3262.8571"
       id="guide3114" />
    <sodipodi:guide
       orientation="1,0"
       position="268.57143,3262.8571"
       id="guide3105" />
    <sodipodi:guide
       orientation="1,0"
       position="304.28571,3235.7143"
       id="guide3109" />
    <sodipodi:guide
       orientation="1,0"
       position="91.923881,3238.549"
       id="guide3159" />
    <sodipodi:guide
       orientation="0,1"
       position="-147.07821,3640.1857"
       id="guide6013" />
    <sodipodi:guide
       orientation="1,0"
       position="1047.8571,3290.7143"
       id="guide7515" />
    <sodipodi:guide
       orientation="0,1"
       position="-147.07821,3640.1857"
       id="guide7598" />
    <sodipodi:guide
       orientation="0,1"
       position="-452.54834,2607.8098"
       id="guide11767" />
    <sodipodi:guide
       orientation="0,1"
       position="-325.26912,2469.2169"
       id="guide11817" />
    <sodipodi:guide
       orientation="0,1"
       position="-384.66609,3577.9603"
       id="guide12251" />
    <sodipodi:guide
       orientation="1,0"
       position="2523.361,3065.813"
       id="guide12424" />
    <sodipodi:guide
       orientation="1,0"
       position="605.08137,3304.209"
       id="guide12486" />
    <sodipodi:guide
       orientation="1,0"
       position="828.72915,2946.514"
       id="guide12494" />
    <sodipodi:guide
       orientation="1,0"
       position="1068,3333"
       id="guide12520" />
    <sodipodi:guide
       orientation="1,0"
       position="569.92807,3426"
       id="guide9262" />
    <sodipodi:guide
       orientation="0,1"
       position="502,2966"
       id="guide9612" />
    <sodipodi:guide
       orientation="0,1"
       position="478.00419,3329.0587"
       id="guide9614" />
    <sodipodi:guide
       orientation="0,1"
       position="878,3426"
       id="guide9736" />
    <sodipodi:guide
       orientation="0,1"
       position="486,3148"
       id="guide5118" />
  </sodipodi:namedview>
  <metadata
     id="metadata7">
    <rdf:RDF>
      <cc:Work
         rdf:about="">
        <dc:format>image/svg+xml</dc:format>
        <dc:type
           rdf:resource="http://purl.org/dc/dcmitype/StillImage" />
        <dc:title></dc:title>
      </cc:Work>
    </rdf:RDF>
  </metadata>
  <g
     inkscape:groupmode="layer"
     id="layer2"
     inkscape:label="frame"
     style="display:inline">
    <rect
       style="fill:#ffffff;fill-opacity:1;stroke:#000000;stroke-width:5.56579733;stroke-miterlimit:4;stroke-opacity:0.57077631;stroke-dasharray:5.56579678, 5.56579678;stroke-dashoffset:0"
       id="rect3329"
       width="553.30328"
       height="233.42776"
       x="546.22363"
       y="385.60364" />
  </g>
  <g
     inkscape:label="Layer 1"
     inkscape:groupmode="layer"
     id="layer1"
     transform="translate(0,2691.7278)">
    <text
       xml:space="preserve"
       style="font-size:40px;font-style:normal;font-weight:normal;line-height:125%;letter-spacing:0px;word-spacing:0px;fill:#000000;fill-opacity:1;stroke:#000000;stroke-opacity:1;font-family:Sans"
       x="509.65521"
       y="553.79071"
       id="text3009-1-4"
       sodipodi:linespacing="125%"><tspan
         sodipodi:role="line"
         x="509.65521"
         y="553.79071"
         id="tspan3785-2-6" /></text>
    <flowRoot
       xml:space="preserve"
       id="flowRoot3896"
       style="font-size:40px;font-style:normal;font-weight:normal;line-height:125%;letter-spacing:0px;word-spacing:0px;fill:#000000;fill-opacity:1;stroke:none;font-family:Sans"><flowRegion
         id="flowRegion3898"><rect
           id="rect3900"
           width="198.57143"
           height="220"
           x="115.71429"
           y="138.3802" /></flowRegion><flowPara
         id="flowPara3902" /></flowRoot>    <text
       xml:space="preserve"
       style="font-size:40px;font-style:normal;font-variant:normal;font-weight:500;font-stretch:normal;text-align:start;line-height:125%;letter-spacing:0px;word-spacing:0px;writing-mode:lr-tb;text-anchor:start;fill:#000000;fill-opacity:1;stroke:#000000;stroke-width:1.0263052;stroke-miterlimit:6;stroke-opacity:1;stroke-dasharray:none;font-family:Kinnari;-inkscape-font-specification:Kinnari Medium"
       x="180.28571"
       y="-2343.5967"
       id="text4682"
       sodipodi:linespacing="125%"><tspan
         sodipodi:role="line"
         id="tspan4684"
         x="180.28571"
         y="-2343.5967"
         style="font-size:40px;font-style:normal;font-variant:normal;font-weight:500;font-stretch:normal;text-align:start;line-height:125%;writing-mode:lr-tb;text-anchor:start;font-family:Kinnari;-inkscape-font-specification:Kinnari Medium">Terms, <tspan
   style="font-style:italic"
   id="tspan5050">C</tspan></tspan></text>
    <text
       xml:space="preserve"
       style="font-size:40px;font-style:normal;font-weight:normal;line-height:125%;letter-spacing:0px;word-spacing:0px;fill:#000000;fill-opacity:1;stroke:#000000;stroke-width:1.03662801;stroke-miterlimit:6;stroke-opacity:1;stroke-dasharray:none;font-family:Times New Roman;-inkscape-font-specification:Times New Roman"
       x="193.99872"
       y="-2238.2847"
       id="text3009-1-3-6"
       sodipodi:linespacing="125%"><tspan
         sodipodi:role="line"
         x="193.99872"
         y="-2238.2847"
         id="tspan3785-2-2-1"
         style="font-style:italic;font-weight:normal"><tspan
           style="font-size:40px;font-style:italic;font-variant:normal;font-weight:normal;font-stretch:normal;text-align:start;line-height:125%;writing-mode:lr-tb;text-anchor:start;font-family:Kinnari;-inkscape-font-specification:Kinnari Medium"
           id="tspan5052">sim</tspan><tspan
           style="font-size:65.00091553%;font-style:italic;font-weight:normal;baseline-shift:sub"
           id="tspan3058">i</tspan></tspan></text>
    <text
       xml:space="preserve"
       style="font-size:50px;font-style:normal;font-variant:normal;font-weight:bold;font-stretch:normal;text-align:start;line-height:125%;letter-spacing:0px;word-spacing:0px;writing-mode:lr-tb;text-anchor:start;fill:#000000;fill-opacity:1;stroke:#000000;stroke-width:1.03662801;stroke-miterlimit:6;stroke-opacity:1;stroke-dasharray:none;font-family:Kinnari;-inkscape-font-specification:Kinnari Bold"
       x="98.571442"
       y="-2340.6641"
       id="text3009-1-5-1"
       sodipodi:linespacing="125%"><tspan
         sodipodi:role="line"
         x="98.571442"
         y="-2340.6641"
         style="font-size:50px;font-style:normal;font-variant:normal;font-weight:bold;font-stretch:normal;text-align:start;line-height:125%;writing-mode:lr-tb;text-anchor:start;font-family:Kinnari;-inkscape-font-specification:Kinnari Bold"
         id="tspan9685">(a) </tspan></text>
    <text
       xml:space="preserve"
       style="font-size:50px;font-style:normal;font-variant:normal;font-weight:bold;font-stretch:normal;text-align:start;line-height:125%;letter-spacing:0px;word-spacing:0px;writing-mode:lr-tb;text-anchor:start;fill:#000000;fill-opacity:1;stroke:#000000;stroke-width:1.03662801;stroke-miterlimit:6;stroke-opacity:1;stroke-dasharray:none;font-family:Kinnari;-inkscape-font-specification:Kinnari Bold"
       x="548.22272"
       y="-2342.6641"
       id="text3009-1-5-1-4-5"
       sodipodi:linespacing="125%"><tspan
         sodipodi:role="line"
         x="548.22272"
         y="-2342.6641"
         id="tspan3785-2-9-7-0-1"
         style="font-size:50px;font-style:normal;font-variant:normal;font-weight:bold;font-stretch:normal;text-align:start;line-height:125%;writing-mode:lr-tb;text-anchor:start;font-family:Kinnari;-inkscape-font-specification:Kinnari Bold">(b) </tspan></text>
    <rect
       style="fill:#000000;fill-opacity:0;stroke:#000000;stroke-width:3.56399989;stroke-miterlimit:6;stroke-opacity:1;stroke-dasharray:none"
       id="rect2987-8"
       width="185.97508"
       height="58.57143"
       x="124.87022"
       y="-2276.6965" />
    <path
       style="fill:none;stroke:#000000;stroke-width:1.73626208;stroke-linecap:butt;stroke-linejoin:miter;stroke-miterlimit:4;stroke-opacity:1;stroke-dasharray:none;marker-end:url(#Arrow2Lend-6-2)"
       d="m 972.698,-2094.3519 0,85.5119"
       id="path5625-8-7-2-6"
       inkscape:connector-type="polyline"
       inkscape:connector-curvature="0" />
    <rect
       style="fill:#1e2020;fill-opacity:0.26484022;stroke:#000000;stroke-width:3.34291267;stroke-miterlimit:6;stroke-opacity:1;stroke-dasharray:none"
       id="rect2987-8-8-3-4-0-0"
       width="496.27313"
       height="58.57143"
       x="569.58392"
       y="-2004.7327"
       inkscape:transform-center-x="-26.684927" />
    <text
       xml:space="preserve"
       style="font-size:40px;font-style:italic;font-variant:normal;font-weight:500;font-stretch:normal;text-align:start;line-height:125%;letter-spacing:0px;word-spacing:0px;writing-mode:lr-tb;text-anchor:start;fill:#000000;fill-opacity:1;stroke:#000000;stroke-width:1.0263052;stroke-miterlimit:6;stroke-opacity:1;stroke-dasharray:none;font-family:Kinnari;-inkscape-font-specification:Kinnari Medium Italic"
       x="659.87079"
       y="-1964.2046"
       id="text4682-6-3-6-2-6-2"
       sodipodi:linespacing="125%"><tspan
         sodipodi:role="line"
         id="tspan4684-6-7-7-8-5-4"
         x="659.87079"
         y="-1964.2046"
         style="font-size:40px;font-style:italic;font-variant:normal;font-weight:500;font-stretch:normal;text-align:start;line-height:125%;writing-mode:lr-tb;text-anchor:start;font-family:Kinnari;-inkscape-font-specification:Kinnari Medium Italic">combination method</tspan></text>
    <path
       style="fill:none;stroke:#000000;stroke-width:0;stroke-linecap:butt;stroke-linejoin:miter;stroke-miterlimit:4;stroke-opacity:1;stroke-dasharray:none;marker-end:url(#Arrow1Lstart)"
       d="M 1186.698,-2245.4948 880.4773,-2336.036"
       id="path7592-1"
       inkscape:connector-type="polyline"
       inkscape:connector-curvature="0" />
    <text
       xml:space="preserve"
       style="font-size:40px;font-style:normal;font-weight:normal;line-height:125%;letter-spacing:0px;word-spacing:0px;fill:#000000;fill-opacity:1;stroke:#000000;stroke-width:1.0263052;stroke-miterlimit:6;stroke-opacity:1;stroke-dasharray:none;font-family:Sans"
       x="835.14313"
       y="-1761.3287"
       id="text4682-6-3-7-3-6"
       sodipodi:linespacing="125%"><tspan
         sodipodi:role="line"
         id="tspan4684-6-7-4-2-51"
         x="835.14313"
         y="-1761.3287"
         style="font-style:italic;font-weight:bold;font-family:Times New Roman;-inkscape-font-specification:Times New Roman">S<tspan
   style="font-size:65.00091553%;font-weight:normal;baseline-shift:sub"
   id="tspan11843">cmb</tspan></tspan></text>
    <text
       xml:space="preserve"
       style="font-size:40px;font-style:normal;font-weight:normal;line-height:125%;letter-spacing:0px;word-spacing:0px;fill:#000000;fill-opacity:1;stroke:#000000;stroke-width:1.0263052;stroke-miterlimit:6;stroke-opacity:1;stroke-dasharray:none;font-family:Sans"
       x="684.76941"
       y="-2025.0417"
       id="text4682-6-0-0-7"
       sodipodi:linespacing="125%"><tspan
         sodipodi:role="line"
         id="tspan4684-6-76-1-6"
         x="684.76941"
         y="-2025.0417"
         style="font-style:italic;font-weight:bold;font-family:Times New Roman;-inkscape-font-specification:Times New Roman">S<tspan
   style="font-size:65.00091553%;font-weight:normal;baseline-shift:sub"
   id="tspan7461-3-3">1</tspan></tspan></text>
    <text
       xml:space="preserve"
       style="font-size:40px;font-style:normal;font-weight:normal;line-height:125%;letter-spacing:0px;word-spacing:0px;fill:#000000;fill-opacity:1;stroke:#000000;stroke-width:1.0263052;stroke-miterlimit:6;stroke-opacity:1;stroke-dasharray:none;font-family:Sans"
       x="990.896"
       y="-2025.0417"
       id="text4682-6-0-6-2-8-0"
       sodipodi:linespacing="125%"><tspan
         sodipodi:role="line"
         id="tspan4684-6-76-4-8-2-2"
         x="990.896"
         y="-2025.0417"
         style="font-style:italic;font-weight:bold;font-family:Times New Roman;-inkscape-font-specification:Times New Roman">S<tspan
   style="font-size:65.00091553%;font-weight:normal;baseline-shift:sub"
   id="tspan7465-9-1">N</tspan></tspan></text>
    <path
       style="fill:none;stroke:#000000;stroke-width:2.04778123;stroke-linecap:butt;stroke-linejoin:miter;stroke-miterlimit:4;stroke-opacity:1;stroke-dasharray:none;marker-end:url(#Arrow2Lend-6-2)"
       d="m 818.4398,-1947.6377 -0.5807,50.3831"
       id="path5819-5-1-0"
       inkscape:connector-type="polyline"
       inkscape:connector-curvature="0" />
    <text
       xml:space="preserve"
       style="font-size:40px;font-style:normal;font-weight:normal;line-height:125%;letter-spacing:0px;word-spacing:0px;fill:#000000;fill-opacity:1;stroke:#000000;stroke-width:1.03662801;stroke-miterlimit:6;stroke-opacity:1;stroke-dasharray:none;font-family:Times New Roman;-inkscape-font-specification:Times New Roman"
       x="633.74402"
       y="-2237.7134"
       id="text3009-1-3-6-8-6"
       sodipodi:linespacing="125%"><tspan
         sodipodi:role="line"
         x="633.74402"
         y="-2237.7134"
         id="tspan3785-2-2-1-1-4"
         style="font-style:italic;font-weight:normal"><tspan
           style="-inkscape-font-specification:Kinnari Medium;font-family:Kinnari;font-weight:500;font-style:italic;font-stretch:normal;font-variant:normal;font-size:40px;text-anchor:start;text-align:start;writing-mode:lr;line-height:125%"
           id="tspan5054">sim</tspan><tspan
           style="font-size:65.00091553%;font-style:italic;font-weight:normal;baseline-shift:sub"
           id="tspan3058-3-6">1</tspan></tspan></text>
    <rect
       style="fill:#1e2020;fill-opacity:0;stroke:#000000;stroke-width:3.56400000000000006;stroke-miterlimit:6;stroke-opacity:1;stroke-dasharray:none;opacity:1"
       id="rect2987-8-5-1"
       width="185.97508"
       height="58.57143"
       x="572.02979"
       y="-2276.4949" />
    <text
       xml:space="preserve"
       style="font-size:40px;font-style:normal;font-weight:normal;line-height:125%;letter-spacing:0px;word-spacing:0px;fill:#000000;fill-opacity:1;stroke:#000000;stroke-width:1.0263052;stroke-miterlimit:6;stroke-opacity:1;stroke-dasharray:none;font-family:Sans"
       x="681.46698"
       y="-2176.6814"
       id="text4682-6-0-65"
       sodipodi:linespacing="125%"><tspan
         sodipodi:role="line"
         id="tspan4684-6-76-1"
         x="681.46698"
         y="-2176.6814"
         style="font-style:italic;font-weight:bold;font-family:Times New Roman;-inkscape-font-specification:Times New Roman">S<tspan
   style="font-size:65.00091553%;font-weight:normal;baseline-shift:sub"
   id="tspan7461-9">1</tspan></tspan></text>
    <path
       style="fill:none;stroke:#000000;stroke-width:1px;stroke-linecap:butt;stroke-linejoin:miter;stroke-opacity:1"
       d="m 690.8869,-2208.7804 0,0"
       id="path5003-0-2"
       inkscape:connector-type="polyline"
       inkscape:connector-curvature="0" />
    <path
       style="fill:none;stroke:#000000;stroke-width:2;stroke-linecap:butt;stroke-linejoin:miter;stroke-miterlimit:4;stroke-opacity:1;stroke-dasharray:none;marker-end:url(#Arrow2Lend-6)"
       d="m 664.67017,-2217.9234 -0.76009,64.1194"
       id="path5029-4-5"
       inkscape:connector-type="polyline"
       inkscape:connector-curvature="0"
       inkscape:connection-start="#rect2987-8-5-1"
       inkscape:connection-start-point="d4" />
    <path
       style="fill:none;stroke:#000000;stroke-width:1px;stroke-linecap:butt;stroke-linejoin:miter;stroke-opacity:1"
       d="m 899.8993,-2210.9903 0,0"
       id="path5003-0-8-4"
       inkscape:connector-type="polyline"
       inkscape:connector-curvature="0" />
    <text
       xml:space="preserve"
       style="font-size:40px;font-style:normal;font-weight:normal;line-height:125%;letter-spacing:0px;word-spacing:0px;fill:#000000;fill-opacity:1;stroke:#000000;stroke-width:1.03662801;stroke-miterlimit:6;stroke-opacity:1;stroke-dasharray:none;font-family:Times New Roman;-inkscape-font-specification:Times New Roman"
       x="929.87079"
       y="-2239.7134"
       id="text3009-1-3-6-8-7-0-7"
       sodipodi:linespacing="125%"><tspan
         sodipodi:role="line"
         x="929.87079"
         y="-2239.7134"
         id="tspan3785-2-2-1-1-9-4-4"
         style="font-style:italic;font-weight:normal"><tspan
           style="-inkscape-font-specification:Kinnari Medium Italic;font-family:Kinnari;font-weight:500;font-style:italic;font-stretch:normal;font-variant:normal;font-size:40px;text-anchor:start;text-align:start;writing-mode:lr;line-height:125%"
           id="tspan5059">sim</tspan><tspan
           style="font-size:65.00091553%;font-style:italic;font-weight:normal;baseline-shift:sub"
           id="tspan3058-3-0-2-2">N</tspan></tspan></text>
    <rect
       style="fill:#1e2020;fill-opacity:0;stroke:#000000;stroke-width:3.56361556000000013;stroke-miterlimit:6;stroke-opacity:1;stroke-dasharray:none"
       id="rect2987-8-5-3-1-5"
       width="185.97508"
       height="58.57143"
       x="880.15649"
       y="-2278.4949" />
    <text
       xml:space="preserve"
       style="font-size:40px;font-style:italic;font-weight:500;line-height:125%;letter-spacing:0px;word-spacing:0px;fill:#000000;fill-opacity:1;stroke:#000000;stroke-width:1.03662801000000004;stroke-miterlimit:6;stroke-opacity:1;stroke-dasharray:none;font-family:Kinnari;-inkscape-font-specification:Kinnari Medium Italic;font-stretch:normal;font-variant:normal;text-anchor:start;text-align:start;writing-mode:lr"
       x="929.87079"
       y="-2114.4941"
       id="text3009-1-3-6-0-46-9-9-3"
       sodipodi:linespacing="125%"><tspan
         sodipodi:role="line"
         x="929.87079"
         y="-2114.4941"
         id="tspan3785-2-2-1-4-4-1-7-8"
         style="font-style:italic;font-weight:500;-inkscape-font-specification:Kinnari Medium Italic;font-family:Kinnari;font-stretch:normal;font-variant:normal;font-size:40px;text-anchor:start;text-align:start;writing-mode:lr;line-height:125%">norm</tspan></text>
    <rect
       style="fill:#1e2020;fill-opacity:0;stroke:#000000;stroke-width:3.56361556000000013;stroke-miterlimit:6;stroke-opacity:1;stroke-dasharray:none"
       id="rect2987-8-8-5-5-3-8"
       width="185.97508"
       height="58.57143"
       x="880.15649"
       y="-2154.6377"
       inkscape:transform-center-x="-9.9999999" />
    <text
       xml:space="preserve"
       style="font-size:40px;font-style:normal;font-weight:normal;line-height:125%;letter-spacing:0px;word-spacing:0px;fill:#000000;fill-opacity:1;stroke:#000000;stroke-width:1.0263052;stroke-miterlimit:6;stroke-opacity:1;stroke-dasharray:none;font-family:Sans"
       x="989.59381"
       y="-2174.6814"
       id="text4682-6-0-6-2-6"
       sodipodi:linespacing="125%"><tspan
         sodipodi:role="line"
         id="tspan4684-6-76-4-8-3"
         x="989.59381"
         y="-2174.6814"
         style="font-style:italic;font-weight:bold;font-family:Times New Roman;-inkscape-font-specification:Times New Roman">S<tspan
   style="font-size:65.00091553%;font-weight:normal;baseline-shift:sub"
   id="tspan7465-7">N</tspan></tspan></text>
    <path
       style="fill:none;stroke:#000000;stroke-width:1px;stroke-linecap:butt;stroke-linejoin:miter;stroke-opacity:1"
       d="m 987.0135,-2210.7803 0,0"
       id="path5003-0-8-1-3"
       inkscape:connector-type="polyline"
       inkscape:connector-curvature="0" />
    <path
       style="fill:none;stroke:#000000;stroke-width:2;stroke-linecap:butt;stroke-linejoin:miter;stroke-miterlimit:4;stroke-opacity:1;stroke-dasharray:none;marker-end:url(#Arrow2Lend-6)"
       d="m 973.14404,-2221.9234 0,65.2857"
       id="path5029-4-1-2-2"
       inkscape:connector-type="polyline"
       inkscape:connector-curvature="0" />
    <text
       xml:space="preserve"
       style="font-size:40px;font-style:normal;font-weight:normal;line-height:125%;letter-spacing:0px;word-spacing:0px;fill:#000000;fill-opacity:1;stroke:#000000;stroke-width:1.0263052;stroke-miterlimit:6;stroke-opacity:1;stroke-dasharray:none;font-family:Sans"
       x="807.38672"
       y="-2238.95"
       id="text4682-6-0-6-7-0"
       sodipodi:linespacing="125%"><tspan
         sodipodi:role="line"
         id="tspan4684-6-76-4-2-2"
         x="807.38672"
         y="-2238.95"
         style="font-style:italic;font-weight:bold;font-family:Times New Roman;-inkscape-font-specification:Times New Roman">...<tspan
   style="font-size:65.00091553%;font-weight:normal;baseline-shift:sub"
   id="tspan7463-2-1" /></tspan></text>
    <text
       xml:space="preserve"
       style="font-size:40px;font-style:normal;font-weight:normal;line-height:125%;letter-spacing:0px;word-spacing:0px;fill:#000000;fill-opacity:1;stroke:#000000;stroke-width:1.0263052;stroke-miterlimit:6;stroke-opacity:1;stroke-dasharray:none;font-family:Sans"
       x="806.05981"
       y="-2112.2673"
       id="text4682-6-0-6-7-5-3"
       sodipodi:linespacing="125%"><tspan
         sodipodi:role="line"
         id="tspan4684-6-76-4-2-9-7"
         x="806.05981"
         y="-2112.2673"
         style="font-style:italic;font-weight:bold;font-family:Times New Roman;-inkscape-font-specification:Times New Roman">...<tspan
   style="font-size:65.00091553%;font-weight:normal;baseline-shift:sub"
   id="tspan7463-2-5-38" /></tspan></text>
    <path
       style="fill:none;stroke:#000000;stroke-width:2;stroke-linecap:butt;stroke-linejoin:miter;stroke-opacity:1;stroke-miterlimit:4;stroke-dasharray:none;marker-end:url(#marker7163-7)"
       d="M 823.7794,351.09009 665,409.09008"
       id="path8204"
       inkscape:connector-curvature="0"
       transform="translate(0,-2691.7278)" />
    <path
       style="fill:none;stroke:#000000;stroke-width:2;stroke-linecap:butt;stroke-linejoin:miter;stroke-opacity:1;stroke-miterlimit:4;stroke-dasharray:none;marker-end:url(#marker7163-7)"
       d="M 823.7794,351.09009 973,407.09008"
       id="path8898"
       inkscape:connector-curvature="0"
       transform="translate(0,-2691.7278)" />
    <flowRoot
       xml:space="preserve"
       id="flowRoot9246"
       style="fill:black;stroke:none;stroke-opacity:1;stroke-width:1px;stroke-linejoin:miter;stroke-linecap:butt;fill-opacity:1;font-family:Sans;font-style:normal;font-weight:normal;font-size:40px;line-height:125%;letter-spacing:0px;word-spacing:0px"><flowRegion
         id="flowRegion9248"><rect
           id="rect9250"
           width="320"
           height="264"
           x="772"
           y="722.09009" /></flowRegion><flowPara
         id="flowPara9252" /></flowRoot>    <flowRoot
       xml:space="preserve"
       id="flowRoot9254"
       style="fill:black;stroke:none;stroke-opacity:1;stroke-width:1px;stroke-linejoin:miter;stroke-linecap:butt;fill-opacity:1;font-family:Sans;font-style:normal;font-weight:normal;font-size:40px;line-height:125%;letter-spacing:0px;word-spacing:0px"><flowRegion
         id="flowRegion9256"><rect
           id="rect9258"
           width="510"
           height="240"
           x="666"
           y="724.09009" /></flowRegion><flowPara
         id="flowPara9260" /></flowRoot>    <path
       style="fill:none;stroke:#000000;stroke-width:2.04778123;stroke-linecap:butt;stroke-linejoin:miter;stroke-miterlimit:4;stroke-opacity:1;stroke-dasharray:none;marker-end:url(#Arrow2Lend-6-2)"
       d="m 818.3601,-1691.8445 -0.5807,50.3831"
       id="path5819-5-1-0-1"
       inkscape:connector-type="polyline"
       inkscape:connector-curvature="0" />
    <path
       style="fill:none;stroke:#000000;stroke-width:2.567029;stroke-linecap:butt;stroke-linejoin:miter;stroke-miterlimit:4;stroke-opacity:1;stroke-dasharray:none;marker-end:url(#Arrow2Lend-6-2)"
       d="m 818.72915,-1831.0992 -0.5807,79.1734"
       id="path5819-5-1-0-8"
       inkscape:connector-type="polyline"
       inkscape:connector-curvature="0" />
    <text
       xml:space="preserve"
       style="font-size:40px;font-style:italic;font-weight:500;line-height:125%;letter-spacing:0px;word-spacing:0px;fill:#000000;fill-opacity:1;stroke:#000000;stroke-width:1.03662801000000004;stroke-miterlimit:6;stroke-opacity:1;stroke-dasharray:none;font-family:Kinnari;-inkscape-font-specification:Kinnari Medium Italic;font-stretch:normal;font-variant:normal;text-anchor:start;text-align:start;writing-mode:lr"
       x="621.08136"
       y="-2111.6892"
       id="text3009-1-3-6-0-46-9-9-3-5"
       sodipodi:linespacing="125%"><tspan
         sodipodi:role="line"
         x="621.08136"
         y="-2111.6892"
         id="tspan3785-2-2-1-4-4-1-7-8-5"
         style="font-style:italic;font-weight:500;-inkscape-font-specification:Kinnari Medium Italic;font-family:Kinnari;font-stretch:normal;font-variant:normal;font-size:40px;text-anchor:start;text-align:start;writing-mode:lr;line-height:125%">norm</tspan></text>
    <rect
       style="fill:#1e2020;fill-opacity:0;stroke:#000000;stroke-width:3.56361556000000013;stroke-miterlimit:6;stroke-opacity:1;stroke-dasharray:none"
       id="rect2987-8-8-5-5-3-8-6"
       width="185.97508"
       height="58.57143"
       x="571.36707"
       y="-2151.8328"
       inkscape:transform-center-x="-9.9999999" />
    <text
       xml:space="preserve"
       style="font-size:40px;font-style:italic;font-variant:normal;font-weight:500;font-stretch:normal;text-align:start;line-height:125%;letter-spacing:0px;word-spacing:0px;writing-mode:lr-tb;text-anchor:start;fill:#000000;fill-opacity:1;stroke:#000000;stroke-width:1.03662801;stroke-miterlimit:6;stroke-opacity:1;stroke-dasharray:none;font-family:Kinnari;-inkscape-font-specification:Kinnari Medium Italic"
       x="774.57141"
       y="-1850.7798"
       id="text3009-1-3-6-0-46-9-9-3-8"
       sodipodi:linespacing="125%"><tspan
         sodipodi:role="line"
         x="774.57141"
         y="-1850.7798"
         id="tspan3785-2-2-1-4-4-1-7-8-4"
         style="font-size:40px;font-style:italic;font-variant:normal;font-weight:500;font-stretch:normal;text-align:start;line-height:125%;writing-mode:lr-tb;text-anchor:start;font-family:Kinnari;-inkscape-font-specification:Kinnari Medium Italic">norm</tspan></text>
    <rect
       style="fill:#1e2020;fill-opacity:0;stroke:#000000;stroke-width:3.56361556;stroke-miterlimit:6;stroke-opacity:1;stroke-dasharray:none"
       id="rect2987-8-8-5-5-3-8-1"
       width="185.97508"
       height="58.57143"
       x="724.85712"
       y="-1890.9233"
       inkscape:transform-center-x="-9.9999999" />
    <text
       xml:space="preserve"
       style="font-size:40px;font-style:normal;font-weight:normal;line-height:125%;letter-spacing:0px;word-spacing:0px;fill:#000000;fill-opacity:1;stroke:#000000;stroke-width:1.0263052;stroke-miterlimit:6;stroke-opacity:1;stroke-dasharray:none;font-family:Sans"
       x="836.72913"
       y="-1906.5225"
       id="text4682-6-3-7-3-6-3"
       sodipodi:linespacing="125%"><tspan
         sodipodi:role="line"
         id="tspan4684-6-7-4-2-51-2"
         x="836.72913"
         y="-1906.5225"
         style="font-style:italic;font-weight:bold;font-family:Times New Roman;-inkscape-font-specification:Times New Roman">S<tspan
   style="font-size:65.00091553%;font-weight:normal;baseline-shift:sub"
   id="tspan11843-5">cmb</tspan></tspan></text>
    <text
       xml:space="preserve"
       style="font-size:40px;font-style:italic;font-weight:500;line-height:125%;letter-spacing:0px;word-spacing:0px;fill:#000000;fill-opacity:1;stroke:#000000;stroke-width:1.03662801000000004;stroke-miterlimit:6;stroke-opacity:1;stroke-dasharray:none;font-family:Kinnari;-inkscape-font-specification:Kinnari Medium Italic;font-stretch:normal;font-variant:normal;text-anchor:start;text-align:start;writing-mode:lr"
       x="781.72681"
       y="-1709.7799"
       id="text3009-1-3-6-0-46-9-9-3-8-4"
       sodipodi:linespacing="125%"><tspan
         sodipodi:role="line"
         x="781.72681"
         y="-1709.7799"
         id="tspan3785-2-2-1-4-4-1-7-8-4-1"
         style="font-style:italic;font-weight:500;-inkscape-font-specification:Kinnari Medium Italic;font-family:Kinnari;font-stretch:normal;font-variant:normal;font-size:40px;text-anchor:start;text-align:start;writing-mode:lr;line-height:125%">knn</tspan></text>
    <rect
       style="fill:#1e2020;fill-opacity:0;stroke:#000000;stroke-width:3.56361556;stroke-miterlimit:6;stroke-opacity:1;stroke-dasharray:none"
       id="rect2987-8-8-5-5-3-8-1-7"
       width="185.97508"
       height="58.57143"
       x="722.01251"
       y="-1749.9235"
       inkscape:transform-center-x="-9.9999999" />
    <text
       xml:space="preserve"
       style="font-size:40px;font-style:normal;font-weight:normal;line-height:125%;letter-spacing:0px;word-spacing:0px;fill:#000000;fill-opacity:1;stroke:#000000;stroke-width:1.0263052;stroke-miterlimit:6;stroke-opacity:1;stroke-dasharray:none;font-family:Sans"
       x="290.27173"
       y="-1609.1447"
       id="text4682-6-3-6-2-2-1"
       sodipodi:linespacing="125%"><tspan
         sodipodi:role="line"
         id="tspan4684-6-7-7-8-56-8"
         x="290.27173"
         y="-1609.1447"
         style="font-style:italic;font-weight:normal;font-family:Times New Roman;-inkscape-font-specification:Times New Roman">R<tspan
   style="font-size:65.00091553%;baseline-shift:sub"
   id="tspan11849-9" /></tspan></text>
    <text
       xml:space="preserve"
       style="font-size:40px;font-style:normal;font-weight:normal;line-height:125%;letter-spacing:0px;word-spacing:0px;fill:#000000;fill-opacity:1;stroke:#000000;stroke-width:1.0263052;stroke-miterlimit:6;stroke-opacity:1;stroke-dasharray:none;font-family:Sans"
       x="240.72076"
       y="-1761.3112"
       id="text4682-6-3-7-3-6-0"
       sodipodi:linespacing="125%"><tspan
         sodipodi:role="line"
         id="tspan4684-6-7-4-2-51-4"
         x="240.72076"
         y="-1761.3112"
         style="font-style:italic;font-weight:bold;font-family:Times New Roman;-inkscape-font-specification:Times New Roman">S<tspan
   style="font-size:65.00091553%;font-weight:normal;baseline-shift:sub"
   id="tspan11843-4">i</tspan></tspan></text>
    <path
       style="fill:none;stroke:#000000;stroke-width:2.0480001;stroke-linecap:butt;stroke-linejoin:miter;stroke-miterlimit:4;stroke-opacity:1;stroke-dasharray:none;marker-end:url(#Arrow2Lend-6-2)"
       d="m 223.93775,-1691.8268 -0.5807,50.3831"
       id="path5819-5-1-0-1-9"
       inkscape:connector-type="polyline"
       inkscape:connector-curvature="0" />
    <path
       style="fill:none;stroke:#000000;stroke-width:2;stroke-linecap:butt;stroke-linejoin:miter;stroke-miterlimit:4;stroke-opacity:1;stroke-dasharray:none;marker-end:url(#Arrow2Lend-6-2)"
       d="m 224.3068,-2095.6377 -0.5807,343.7296"
       id="path5819-5-1-0-8-4"
       inkscape:connector-type="polyline"
       inkscape:connector-curvature="0" />
    <text
       xml:space="preserve"
       style="font-size:40px;font-style:italic;font-variant:normal;font-weight:500;font-stretch:normal;text-align:start;line-height:125%;letter-spacing:0px;word-spacing:0px;writing-mode:lr-tb;text-anchor:start;fill:#000000;fill-opacity:1;stroke:#000000;stroke-width:1.03662801;stroke-miterlimit:6;stroke-opacity:1;stroke-dasharray:none;font-family:Kinnari;-inkscape-font-specification:Kinnari Medium Italic"
       x="180.14905"
       y="-2112.7622"
       id="text3009-1-3-6-0-46-9-9-3-8-48"
       sodipodi:linespacing="125%"><tspan
         sodipodi:role="line"
         x="180.14905"
         y="-2112.7622"
         id="tspan3785-2-2-1-4-4-1-7-8-4-16"
         style="font-size:40px;font-style:italic;font-variant:normal;font-weight:500;font-stretch:normal;text-align:start;line-height:125%;writing-mode:lr-tb;text-anchor:start;font-family:Kinnari;-inkscape-font-specification:Kinnari Medium Italic">norm</tspan></text>
    <rect
       style="fill:#1e2020;fill-opacity:0;stroke:#000000;stroke-width:3.56361556;stroke-miterlimit:6;stroke-opacity:1;stroke-dasharray:none"
       id="rect2987-8-8-5-5-3-8-1-5"
       width="185.97508"
       height="58.57143"
       x="130.43475"
       y="-2152.9058"
       inkscape:transform-center-x="-9.9999999" />
    <text
       xml:space="preserve"
       style="font-size:40px;font-style:normal;font-weight:normal;line-height:125%;letter-spacing:0px;word-spacing:0px;fill:#000000;fill-opacity:1;stroke:#000000;stroke-width:1.0263052;stroke-miterlimit:6;stroke-opacity:1;stroke-dasharray:none;font-family:Sans"
       x="242.30676"
       y="-2168.5049"
       id="text4682-6-3-7-3-6-3-0"
       sodipodi:linespacing="125%"><tspan
         sodipodi:role="line"
         id="tspan4684-6-7-4-2-51-2-1"
         x="242.30676"
         y="-2168.5049"
         style="font-style:italic;font-weight:bold;font-family:Times New Roman;-inkscape-font-specification:Times New Roman">S<tspan
   style="font-size:65.00091553%;font-weight:normal;baseline-shift:sub"
   id="tspan11843-5-5">i</tspan></tspan></text>
    <text
       xml:space="preserve"
       style="font-size:40px;font-style:italic;font-weight:500;line-height:125%;letter-spacing:0px;word-spacing:0px;fill:#000000;fill-opacity:1;stroke:#000000;stroke-width:1.03662801000000004;stroke-miterlimit:6;stroke-opacity:1;stroke-dasharray:none;font-family:Kinnari;-inkscape-font-specification:Kinnari Medium Italic;font-stretch:normal;font-variant:normal;text-anchor:start;text-align:start;writing-mode:lr"
       x="187.30444"
       y="-1709.7623"
       id="text3009-1-3-6-0-46-9-9-3-8-4-8"
       sodipodi:linespacing="125%"><tspan
         sodipodi:role="line"
         x="187.30444"
         y="-1709.7623"
         id="tspan3785-2-2-1-4-4-1-7-8-4-1-6"
         style="font-style:italic;font-weight:500;-inkscape-font-specification:Kinnari Medium Italic;font-family:Kinnari;font-stretch:normal;font-variant:normal;font-size:40px;text-anchor:start;text-align:start;writing-mode:lr;line-height:125%">knn</tspan></text>
    <rect
       style="fill:#1e2020;fill-opacity:0;stroke:#000000;stroke-width:3.56361556;stroke-miterlimit:6;stroke-opacity:1;stroke-dasharray:none"
       id="rect2987-8-8-5-5-3-8-1-7-0"
       width="185.97508"
       height="58.57143"
       x="127.59015"
       y="-1749.9059"
       inkscape:transform-center-x="-9.9999999" />
    <path
       style="fill:none;stroke:#000000;stroke-width:2;stroke-linecap:butt;stroke-linejoin:miter;stroke-miterlimit:4;stroke-opacity:1;stroke-dasharray:none;marker-end:url(#Arrow2Lend-6)"
       d="m 225.0458,-2340.8158 -0.76009,64.1194"
       id="path5029-4-5-4"
       inkscape:connector-type="polyline"
       inkscape:connector-curvature="0" />
    <path
       style="fill:none;stroke:#000000;stroke-width:2;stroke-linecap:butt;stroke-linejoin:miter;stroke-miterlimit:4;stroke-opacity:1;stroke-dasharray:none;marker-end:url(#Arrow2Lend-6)"
       d="m 225.0458,-2215.8866 -0.76009,60.3654"
       id="path5029-4-5-4-9"
       inkscape:connector-type="polyline"
       inkscape:connector-curvature="0" />
    <text
       xml:space="preserve"
       style="font-size:40px;font-style:normal;font-variant:normal;font-weight:500;font-stretch:normal;text-align:start;line-height:125%;letter-spacing:0px;word-spacing:0px;writing-mode:lr-tb;text-anchor:start;fill:#000000;fill-opacity:1;stroke:#000000;stroke-width:1.03662801;stroke-miterlimit:6;stroke-opacity:1;stroke-dasharray:none;font-family:Kinnari;-inkscape-font-specification:Kinnari Medium"
       x="-2306.6965"
       y="-340.00418"
       id="text3009-1-5-1-4"
       sodipodi:linespacing="125%"
       transform="matrix(0,1,-1,0,0,0)"><tspan
         sodipodi:role="line"
         x="-2306.6965"
         y="-340.00418"
         style="font-size:40px;font-style:normal;font-variant:normal;font-weight:500;font-stretch:normal;text-align:start;line-height:125%;writing-mode:lr-tb;text-anchor:start;font-family:Kinnari;-inkscape-font-specification:Kinnari Medium"
         id="tspan9685-8">Single Similarity Measure</tspan></text>
    <text
       xml:space="preserve"
       style="font-size:40px;font-style:normal;font-variant:normal;font-weight:500;font-stretch:normal;text-align:start;line-height:125%;letter-spacing:0px;word-spacing:0px;writing-mode:lr-tb;text-anchor:start;fill:#000000;fill-opacity:1;stroke:#000000;stroke-width:1.03662801;stroke-miterlimit:6;stroke-opacity:1;stroke-dasharray:none;font-family:Kinnari;-inkscape-font-specification:Kinnari Medium"
       x="-2270.6965"
       y="-1170.1125"
       id="text3009-1-5-1-4-9"
       sodipodi:linespacing="125%"
       transform="matrix(0,1,-1,0,0,0)"><tspan
         sodipodi:role="line"
         x="-2270.6965"
         y="-1170.1125"
         style="font-size:40px;font-style:normal;font-variant:normal;font-weight:500;font-stretch:normal;text-align:start;line-height:125%;writing-mode:lr-tb;text-anchor:start;font-family:Kinnari;-inkscape-font-specification:Kinnari Medium"
         id="tspan9685-8-3">Hybrid Similarity Measure</tspan></text>
    <image
       y="-2063.8989"
       x="993.38452"
       id="image9937"
       xlink:href="data:image/png;base64,iVBORw0KGgoAAAANSUhEUgAAABQAAAAMCAIAAADtbgqsAAAAA3NCSVQICAjb4U/gAAAAwklEQVQo kZ3QMQqEMBAF0NklYGNjn/TaeQERPEPOkTKXyCU8gKWNV7AQrLyAhaQUG6M4WwjZZVE37pR//mNg HogI/87Tvbqua9u2xph3hG6jtQ7DEADiOJ6maQ+d8LIsWZbZe2VZ3sBSSiuDIBiGwRUXRWElY6xp Grv6gbuu831/l2maaq0/t1d4HMcoinYphDDGfBVO8bZtnHMA8Dwvz/PDzilWSgEApbSu67POMe77 nhCSJIl97L3LVVXN83whEfEFZnYEYYkUAIYAAAAASUVORK5CYII= "
       height="10.585787"
       width="18.762564" />
    <image
       y="-2062.9307"
       x="688.61871"
       id="image9937-8"
       xlink:href="data:image/png;base64,iVBORw0KGgoAAAANSUhEUgAAABQAAAAMCAIAAADtbgqsAAAAA3NCSVQICAjb4U/gAAAAwklEQVQo kZ3QMQqEMBAF0NklYGNjn/TaeQERPEPOkTKXyCU8gKWNV7AQrLyAhaQUG6M4WwjZZVE37pR//mNg HogI/87Tvbqua9u2xph3hG6jtQ7DEADiOJ6maQ+d8LIsWZbZe2VZ3sBSSiuDIBiGwRUXRWElY6xp Grv6gbuu831/l2maaq0/t1d4HMcoinYphDDGfBVO8bZtnHMA8Dwvz/PDzilWSgEApbSu67POMe77 nhCSJIl97L3LVVXN83whEfEFZnYEYYkUAIYAAAAASUVORK5CYII= "
       height="10.585787"
       width="18.762564" />
    <image
       y="-1803.7148"
       x="839.50043"
       id="image9937-4"
       xlink:href="data:image/png;base64,iVBORw0KGgoAAAANSUhEUgAAABQAAAAMCAIAAADtbgqsAAAAA3NCSVQICAjb4U/gAAAAwklEQVQo kZ3QMQqEMBAF0NklYGNjn/TaeQERPEPOkTKXyCU8gKWNV7AQrLyAhaQUG6M4WwjZZVE37pR//mNg HogI/87Tvbqua9u2xph3hG6jtQ7DEADiOJ6maQ+d8LIsWZbZe2VZ3sBSSiuDIBiGwRUXRWElY6xp Grv6gbuu831/l2maaq0/t1d4HMcoinYphDDGfBVO8bZtnHMA8Dwvz/PDzilWSgEApbSu67POMe77 nhCSJIl97L3LVVXN83whEfEFZnYEYYkUAIYAAAAASUVORK5CYII= "
       height="10.585787"
       width="18.762564" />
    <image
       y="-1803.8057"
       x="244.61871"
       id="image9937-6"
       xlink:href="data:image/png;base64,iVBORw0KGgoAAAANSUhEUgAAABQAAAAMCAIAAADtbgqsAAAAA3NCSVQICAjb4U/gAAAAwklEQVQo kZ3QMQqEMBAF0NklYGNjn/TaeQERPEPOkTKXyCU8gKWNV7AQrLyAhaQUG6M4WwjZZVE37pR//mNg HogI/87Tvbqua9u2xph3hG6jtQ7DEADiOJ6maQ+d8LIsWZbZe2VZ3sBSSiuDIBiGwRUXRWElY6xp Grv6gbuu831/l2maaq0/t1d4HMcoinYphDDGfBVO8bZtnHMA8Dwvz/PDzilWSgEApbSu67POMe77 nhCSJIl97L3LVVXN83whEfEFZnYEYYkUAIYAAAAASUVORK5CYII= "
       height="10.585787"
       width="18.762564" />
    <image
       y="-1647.6377"
       x="291.5"
       id="image10388"
       xlink:href="data:image/png;base64,iVBORw0KGgoAAAANSUhEUgAAABgAAAAMCAYAAAB4MH11AAAABHNCSVQICAgIfAhkiAAAAR1JREFU OI211DGKwlAQxvHPFCEHsBFBEFMEcgBPkNpKEATBQhByglzBA3gOT+EBLI1CFASxs7CQ9/L+Vi4s urtxd/3qmfkNU0wNQG+M90qxMUa73e41gYoxxtDv92k0GqzX66ptVAKMMQwGAyQhiWazyXa7/R/A WstwOEQSQRAQRRGSaLVaFEXxN8Bay2g0QhL1ep3lcsn5fCZJEiTRbrfZ7/e/A8qyZDweI4lOp/Pp 7tfr9QMOw5DD4fAaUJYlk8kESXS7XU6n00ONc44sy5BEFEUcj8dqgHOO6XSKJHq9HpfL5cvtAObz OZ7nEcfx00UegNVqhe/7pGmKtfbb4fcsFguCIGA2m/0MAOR5jnOu0vB7NpvN054avPdV3ACbuAGa 4kAj3AAAAABJRU5ErkJggg== "
       height="12"
       width="24" />
    <text
       xml:space="preserve"
       style="font-size:40px;font-style:normal;font-variant:normal;font-weight:500;font-stretch:normal;text-align:start;line-height:125%;letter-spacing:0px;word-spacing:0px;writing-mode:lr-tb;text-anchor:start;fill:#000000;fill-opacity:1;stroke:#000000;stroke-width:1.0263052;stroke-miterlimit:6;stroke-opacity:1;stroke-dasharray:none;font-family:Kinnari;-inkscape-font-specification:Kinnari Medium"
       x="124.51682"
       y="-1610.519"
       id="text4682-2"
       sodipodi:linespacing="125%"><tspan
         sodipodi:role="line"
         id="tspan4684-1"
         x="124.51682"
         y="-1610.519"
         style="font-size:40px;font-style:normal;font-variant:normal;font-weight:500;font-stretch:normal;text-align:start;line-height:125%;writing-mode:lr-tb;text-anchor:start;font-family:Kinnari;-inkscape-font-specification:Kinnari Medium">Relations,</tspan></text>
    <text
       xml:space="preserve"
       style="font-size:40px;font-style:normal;font-weight:500;line-height:125%;letter-spacing:0px;word-spacing:0px;fill:#000000;fill-opacity:1;stroke:#000000;stroke-width:1.02630519999999992;stroke-miterlimit:6;stroke-opacity:1;stroke-dasharray:none;font-family:Kinnari;-inkscape-font-specification:Kinnari Medium;font-stretch:normal;font-variant:normal;text-anchor:start;text-align:start;writing-mode:lr"
       x="756.57141"
       y="-2343.6377"
       id="text4682-20"
       sodipodi:linespacing="125%"><tspan
         sodipodi:role="line"
         id="tspan4684-6"
         x="756.57141"
         y="-2343.6377"
         style="font-style:normal;font-family:Kinnari;-inkscape-font-specification:Kinnari Medium;font-weight:500;font-stretch:normal;font-variant:normal;font-size:40px;text-anchor:start;text-align:start;writing-mode:lr;line-height:125%">Terms, <tspan
   style="font-style:italic"
   id="tspan5048">C</tspan></tspan></text>
    <text
       xml:space="preserve"
       style="font-size:40px;font-style:normal;font-weight:normal;line-height:125%;letter-spacing:0px;word-spacing:0px;fill:#000000;fill-opacity:1;stroke:#000000;stroke-width:1.0263052;stroke-miterlimit:6;stroke-opacity:1;stroke-dasharray:none;font-family:Sans"
       x="894.32635"
       y="-1611.8832"
       id="text4682-6-3-6-2-2-1-3"
       sodipodi:linespacing="125%"><tspan
         sodipodi:role="line"
         id="tspan4684-6-7-7-8-56-8-9"
         x="894.32635"
         y="-1611.8832"
         style="font-style:italic;font-weight:normal;font-family:Times New Roman;-inkscape-font-specification:Times New Roman">R<tspan
   style="font-size:65.00091553%;baseline-shift:sub"
   id="tspan11849-9-0" /></tspan></text>
    <image
       y="-1650.3761"
       x="895.55463"
       id="image10388-4"
       xlink:href="data:image/png;base64,iVBORw0KGgoAAAANSUhEUgAAABgAAAAMCAYAAAB4MH11AAAABHNCSVQICAgIfAhkiAAAAR1JREFU OI211DGKwlAQxvHPFCEHsBFBEFMEcgBPkNpKEATBQhByglzBA3gOT+EBLI1CFASxs7CQ9/L+Vi4s urtxd/3qmfkNU0wNQG+M90qxMUa73e41gYoxxtDv92k0GqzX66ptVAKMMQwGAyQhiWazyXa7/R/A WstwOEQSQRAQRRGSaLVaFEXxN8Bay2g0QhL1ep3lcsn5fCZJEiTRbrfZ7/e/A8qyZDweI4lOp/Pp 7tfr9QMOw5DD4fAaUJYlk8kESXS7XU6n00ONc44sy5BEFEUcj8dqgHOO6XSKJHq9HpfL5cvtAObz OZ7nEcfx00UegNVqhe/7pGmKtfbb4fcsFguCIGA2m/0MAOR5jnOu0vB7NpvN054avPdV3ACbuAGa 4kAj3AAAAABJRU5ErkJggg== "
       height="12"
       width="24" />
    <text
       xml:space="preserve"
       style="font-size:40px;font-style:normal;font-variant:normal;font-weight:500;font-stretch:normal;text-align:start;line-height:125%;letter-spacing:0px;word-spacing:0px;writing-mode:lr-tb;text-anchor:start;fill:#000000;fill-opacity:1;stroke:#000000;stroke-width:1.0263052;stroke-miterlimit:6;stroke-opacity:1;stroke-dasharray:none;font-family:Kinnari;-inkscape-font-specification:Kinnari Medium"
       x="728.57141"
       y="-1613.2574"
       id="text4682-2-3"
       sodipodi:linespacing="125%"><tspan
         sodipodi:role="line"
         id="tspan4684-1-3"
         x="728.57141"
         y="-1613.2574"
         style="font-size:40px;font-style:normal;font-variant:normal;font-weight:500;font-stretch:normal;text-align:start;line-height:125%;writing-mode:lr-tb;text-anchor:start;font-family:Kinnari;-inkscape-font-specification:Kinnari Medium">Relations,</tspan></text>
    <text
       xml:space="preserve"
       style="font-size:40px;font-style:normal;font-variant:normal;font-weight:500;font-stretch:normal;text-align:start;line-height:125%;letter-spacing:0px;word-spacing:0px;writing-mode:lr-tb;text-anchor:start;fill:#000000;fill-opacity:1;stroke:#000000;stroke-width:1.03662801;stroke-miterlimit:6;stroke-opacity:1;stroke-dasharray:none;font-family:Kinnari;-inkscape-font-specification:Kinnari Medium"
       x="-2258.6965"
       y="-1116"
       id="text3009-1-5-1-4-9-4"
       sodipodi:linespacing="125%"
       transform="matrix(0,1,-1,0,0,0)"><tspan
         sodipodi:role="line"
         x="-2258.6965"
         y="-1116"
         style="font-size:40px;font-style:normal;font-variant:normal;font-weight:500;font-stretch:normal;text-align:start;line-height:125%;writing-mode:lr-tb;text-anchor:start;font-family:Kinnari;-inkscape-font-specification:Kinnari Medium"
         id="tspan9685-8-3-5">Features</tspan></text>
    <path
       style="fill:none;stroke:#000000;stroke-width:1.71147883;stroke-linecap:butt;stroke-linejoin:miter;stroke-miterlimit:4;stroke-opacity:1;stroke-dasharray:none;marker-end:url(#Arrow2Lend-6-2)"
       d="m 664.96477,-2091.1975 0,83.0882"
       id="path5625-8-7-2-6-2"
       inkscape:connector-type="polyline"
       inkscape:connector-curvature="0" />
  </g>
</svg>
