\BOOKMARK [2][]{Outline0.1}{Introduction}{}
\BOOKMARK [2][]{Outline0.2}{Methodology}{}
\BOOKMARK [2][]{Outline0.3}{Evaluation}{}
\BOOKMARK [2][]{Outline0.4}{Results}{}
\BOOKMARK [2][]{Outline0.5}{Conclusion}{}
