\relax 
\ifx\hyper@anchor\@undefined
\global \let \oldcontentsline\contentsline
\gdef \contentsline#1#2#3#4{\oldcontentsline{#1}{#2}{#3}}
\global \let \oldnewlabel\newlabel
\gdef \newlabel#1#2{\newlabelxx{#1}#2}
\gdef \newlabelxx#1#2#3#4#5#6{\oldnewlabel{#1}{{#2}{#3}}}
\AtEndDocument{\let \contentsline\oldcontentsline
\let \newlabel\oldnewlabel}
\else
\global \let \hyper@last\relax 
\fi

\@writefile{toc}{\beamer@endinputifotherversion {3.10pt}}
\@writefile{nav}{\beamer@endinputifotherversion {3.10pt}}
\select@language{english}
\@writefile{toc}{\select@language{english}}
\@writefile{lof}{\select@language{english}}
\@writefile{lot}{\select@language{english}}
\@writefile{nav}{\headcommand {\slideentry {0}{0}{1}{1/1}{}{0}}}
\@writefile{nav}{\headcommand {\beamer@framepages {1}{1}}}
\@writefile{nav}{\headcommand {\slideentry {0}{0}{2}{2/2}{}{0}}}
\@writefile{nav}{\headcommand {\beamer@framepages {2}{2}}}
\@writefile{toc}{\beamer@sectionintoc {1}{Introduction}{3}{0}{1}}
\@writefile{nav}{\headcommand {\sectionentry {1}{Introduction}{3}{Introduction}{0}}}
\@writefile{nav}{\headcommand {\beamer@sectionpages {1}{2}}}
\@writefile{nav}{\headcommand {\beamer@subsectionpages {1}{2}}}
\@writefile{nav}{\headcommand {\beamer@subsectionentry {0}{1}{1}{3}{}}\headcommand {\beamer@subsectionpages {3}{2}}}
\@writefile{nav}{\headcommand {\slideentry {1}{1}{1}{3/4}{}{0}}}
\@writefile{nav}{\headcommand {\beamer@framepages {3}{4}}}
\@writefile{nav}{\headcommand {\slideentry {1}{1}{2}{5/7}{}{0}}}
\@writefile{nav}{\headcommand {\beamer@framepages {5}{7}}}
\@writefile{nav}{\headcommand {\slideentry {1}{1}{3}{8/9}{}{0}}}
\@writefile{nav}{\headcommand {\beamer@framepages {8}{9}}}
\@writefile{nav}{\headcommand {\slideentry {1}{1}{4}{10/10}{}{0}}}
\@writefile{nav}{\headcommand {\beamer@framepages {10}{10}}}
\@writefile{toc}{\beamer@sectionintoc {2}{Methodology}{11}{0}{2}}
\@writefile{nav}{\headcommand {\sectionentry {2}{Methodology}{11}{Methodology}{0}}}
\@writefile{nav}{\headcommand {\beamer@sectionpages {3}{10}}}
\@writefile{nav}{\headcommand {\beamer@subsectionpages {3}{10}}}
\@writefile{toc}{\beamer@subsectionintoc {2}{1}{Similarity-based Relation Extraction}{11}{0}{2}}
\@writefile{nav}{\headcommand {\beamer@subsectionentry {0}{2}{1}{11}{Similarity-based Relation Extraction}}\headcommand {\beamer@subsectionpages {11}{10}}}
\@writefile{nav}{\headcommand {\slideentry {2}{1}{1}{11/11}{Similarity-based Relation Extraction}{0}}}
\@writefile{nav}{\headcommand {\beamer@framepages {11}{11}}}
\@writefile{nav}{\headcommand {\slideentry {2}{1}{2}{12/12}{Similarity-based Relation Extraction}{0}}}
\@writefile{nav}{\headcommand {\beamer@framepages {12}{12}}}
\@writefile{nav}{\headcommand {\slideentry {2}{1}{3}{13/13}{Similarity-based Relation Extraction}{0}}}
\@writefile{nav}{\headcommand {\beamer@framepages {13}{13}}}
\@writefile{toc}{\beamer@subsectionintoc {2}{2}{Single Similarity Measures}{14}{0}{2}}
\@writefile{nav}{\headcommand {\beamer@subsectionentry {0}{2}{2}{14}{Single Similarity Measures}}\headcommand {\beamer@subsectionpages {11}{13}}}
\@writefile{nav}{\headcommand {\slideentry {2}{2}{1}{14/14}{Single Similarity Measures}{0}}}
\@writefile{nav}{\headcommand {\beamer@framepages {14}{14}}}
\@writefile{nav}{\headcommand {\slideentry {2}{2}{2}{15/15}{Single Similarity Measures}{0}}}
\@writefile{nav}{\headcommand {\beamer@framepages {15}{15}}}
\@writefile{nav}{\headcommand {\slideentry {2}{2}{3}{16/16}{Single Similarity Measures}{0}}}
\@writefile{nav}{\headcommand {\beamer@framepages {16}{16}}}
\@writefile{nav}{\headcommand {\slideentry {2}{2}{4}{17/17}{Single Similarity Measures}{0}}}
\@writefile{nav}{\headcommand {\beamer@framepages {17}{17}}}
\@writefile{nav}{\headcommand {\slideentry {2}{2}{5}{18/18}{Single Similarity Measures}{0}}}
\@writefile{nav}{\headcommand {\beamer@framepages {18}{18}}}
\newlabel{fig:prcomb}{{3}{19}{A UNITEX graph implementing the first extraction pattern}{}{}}
\@writefile{snm}{\beamer@slide {fig:prcomb}{19}}
\@writefile{nav}{\headcommand {\slideentry {2}{2}{6}{19/19}{Single Similarity Measures}{0}}}
\@writefile{nav}{\headcommand {\beamer@framepages {19}{19}}}
\@writefile{nav}{\headcommand {\slideentry {2}{2}{7}{20/20}{Single Similarity Measures}{0}}}
\@writefile{nav}{\headcommand {\beamer@framepages {20}{20}}}
\@writefile{nav}{\headcommand {\slideentry {2}{2}{8}{21/21}{Single Similarity Measures}{0}}}
\@writefile{nav}{\headcommand {\beamer@framepages {21}{21}}}
\@writefile{nav}{\headcommand {\slideentry {2}{2}{9}{22/22}{Single Similarity Measures}{0}}}
\@writefile{nav}{\headcommand {\beamer@framepages {22}{22}}}
\@writefile{toc}{\beamer@subsectionintoc {2}{3}{Hybrid Similarity Measures}{23}{0}{2}}
\@writefile{nav}{\headcommand {\beamer@subsectionentry {0}{2}{3}{23}{Hybrid Similarity Measures}}\headcommand {\beamer@subsectionpages {14}{22}}}
\@writefile{nav}{\headcommand {\slideentry {2}{3}{1}{23/23}{Hybrid Similarity Measures}{0}}}
\@writefile{nav}{\headcommand {\beamer@framepages {23}{23}}}
\@writefile{nav}{\headcommand {\slideentry {2}{3}{2}{24/24}{Hybrid Similarity Measures}{0}}}
\@writefile{nav}{\headcommand {\beamer@framepages {24}{24}}}
\@writefile{nav}{\headcommand {\slideentry {2}{3}{3}{25/25}{Hybrid Similarity Measures}{0}}}
\@writefile{nav}{\headcommand {\beamer@framepages {25}{25}}}
\@writefile{nav}{\headcommand {\slideentry {2}{3}{4}{26/26}{Hybrid Similarity Measures}{0}}}
\@writefile{nav}{\headcommand {\beamer@framepages {26}{26}}}
\newlabel{rfusion}{{1}{27}{Hybrid Similarity Measures\relax }{}{}}
\@writefile{snm}{\beamer@slide {rfusion}{27}}
\@writefile{nav}{\headcommand {\slideentry {2}{3}{5}{27/27}{Hybrid Similarity Measures}{0}}}
\@writefile{nav}{\headcommand {\beamer@framepages {27}{27}}}
\@writefile{nav}{\headcommand {\slideentry {2}{3}{6}{28/28}{Hybrid Similarity Measures}{0}}}
\@writefile{nav}{\headcommand {\beamer@framepages {28}{28}}}
\@writefile{nav}{\headcommand {\slideentry {2}{3}{7}{29/30}{Hybrid Similarity Measures}{0}}}
\@writefile{nav}{\headcommand {\beamer@framepages {29}{30}}}
\@writefile{toc}{\beamer@sectionintoc {3}{Evaluation}{31}{0}{3}}
\@writefile{nav}{\headcommand {\sectionentry {3}{Evaluation}{31}{Evaluation}{0}}}
\@writefile{nav}{\headcommand {\beamer@sectionpages {11}{30}}}
\@writefile{nav}{\headcommand {\beamer@subsectionpages {23}{30}}}
\@writefile{nav}{\headcommand {\beamer@subsectionentry {0}{3}{1}{31}{}}\headcommand {\beamer@subsectionpages {31}{30}}}
\@writefile{nav}{\headcommand {\slideentry {3}{1}{1}{31/31}{}{0}}}
\@writefile{nav}{\headcommand {\beamer@framepages {31}{31}}}
\@writefile{nav}{\headcommand {\slideentry {3}{1}{2}{32/32}{}{0}}}
\@writefile{nav}{\headcommand {\beamer@framepages {32}{32}}}
\@writefile{nav}{\headcommand {\slideentry {3}{1}{3}{33/33}{}{0}}}
\@writefile{nav}{\headcommand {\beamer@framepages {33}{33}}}
\@writefile{nav}{\headcommand {\slideentry {3}{1}{4}{34/34}{}{0}}}
\@writefile{nav}{\headcommand {\beamer@framepages {34}{34}}}
\@writefile{toc}{\beamer@sectionintoc {4}{Results}{35}{0}{4}}
\@writefile{nav}{\headcommand {\sectionentry {4}{Results}{35}{Results}{0}}}
\@writefile{nav}{\headcommand {\beamer@sectionpages {31}{34}}}
\@writefile{nav}{\headcommand {\beamer@subsectionpages {31}{34}}}
\@writefile{nav}{\headcommand {\beamer@subsectionentry {0}{4}{1}{35}{}}\headcommand {\beamer@subsectionpages {35}{34}}}
\@writefile{nav}{\headcommand {\slideentry {4}{1}{1}{35/35}{}{0}}}
\@writefile{nav}{\headcommand {\beamer@framepages {35}{35}}}
\@writefile{nav}{\headcommand {\slideentry {4}{1}{2}{36/36}{}{0}}}
\@writefile{nav}{\headcommand {\beamer@framepages {36}{36}}}
\@writefile{nav}{\headcommand {\slideentry {4}{1}{3}{37/37}{}{0}}}
\@writefile{nav}{\headcommand {\beamer@framepages {37}{37}}}
\@writefile{nav}{\headcommand {\slideentry {4}{1}{4}{38/38}{}{0}}}
\@writefile{nav}{\headcommand {\beamer@framepages {38}{38}}}
\@writefile{toc}{\beamer@sectionintoc {5}{Conclusion}{39}{0}{5}}
\@writefile{nav}{\headcommand {\sectionentry {5}{Conclusion}{39}{Conclusion}{0}}}
\@writefile{nav}{\headcommand {\beamer@sectionpages {35}{38}}}
\@writefile{nav}{\headcommand {\beamer@subsectionpages {35}{38}}}
\@writefile{nav}{\headcommand {\beamer@subsectionentry {0}{5}{1}{39}{}}\headcommand {\beamer@subsectionpages {39}{38}}}
\@writefile{nav}{\headcommand {\slideentry {5}{1}{1}{39/40}{}{0}}}
\@writefile{nav}{\headcommand {\beamer@framepages {39}{40}}}
\@writefile{nav}{\headcommand {\slideentry {5}{1}{2}{41/41}{}{0}}}
\@writefile{nav}{\headcommand {\beamer@framepages {41}{41}}}
\@writefile{nav}{\headcommand {\beamer@partpages {1}{41}}}
\@writefile{nav}{\headcommand {\beamer@subsectionpages {39}{41}}}
\@writefile{nav}{\headcommand {\beamer@sectionpages {39}{41}}}
\@writefile{nav}{\headcommand {\beamer@documentpages {41}}}
\@writefile{nav}{\headcommand {\def \inserttotalframenumber {35}}}
