%!PS-Adobe-3.0 EPSF-3.0
%%Creator: MATLAB, The Mathworks, Inc. Version 7.10.0.499 (R2010a). Operating System: Microsoft Windows Server 2008 R2.
%%Title: C:\Users\Alexander\Desktop\boxplot-bin-corpus-sda-21-100000-bless-frame.eps
%%CreationDate: 11/18/2011  11:59:47
%%DocumentNeededFonts: Helvetica
%%+ Times-Bold
%%DocumentProcessColors: Cyan Magenta Yellow Black
%%LanguageLevel: 2
%%Pages: 1
%%BoundingBox:   203   200   407   590
%%EndComments

%%BeginProlog
% MathWorks dictionary
/MathWorks 160 dict begin
% definition operators
/bdef {bind def} bind def
/ldef {load def} bind def
/xdef {exch def} bdef
/xstore {exch store} bdef
% operator abbreviations
/c  /clip ldef
/cc /concat ldef
/cp /closepath ldef
/gr /grestore ldef
/gs /gsave ldef
/mt /moveto ldef
/np /newpath ldef
/cm /currentmatrix ldef
/sm /setmatrix ldef
/rm /rmoveto ldef
/rl /rlineto ldef
/s {show newpath} bdef
/sc {setcmykcolor} bdef
/sr /setrgbcolor ldef
/sg /setgray ldef
/w /setlinewidth ldef
/j /setlinejoin ldef
/cap /setlinecap ldef
/rc {rectclip} bdef
/rf {rectfill} bdef
% page state control
/pgsv () def
/bpage {/pgsv save def} bdef
/epage {pgsv restore} bdef
/bplot /gsave ldef
/eplot {stroke grestore} bdef
% orientation switch
/portraitMode 0 def /landscapeMode 1 def /rotateMode 2 def
% coordinate system mappings
/dpi2point 0 def
% font control
/FontSize 0 def
/FMS {/FontSize xstore findfont [FontSize 0 0 FontSize neg 0 0]
  makefont setfont} bdef
/ISOLatin1Encoding where {pop /WindowsLatin1Encoding 256 array bdef
ISOLatin1Encoding WindowsLatin1Encoding copy pop
/.notdef/.notdef/quotesinglbase/florin/quotedblbase/ellipsis/dagger
/daggerdbl/circumflex/perthousand/Scaron/guilsinglleft/OE/.notdef/.notdef
/.notdef/.notdef/quoteleft/quoteright/quotedblleft/quotedblright/bullet
/endash/emdash/tilde/trademark/scaron/guilsinglright/oe/.notdef/.notdef
/Ydieresis WindowsLatin1Encoding 128 32 getinterval astore pop}
{/WindowsLatin1Encoding StandardEncoding bdef} ifelse
/reencode {exch dup where {pop load} {pop StandardEncoding} ifelse
  exch dup 3 1 roll findfont dup length dict begin
  { 1 index /FID ne {def}{pop pop} ifelse } forall
  /Encoding exch def currentdict end definefont pop} bdef
/isroman {findfont /CharStrings get /Agrave known} bdef
/FMSR {3 1 roll 1 index dup isroman {reencode} {pop pop} ifelse
  exch FMS} bdef
/csm {1 dpi2point div -1 dpi2point div scale neg translate
 dup landscapeMode eq {pop -90 rotate}
  {rotateMode eq {90 rotate} if} ifelse} bdef
% line types: solid, dotted, dashed, dotdash
/SO { [] 0 setdash } bdef
/DO { [.5 dpi2point mul 4 dpi2point mul] 0 setdash } bdef
/DA { [6 dpi2point mul] 0 setdash } bdef
/DD { [.5 dpi2point mul 4 dpi2point mul 6 dpi2point mul 4
  dpi2point mul] 0 setdash } bdef
% macros for lines and objects
/L {lineto stroke} bdef
/MP {3 1 roll moveto 1 sub {rlineto} repeat} bdef
/AP {{rlineto} repeat} bdef
/PDlw -1 def
/W {/PDlw currentlinewidth def setlinewidth} def
/PP {closepath eofill} bdef
/DP {closepath stroke} bdef
/MR {4 -2 roll moveto dup  0 exch rlineto exch 0 rlineto
  neg 0 exch rlineto closepath} bdef
/FR {MR stroke} bdef
/PR {MR fill} bdef
/L1i {{currentfile picstr readhexstring pop} image} bdef
/tMatrix matrix def
/MakeOval {newpath tMatrix currentmatrix pop translate scale
0 0 1 0 360 arc tMatrix setmatrix} bdef
/FO {MakeOval stroke} bdef
/PO {MakeOval fill} bdef
/PD {currentlinewidth 2 div 0 360 arc fill
   PDlw -1 eq not {PDlw w /PDlw -1 def} if} def
/FA {newpath tMatrix currentmatrix pop translate scale
  0 0 1 5 -2 roll arc tMatrix setmatrix stroke} bdef
/PA {newpath tMatrix currentmatrix pop	translate 0 0 moveto scale
  0 0 1 5 -2 roll arc closepath tMatrix setmatrix fill} bdef
/FAn {newpath tMatrix currentmatrix pop translate scale
  0 0 1 5 -2 roll arcn tMatrix setmatrix stroke} bdef
/PAn {newpath tMatrix currentmatrix pop translate 0 0 moveto scale
  0 0 1 5 -2 roll arcn closepath tMatrix setmatrix fill} bdef
/vradius 0 def /hradius 0 def /lry 0 def
/lrx 0 def /uly 0 def /ulx 0 def /rad 0 def
/MRR {/vradius xdef /hradius xdef /lry xdef /lrx xdef /uly xdef
  /ulx xdef newpath tMatrix currentmatrix pop ulx hradius add uly
  vradius add translate hradius vradius scale 0 0 1 180 270 arc 
  tMatrix setmatrix lrx hradius sub uly vradius add translate
  hradius vradius scale 0 0 1 270 360 arc tMatrix setmatrix
  lrx hradius sub lry vradius sub translate hradius vradius scale
  0 0 1 0 90 arc tMatrix setmatrix ulx hradius add lry vradius sub
  translate hradius vradius scale 0 0 1 90 180 arc tMatrix setmatrix
  closepath} bdef
/FRR {MRR stroke } bdef
/PRR {MRR fill } bdef
/MlrRR {/lry xdef /lrx xdef /uly xdef /ulx xdef /rad lry uly sub 2 div def
  newpath tMatrix currentmatrix pop ulx rad add uly rad add translate
  rad rad scale 0 0 1 90 270 arc tMatrix setmatrix lrx rad sub lry rad
  sub translate rad rad scale 0 0 1 270 90 arc tMatrix setmatrix
  closepath} bdef
/FlrRR {MlrRR stroke } bdef
/PlrRR {MlrRR fill } bdef
/MtbRR {/lry xdef /lrx xdef /uly xdef /ulx xdef /rad lrx ulx sub 2 div def
  newpath tMatrix currentmatrix pop ulx rad add uly rad add translate
  rad rad scale 0 0 1 180 360 arc tMatrix setmatrix lrx rad sub lry rad
  sub translate rad rad scale 0 0 1 0 180 arc tMatrix setmatrix
  closepath} bdef
/FtbRR {MtbRR stroke } bdef
/PtbRR {MtbRR fill } bdef
/stri 6 array def /dtri 6 array def
/smat 6 array def /dmat 6 array def
/tmat1 6 array def /tmat2 6 array def /dif 3 array def
/asub {/ind2 exch def /ind1 exch def dup dup
  ind1 get exch ind2 get sub exch } bdef
/tri_to_matrix {
  2 0 asub 3 1 asub 4 0 asub 5 1 asub
  dup 0 get exch 1 get 7 -1 roll astore } bdef
/compute_transform {
  dmat dtri tri_to_matrix tmat1 invertmatrix 
  smat stri tri_to_matrix tmat2 concatmatrix } bdef
/ds {stri astore pop} bdef
/dt {dtri astore pop} bdef
/db {2 copy /cols xdef /rows xdef mul dup 3 mul string
  currentfile 
  3 index 0 eq {/ASCIIHexDecode filter}
  {/ASCII85Decode filter 3 index 2 eq {/RunLengthDecode filter} if }
  ifelse exch readstring pop
  dup 0 3 index getinterval /rbmap xdef
  dup 2 index dup getinterval /gbmap xdef
  1 index dup 2 mul exch getinterval /bbmap xdef pop pop}bdef
/it {gs np dtri aload pop moveto lineto lineto cp c
  cols rows 8 compute_transform 
  rbmap gbmap bbmap true 3 colorimage gr}bdef
/il {newpath moveto lineto stroke}bdef
currentdict end def
%%EndProlog

%%BeginSetup
MathWorks begin

0 cap

end
%%EndSetup

%%Page: 1 1
%%BeginPageSetup
%%PageBoundingBox:   203   200   407   590
MathWorks begin
bpage
%%EndPageSetup

%%BeginObject: obj1
bplot

/dpi2point 12 def
portraitMode 2436 7080 csm

    0     0  2457  4670 rc
85 dict begin %Colortable dictionary
/c0 { 0.000000 0.000000 0.000000 sr} bdef
/c1 { 1.000000 1.000000 1.000000 sr} bdef
/c2 { 0.900000 0.000000 0.000000 sr} bdef
/c3 { 0.000000 0.820000 0.000000 sr} bdef
/c4 { 0.000000 0.000000 0.800000 sr} bdef
/c5 { 0.910000 0.820000 0.320000 sr} bdef
/c6 { 1.000000 0.260000 0.820000 sr} bdef
/c7 { 0.000000 0.820000 0.820000 sr} bdef
c0
1 j
1 sg
   0    0 2458 4671 rf
6 w
0 3657 1728 0 0 -3657 496 4007 4 MP
PP
-1728 0 0 3657 1728 0 0 -3657 496 4007 5 MP stroke
4 w
DO
SO
6 w
0 sg
 496  350 mt 2224  350 L
 496 4007 mt 2224 4007 L
2224 4007 mt 2224  350 L
 496 4007 mt  496  350 L
 496 4007 mt 2224 4007 L
 496 4007 mt  496  350 L
 496 3842 mt  532 3842 L
2224 3842 mt 2187 3842 L
%%IncludeResource: font Times-Bold
/Times-Bold /WindowsLatin1Encoding 168 FMSR

 377 3904 mt 
(0) s
 496 3509 mt  532 3509 L
2224 3509 mt 2187 3509 L
 251 3571 mt 
(0.1) s
 496 3177 mt  532 3177 L
2224 3177 mt 2187 3177 L
 251 3239 mt 
(0.2) s
 496 2844 mt  532 2844 L
2224 2844 mt 2187 2844 L
 251 2906 mt 
(0.3) s
 496 2511 mt  532 2511 L
2224 2511 mt 2187 2511 L
 251 2573 mt 
(0.4) s
 496 2179 mt  532 2179 L
2224 2179 mt 2187 2179 L
 251 2241 mt 
(0.5) s
 496 1846 mt  532 1846 L
2224 1846 mt 2187 1846 L
 251 1908 mt 
(0.6) s
 496 1514 mt  532 1514 L
2224 1514 mt 2187 1514 L
 251 1576 mt 
(0.7) s
 496 1181 mt  532 1181 L
2224 1181 mt 2187 1181 L
 251 1243 mt 
(0.8) s
 496  848 mt  532  848 L
2224  848 mt 2187  848 L
 251  910 mt 
(0.9) s
 496  516 mt  532  516 L
2224  516 mt 2187  516 L
 377  578 mt 
(1) s
 496  350 mt 2224  350 L
 496 4007 mt 2224 4007 L
2224 4007 mt 2224  350 L
 496 4007 mt  496  350 L
gs 496 350 1729 3658 rc
DA
0 -1014 928 2153 2 MP stroke
0 -67 1792 3780 2 MP stroke
0 -629 928 3765 2 MP stroke
0 -15 1792 3840 2 MP stroke
SO
129 0 863 1139 2 MP stroke
129 0 1727 3713 2 MP stroke
129 0 863 3765 2 MP stroke
129 0 1727 3840 2 MP stroke
/c8 { 0.000000 0.000000 1.000000 sr} bdef
c8
-259 0 0 983 259 0 0 -983 798 3136 5 MP stroke
-259 0 0 45 259 0 0 -45 1662 3825 5 MP stroke
/c9 { 1.000000 0.000000 0.000000 sr} bdef
c9
259 0 798 2687 2 MP stroke
259 0 1662 3807 2 MP stroke
gs 855 443 147 147 rc
 892  516 mt  964  516 L
 928  480 mt  928  552 L
gr

gs 1719 2945 147 824 rc
1756 3695 mt 1828 3695 L
1792 3659 mt 1792 3731 L
1756 3689 mt 1828 3689 L
1792 3653 mt 1792 3725 L
1756 3686 mt 1828 3686 L
1792 3650 mt 1792 3722 L
1756 3683 mt 1828 3683 L
1792 3647 mt 1792 3719 L
1756 3680 mt 1828 3680 L
1792 3644 mt 1792 3716 L
1756 3678 mt 1828 3678 L
1792 3642 mt 1792 3714 L
1756 3674 mt 1828 3674 L
1792 3638 mt 1792 3710 L
1756 3663 mt 1828 3663 L
1792 3627 mt 1792 3699 L
1756 3661 mt 1828 3661 L
1792 3625 mt 1792 3697 L
1756 3640 mt 1828 3640 L
1792 3604 mt 1792 3676 L
1756 3590 mt 1828 3590 L
1792 3554 mt 1792 3626 L
1756 3572 mt 1828 3572 L
1792 3536 mt 1792 3608 L
1756 3018 mt 1828 3018 L
1792 2982 mt 1792 3054 L
gr

gr

c9
0 sg
%%IncludeResource: font Helvetica
/Helvetica /WindowsLatin1Encoding 120 FMSR

 731 4130 mt 
(relation) s
1589 4130 mt 
(random) s
%%IncludeResource: font Times-Bold
/Times-Bold /WindowsLatin1Encoding 168 FMSR

 455 4285 mt 
(Type of semantic relation) s
 160 4068 mt  -90 rotate
(Similarity score target concept and its 1NN \(z-score\)) s
90 rotate
%%IncludeResource: font Times-Bold
/Times-Bold /WindowsLatin1Encoding 192 FMSR

 677  214 mt 
(SDA-21-100000) s

end %%Color Dict

eplot
%%EndObject

epage
end

showpage

%%Trailer
%%EOF
