digraph unix {
	node [style=filled,fontname=gd];	
	edge [fontname=gd,style=bold];	
	rankdir=BT;
	
	"Object" -> "T";
	"Action" -> "T";
	"Attribute" -> "T";
	"Location" -> "T";
	"Play" -> "Action";
	//"Color" -> "T";
	//"Sex" -> "T";
	//"Size" -> "T";
	//"MathNotation" -> "T";
	//"GeomNotation" -> "MathNotation";
	//"3DNotation" -> "GeomNotation";
	//"Cube" -> "3DNotation";
	//"Sphere" -> "3DNotation";
	"Person" -> "T";
	"Male" -> "Person";
	"Female" -> "Person";
	"Adult" -> "Person";
	"Child" -> "Person";
	"Man" -> "Adult";
	"Man" -> "Male";
	"Woman" -> "Female";
	"Woman" -> "Adult";
	"Boy" -> "Male";
	"Boy" -> "Child";
	"Girl" -> "Female";
	"Girl" -> "Child";
	"Father" -> "Man";
	"Mother" -> "Woman";
	"Painting" -> "Object";
	"Toy" -> "Object";
	"Car"  -> "Object";
	"PieceOfFurniture" -> "Object";
	"Table" -> "PieceOfFurniture";
	"Chair" -> "PieceOfFurniture";
	//"Train" -> "Toy";
	"BuildingBlock"  -> "Toy";
	"CuddyToy"  -> "Toy";
	"RacingCar"  -> "Toy";
	"Firetruck"  -> "Toy";
	"RacingCar"  -> "Car";
	"Firetruck"  -> "Car";
	"FuffyRabbit" -> "CuddyToy";
	"TeddyBear"-> "CuddyToy";
	"Color" -> "Attribute";
	"Sex"  -> "Attribute";
	"Size" -> "Attribute";
}	

