digraph unix {
	node [style=filled,fontname=gd];	
	rankdir=BT;
	dm [label="DATABASE MANAGEMENT\n,Generalized database management,DBMS,..."];
	edp[label="ELECTRONIC DATA PROCESSING\nADP (Data processing), Automatic data processing,..."];
	ir [label="INFORMATION STORAGE AND RETRIEVAL SYSTEMS\nAutomatic data storage,Automatic information retrievals,..."];
	tp [label="TEXT PROCESSING\n Processing, Text (Computer science)"];
	
	edp -> "COMPUTERS" [style="bold"];

	ir -> "Computer systems" [style="bold"];
	ir -> "Electronic information resources"[style="bold"];
	
	dm -> edp [style="bold"];
	tp -> dm  [style="bold"];
	tp -> edp [style="bold"];
	tp -> ir [style="bold"];
	"AUTOMATIC INDEXING" -> tp [style="bold"];
	"AUTOMATIC CLASSIFICATION" -> "AUTOMATIC INDEXING" [style="bold"];
	"DOCUMENT MARKUP LANGUAGES" -> tp [style="bold"];
	"DHTML" ->"DOCUMENT MARKUP LANGUAGES" tp [style="bold"];
	"HTML" ->"DOCUMENT MARKUP LANGUAGES" tp [style="bold"];
	"XML" ->"DOCUMENT MARKUP LANGUAGES" tp [style="bold"];
	"RDF" ->"DOCUMENT MARKUP LANGUAGES" tp [style="bold"];
	"RTF" ->"DOCUMENT MARKUP LANGUAGES" tp [style="bold"];
	
	"LATENT SEMANTIC INDEXING,\nLatent semantic analysis, LSA ,LSI,..." -> tp [style="bold"];
	"MICROFORMATS" -> tp [style="bold"];
}
