digraph unix {
	node [style=filled,fontname=gd];	
	rankdir=BT;
	
	//vehicle [label="VEHICLE\ncar,automobile"]
	//air_cushion_vehicle -> vehicle[style=bold];
	//"MARITIME TRANSPORT"->air_cushion_vehicle [style="bold,dashed",arrowtail=none,arrowhead=none];
	"Fishing" -> "Economic Activitiy" [style=bold];
	"Mining and quarrying" -> "Economic Activitiy" [style=bold];
	"Civil engineering" -> "Economic Activitiy" [style=bold];
	"Marine fishing"->"Fishing" [style=bold];
	"Freshwater fishing"->"Fishing" [style=bold];	
	"Mining of hard coal"->"Mining and quarrying" [style=bold];	
	"Mining of lignite"->"Mining and quarrying" [style=bold];	
	"Construction of roads\n and railways"->"Civil engineering" [style=bold];	
	"Construction of roads\n and motorways"->"Construction of roads\n and railways" [style=bold];	
	"Construction of railways\n and underground railways"->"Construction of roads\n and railways" [style=bold];	

}	

