digraph unix {
	node [style=filled,fontname=gd];	
	rankdir=BT;
	engineer [label="engineer\napplied scientist, technologist"];
	engineering [label="engineering, engineering science,\n applied science, technology"];

	 engineer -> engineering  [style="bold,dashed",arrowtail=none,arrowhead=none];
	"aerospace engineer" -> engineer [style=bold];	
	"civil engineer" -> engineer [style=bold];	
	"highway engineer" -> "civil engineer" [style=bold];	
	"David Barnard Steinman,\nSteinman" -> "civil engineer" [style=bold];	
	"electrical engineer" -> engineer [style=bold];	
	"mechanical engineer" -> engineer [style=bold];	
	"software engineer,programmer\n computer programmer, coder" -> engineer [style=bold];	
	"cracker" -> "software engineer,programmer\n computer programmer, coder" [style=bold];	
	"hacker" -> "software engineer,programmer\n computer programmer, coder" [style=bold];
	"cyber-terrorist,\nhacker, cyberpunk" ->  "software engineer,programmer\n computer programmer, coder" [style=bold];
	
	"rocket engineer\n rocket scientist" -> engineer [style=bold];	

	//"energy conversion" -> "energy industry" [style=bold];	
	//"energy conversion"-> "soft energy" [style="bold,dashed",arrowtail=none,arrowhead=none];
	
	
	

		
		
                
		
	//	Eiffel, Alexandre Gustave Eiffel 
	


}
