%!PS-Adobe-3.0 EPSF-3.0
%%Creator: MATLAB, The MathWorks, Inc. Version 8.0.0.783 (R2012b). Operating System: Linux 3.2.0-37-generic #58-Ubuntu SMP Thu Jan 24 15:28:10 UTC 2013 x86_64.
%%Title: /home/sasha/Desktop/thesis/figures/chapter3/acacia-bda.eps
%%CreationDate: 02/04/2013  13:56:11
%%DocumentNeededFonts: Helvetica
%%+ Times-Bold
%%DocumentProcessColors: Cyan Magenta Yellow Black
%%LanguageLevel: 2
%%Pages: 1
%%BoundingBox:    -3   123   615   668
%%EndComments

%%BeginProlog
% MathWorks dictionary
/MathWorks 160 dict begin
% definition operators
/bdef {bind def} bind def
/ldef {load def} bind def
/xdef {exch def} bdef
/xstore {exch store} bdef
% operator abbreviations
/c  /clip ldef
/cc /concat ldef
/cp /closepath ldef
/gr /grestore ldef
/gs /gsave ldef
/mt /moveto ldef
/np /newpath ldef
/cm /currentmatrix ldef
/sm /setmatrix ldef
/rm /rmoveto ldef
/rl /rlineto ldef
/s {show newpath} bdef
/sc {setcmykcolor} bdef
/sr /setrgbcolor ldef
/sg /setgray ldef
/w /setlinewidth ldef
/j /setlinejoin ldef
/cap /setlinecap ldef
/rc {rectclip} bdef
/rf {rectfill} bdef
% page state control
/pgsv () def
/bpage {/pgsv save def} bdef
/epage {pgsv restore} bdef
/bplot /gsave ldef
/eplot {stroke grestore} bdef
% orientation switch
/portraitMode 0 def /landscapeMode 1 def /rotateMode 2 def
% coordinate system mappings
/dpi2point 0 def
% font control
/FontSize 0 def
/FMS {/FontSize xstore findfont [FontSize 0 0 FontSize neg 0 0]
  makefont setfont} bdef
/reencode {exch dup where {pop load} {pop StandardEncoding} ifelse
  exch dup 3 1 roll findfont dup length dict begin
  { 1 index /FID ne {def}{pop pop} ifelse } forall
  /Encoding exch def currentdict end definefont pop} bdef
/isroman {findfont /CharStrings get /Agrave known} bdef
/FMSR {3 1 roll 1 index dup isroman {reencode} {pop pop} ifelse
  exch FMS} bdef
/csm {1 dpi2point div -1 dpi2point div scale neg translate
 dup landscapeMode eq {pop -90 rotate}
  {rotateMode eq {90 rotate} if} ifelse} bdef
% line types: solid, dotted, dashed, dotdash
/SO { [] 0 setdash } bdef
/DO { [.5 dpi2point mul 4 dpi2point mul] 0 setdash } bdef
/DA { [6 dpi2point mul] 0 setdash } bdef
/DD { [.5 dpi2point mul 4 dpi2point mul 6 dpi2point mul 4
  dpi2point mul] 0 setdash } bdef
% macros for lines and objects
/L {lineto stroke} bdef
/MP {3 1 roll moveto 1 sub {rlineto} repeat} bdef
/AP {{rlineto} repeat} bdef
/PDlw -1 def
/W {/PDlw currentlinewidth def setlinewidth} def
/PP {closepath eofill} bdef
/DP {closepath stroke} bdef
/MR {4 -2 roll moveto dup  0 exch rlineto exch 0 rlineto
  neg 0 exch rlineto closepath} bdef
/FR {MR stroke} bdef
/PR {MR fill} bdef
/L1i {{currentfile picstr readhexstring pop} image} bdef
/tMatrix matrix def
/MakeOval {newpath tMatrix currentmatrix pop translate scale
0 0 1 0 360 arc tMatrix setmatrix} bdef
/FO {MakeOval stroke} bdef
/PO {MakeOval fill} bdef
/PD {currentlinewidth 2 div 0 360 arc fill
   PDlw -1 eq not {PDlw w /PDlw -1 def} if} def
/FA {newpath tMatrix currentmatrix pop translate scale
  0 0 1 5 -2 roll arc tMatrix setmatrix stroke} bdef
/PA {newpath tMatrix currentmatrix pop	translate 0 0 moveto scale
  0 0 1 5 -2 roll arc closepath tMatrix setmatrix fill} bdef
/FAn {newpath tMatrix currentmatrix pop translate scale
  0 0 1 5 -2 roll arcn tMatrix setmatrix stroke} bdef
/PAn {newpath tMatrix currentmatrix pop translate 0 0 moveto scale
  0 0 1 5 -2 roll arcn closepath tMatrix setmatrix fill} bdef
/vradius 0 def /hradius 0 def /lry 0 def
/lrx 0 def /uly 0 def /ulx 0 def /rad 0 def
/MRR {/vradius xdef /hradius xdef /lry xdef /lrx xdef /uly xdef
  /ulx xdef newpath tMatrix currentmatrix pop ulx hradius add uly
  vradius add translate hradius vradius scale 0 0 1 180 270 arc 
  tMatrix setmatrix lrx hradius sub uly vradius add translate
  hradius vradius scale 0 0 1 270 360 arc tMatrix setmatrix
  lrx hradius sub lry vradius sub translate hradius vradius scale
  0 0 1 0 90 arc tMatrix setmatrix ulx hradius add lry vradius sub
  translate hradius vradius scale 0 0 1 90 180 arc tMatrix setmatrix
  closepath} bdef
/FRR {MRR stroke } bdef
/PRR {MRR fill } bdef
/MlrRR {/lry xdef /lrx xdef /uly xdef /ulx xdef /rad lry uly sub 2 div def
  newpath tMatrix currentmatrix pop ulx rad add uly rad add translate
  rad rad scale 0 0 1 90 270 arc tMatrix setmatrix lrx rad sub lry rad
  sub translate rad rad scale 0 0 1 270 90 arc tMatrix setmatrix
  closepath} bdef
/FlrRR {MlrRR stroke } bdef
/PlrRR {MlrRR fill } bdef
/MtbRR {/lry xdef /lrx xdef /uly xdef /ulx xdef /rad lrx ulx sub 2 div def
  newpath tMatrix currentmatrix pop ulx rad add uly rad add translate
  rad rad scale 0 0 1 180 360 arc tMatrix setmatrix lrx rad sub lry rad
  sub translate rad rad scale 0 0 1 0 180 arc tMatrix setmatrix
  closepath} bdef
/FtbRR {MtbRR stroke } bdef
/PtbRR {MtbRR fill } bdef
/stri 6 array def /dtri 6 array def
/smat 6 array def /dmat 6 array def
/tmat1 6 array def /tmat2 6 array def /dif 3 array def
/asub {/ind2 exch def /ind1 exch def dup dup
  ind1 get exch ind2 get sub exch } bdef
/tri_to_matrix {
  2 0 asub 3 1 asub 4 0 asub 5 1 asub
  dup 0 get exch 1 get 7 -1 roll astore } bdef
/compute_transform {
  dmat dtri tri_to_matrix tmat1 invertmatrix 
  smat stri tri_to_matrix tmat2 concatmatrix } bdef
/ds {stri astore pop} bdef
/dt {dtri astore pop} bdef
/db {2 copy /cols xdef /rows xdef mul dup 3 mul string
  currentfile 
  3 index 0 eq {/ASCIIHexDecode filter}
  {/ASCII85Decode filter 3 index 2 eq {/RunLengthDecode filter} if }
  ifelse exch readstring pop
  dup 0 3 index getinterval /rbmap xdef
  dup 2 index dup getinterval /gbmap xdef
  1 index dup 2 mul exch getinterval /bbmap xdef pop pop}bdef
/it {gs np dtri aload pop moveto lineto lineto cp c
  cols rows 8 compute_transform 
  rbmap gbmap bbmap true 3 colorimage gr}bdef
/il {newpath moveto lineto stroke}bdef
currentdict end def
%%EndProlog

%%BeginSetup
MathWorks begin

0 cap

end
%%EndSetup

%%Page: 1 1
%%BeginPageSetup
%%PageBoundingBox:    -3   123   615   668
MathWorks begin
bpage
%%EndPageSetup

%%BeginObject: obj1
bplot

/dpi2point 12 def
portraitMode -0036 8016 csm

    0     0  7420  6529 rc
85 dict begin %Colortable dictionary
/c0 { 0.000000 0.000000 0.000000 sr} bdef
/c1 { 1.000000 1.000000 1.000000 sr} bdef
/c2 { 0.900000 0.000000 0.000000 sr} bdef
/c3 { 0.000000 0.820000 0.000000 sr} bdef
/c4 { 0.000000 0.000000 0.800000 sr} bdef
/c5 { 0.910000 0.820000 0.320000 sr} bdef
/c6 { 1.000000 0.260000 0.820000 sr} bdef
/c7 { 0.000000 0.820000 0.820000 sr} bdef
c0
1 j
1 sg
   0    0 7421 6530 rf
6 w
0 5321 5749 0 0 -5321 965 5811 4 MP
PP
-5749 0 0 5321 5749 0 0 -5321 965 5811 5 MP stroke
4 w
DO
0 sg
1043 5811 mt 1043  490 L
1043  490 mt 1043  490 L
1673 5811 mt 1673  490 L
1673  490 mt 1673  490 L
2776 5811 mt 2776  490 L
2776  490 mt 2776  490 L
3485 5811 mt 3485  490 L
3485  490 mt 3485  490 L
4194 5811 mt 4194  490 L
4194  490 mt 4194  490 L
6715 5811 mt 6715  490 L
6715  490 mt 6715  490 L
SO
6 w
 965 5811 mt 6714 5811 L
 965  490 mt 6714  490 L
 965 5811 mt  965  490 L
6714 5811 mt 6714  490 L
 965 5811 mt 6714 5811 L
 965 5811 mt  965  490 L
1043 5811 mt 1043 5753 L
1043  490 mt 1043  547 L
%%IncludeResource: font Times-Bold
/Times-Bold /ISOLatin1Encoding 240 FMSR

 983 6069 mt 
(2) s
1673 5811 mt 1673 5753 L
1673  490 mt 1673  547 L
1553 6069 mt 
(10) s
2776 5811 mt 2776 5753 L
2776  490 mt 2776  547 L
2656 6069 mt 
(24) s
3485 5811 mt 3485 5753 L
3485  490 mt 3485  547 L
3365 6069 mt 
(33) s
4194 5811 mt 4194 5753 L
4194  490 mt 4194  547 L
4074 6069 mt 
(42) s
6715 5811 mt 6715 5753 L
6715  490 mt 6715  547 L
6595 6069 mt 
(74) s
 965 5811 mt 1022 5811 L
6715 5811 mt 6657 5811 L
 810 5900 mt 
(0) s
 965 5219 mt 1022 5219 L
6715 5219 mt 6657 5219 L
 630 5308 mt 
(0.5) s
 965 4628 mt 1022 4628 L
6715 4628 mt 6657 4628 L
 810 4717 mt 
(1) s
 965 4037 mt 1022 4037 L
6715 4037 mt 6657 4037 L
 630 4126 mt 
(1.5) s
 965 3446 mt 1022 3446 L
6715 3446 mt 6657 3446 L
 810 3535 mt 
(2) s
 965 2854 mt 1022 2854 L
6715 2854 mt 6657 2854 L
 630 2943 mt 
(2.5) s
 965 2263 mt 1022 2263 L
6715 2263 mt 6657 2263 L
 810 2352 mt 
(3) s
 965 1672 mt 1022 1672 L
6715 1672 mt 6657 1672 L
 630 1761 mt 
(3.5) s
 965 1081 mt 1022 1081 L
6715 1081 mt 6657 1081 L
 810 1170 mt 
(4) s
 965  490 mt 1022  490 L
6715  490 mt 6657  490 L
 630  579 mt 
(4.5) s
 965 5811 mt 6714 5811 L
 965  490 mt 6714  490 L
 965 5811 mt  965  490 L
6714 5811 mt 6714  490 L
gs 965 490 5751 5322 rc
36 w
/c8 { 0.000000 0.750000 0.750000 sr} bdef
c8
0 -253 78 0 0 330 79 0 0 35 79 0 0 -161 79 0 
0 -142 78 0 0 1552 79 0 0 -1127 79 0 0 -469 79 0 
0 42 78 0 0 468 79 0 0 -430 79 0 0 376 79 0 
0 -207 78 0 0 -255 79 0 0 97 79 0 0 333 79 0 
0 -331 79 0 0 228 78 0 0 -161 79 0 0 -102 79 0 
0 177 79 0 0 -109 78 0 0 82 79 0 0 -113 79 0 
0 1144 79 0 0 -1125 78 0 0 214 79 0 0 -165 79 0 
0 -24 79 0 0 -144 79 0 0 154 78 0 0 264 79 0 
0 -148 79 0 0 703 79 0 0 1592 78 0 0 -1660 79 0 
0 -385 79 0 0 -197 79 0 0 581 78 0 0 166 79 0 
0 194 79 0 0 -152 79 0 0 760 78 0 79 0 0 -1433 
79 0 79 0 0 876 79 0 0 -855 78 0 0 48 79 0 
0 275 79 0 0 1091 79 0 0 352 78 0 0 -1665 79 0 
0 1322 79 0 0 -971 79 0 0 369 78 0 0 -552 79 0 
0 787 79 0 0 6 79 0 0 -1204 79 0 0 282 78 0 
0 296 79 0 0 -267 79 0 0 1669 79 0 0 2429 78 0 
0 -1277 79 0 0 1371 79 0 0 -756 79 0 0 -2148 78 0 
0 854 79 0 0 269 79 0 0 2154 79 0 0 -1513 78 0 
965 2114 145 MP stroke
/c9 { 1.000000 0.000000 0.000000 sr} bdef
c9
0 -221 78 0 0 217 79 0 0 -36 79 0 0 215 79 0 
0 -263 78 0 0 2066 79 0 0 -1586 79 0 0 -531 79 0 
0 16 78 0 0 673 79 0 0 -712 79 0 0 195 79 0 
0 126 78 0 0 -277 79 0 0 -12 79 0 0 603 79 0 
0 -619 79 0 0 94 78 0 0 26 79 0 0 -38 79 0 
0 856 79 0 0 -563 78 0 0 -200 79 0 0 -109 79 0 
0 1669 79 0 0 -1375 78 0 0 -233 79 0 0 -36 79 0 
0 384 79 0 0 -367 79 0 0 13 78 0 0 47 79 0 
0 318 79 0 0 1988 79 0 0 565 78 0 0 -719 79 0 
0 -1694 79 0 0 -330 79 0 0 874 78 0 0 1500 79 0 
0 -37 79 0 0 -1648 79 0 0 2012 78 0 79 0 0 -2650 
79 0 79 0 0 1502 79 0 0 -159 78 0 0 -1168 79 0 
0 172 79 0 0 2331 79 0 0 11 78 0 0 -36 79 0 
0 28 79 0 0 -1460 79 0 0 618 78 0 0 828 79 0 
0 -57 79 0 0 49 79 0 0 -1161 79 0 0 433 78 0 
0 425 79 0 0 211 79 0 0 125 79 0 0 3 78 0 
79 0 79 0 79 0 78 0 79 0 0 -1 79 0 0 1 
79 0 78 0 965 2667 139 MP stroke
gr

36 w
c9
0 sg
2868 6227 mt 
(Word Pair, ) s
%%IncludeResource: font Symbol
/Symbol /ISOLatin1Encoding 240 FMSR

4045 6227 mt 
(\341) s
%%IncludeResource: font Times-Bold
/Times-Bold /ISOLatin1Encoding 240 FMSR

4123 6227 mt 
( c) s
%%IncludeResource: font Times-Bold
/Times-Bold /ISOLatin1Encoding 192 FMSR

4289 6347 mt 
(i) s
%%IncludeResource: font Times-Bold
/Times-Bold /ISOLatin1Encoding 240 FMSR

4342 6227 mt 
(, c) s
%%IncludeResource: font Times-Bold
/Times-Bold /ISOLatin1Encoding 192 FMSR

4568 6347 mt 
(j) s
%%IncludeResource: font Times-Bold
/Times-Bold /ISOLatin1Encoding 240 FMSR

4631 6227 mt 
( ) s
%%IncludeResource: font Symbol
/Symbol /ISOLatin1Encoding 240 FMSR

4691 6227 mt 
(\361) s
%%IncludeResource: font Times-Bold
/Times-Bold /ISOLatin1Encoding 240 FMSR

 414 4637 mt  -90 rotate
(Similarity Score \(z-score\), s) s
90 rotate
%%IncludeResource: font Times-Bold
/Times-Bold /ISOLatin1Encoding 192 FMSR

 534 1777 mt  -90 rotate
(ij) s
90 rotate
%%IncludeResource: font Helvetica
/Helvetica /ISOLatin1Encoding 120 FMSR

 948 5854 mt 
( ) s
6699  532 mt 
( ) s
6 w
1 sg
0 635 2448 0 0 -635 4051 1733 4 MP
PP
-2448 0 0 635 2448 0 0 -635 4051 1733 5 MP stroke
4 w
DO
SO
6 w
0 sg
4051 1733 mt 6499 1733 L
4051 1098 mt 6499 1098 L
4051 1733 mt 4051 1098 L
6499 1733 mt 6499 1098 L
4051 1733 mt 6499 1733 L
4051 1733 mt 4051 1098 L
4051 1733 mt 6499 1733 L
4051 1098 mt 6499 1098 L
4051 1733 mt 4051 1098 L
6499 1733 mt 6499 1098 L
%%IncludeResource: font Times-Bold
/Times-Bold /ISOLatin1Encoding 240 FMSR

5151 1363 mt 
(BDA-3-Cos) s
gs 4051 1098 2449 636 rc
36 w
c8
846 0 4220 1276 2 MP stroke
6 w
gr

c8
0 sg
5151 1641 mt 
(Logit-E15) s
gs 4051 1098 2449 636 rc
36 w
c9
846 0 4220 1554 2 MP stroke
6 w
gr

c9
0 sg
2847  847 mt 
(event) s
3604  851 mt 
(attri) s
4893  851 mt 
(random) s
1952  844 mt 
(mero) s
 971  647 mt 
(hyper) s
1033  843 mt 
(cohypo) s

end %%Color Dict

eplot
%%EndObject

epage
end

showpage

%%Trailer
%%EOF
