%!PS-Adobe-3.0 EPSF-3.0
%%Creator: MATLAB, The Mathworks, Inc. Version 7.10.0.499 (R2010a). Operating System: Microsoft Windows Server 2008 R2.
%%Title: C:\Users\Alexander\Desktop\chapter3\titles.eps
%%CreationDate: 07/18/2012  15:47:41
%%DocumentNeededFonts: Helvetica
%%+ Times-Bold
%%DocumentProcessColors: Cyan Magenta Yellow Black
%%LanguageLevel: 2
%%Pages: 1
%%BoundingBox:    27   155   582   635
%%EndComments

%%BeginProlog
% MathWorks dictionary
/MathWorks 160 dict begin
% definition operators
/bdef {bind def} bind def
/ldef {load def} bind def
/xdef {exch def} bdef
/xstore {exch store} bdef
% operator abbreviations
/c  /clip ldef
/cc /concat ldef
/cp /closepath ldef
/gr /grestore ldef
/gs /gsave ldef
/mt /moveto ldef
/np /newpath ldef
/cm /currentmatrix ldef
/sm /setmatrix ldef
/rm /rmoveto ldef
/rl /rlineto ldef
/s {show newpath} bdef
/sc {setcmykcolor} bdef
/sr /setrgbcolor ldef
/sg /setgray ldef
/w /setlinewidth ldef
/j /setlinejoin ldef
/cap /setlinecap ldef
/rc {rectclip} bdef
/rf {rectfill} bdef
% page state control
/pgsv () def
/bpage {/pgsv save def} bdef
/epage {pgsv restore} bdef
/bplot /gsave ldef
/eplot {stroke grestore} bdef
% orientation switch
/portraitMode 0 def /landscapeMode 1 def /rotateMode 2 def
% coordinate system mappings
/dpi2point 0 def
% font control
/FontSize 0 def
/FMS {/FontSize xstore findfont [FontSize 0 0 FontSize neg 0 0]
  makefont setfont} bdef
/ISOLatin1Encoding where {pop /WindowsLatin1Encoding 256 array bdef
ISOLatin1Encoding WindowsLatin1Encoding copy pop
/.notdef/.notdef/quotesinglbase/florin/quotedblbase/ellipsis/dagger
/daggerdbl/circumflex/perthousand/Scaron/guilsinglleft/OE/.notdef/.notdef
/.notdef/.notdef/quoteleft/quoteright/quotedblleft/quotedblright/bullet
/endash/emdash/tilde/trademark/scaron/guilsinglright/oe/.notdef/.notdef
/Ydieresis WindowsLatin1Encoding 128 32 getinterval astore pop}
{/WindowsLatin1Encoding StandardEncoding bdef} ifelse
/reencode {exch dup where {pop load} {pop StandardEncoding} ifelse
  exch dup 3 1 roll findfont dup length dict begin
  { 1 index /FID ne {def}{pop pop} ifelse } forall
  /Encoding exch def currentdict end definefont pop} bdef
/isroman {findfont /CharStrings get /Agrave known} bdef
/FMSR {3 1 roll 1 index dup isroman {reencode} {pop pop} ifelse
  exch FMS} bdef
/csm {1 dpi2point div -1 dpi2point div scale neg translate
 dup landscapeMode eq {pop -90 rotate}
  {rotateMode eq {90 rotate} if} ifelse} bdef
% line types: solid, dotted, dashed, dotdash
/SO { [] 0 setdash } bdef
/DO { [.5 dpi2point mul 4 dpi2point mul] 0 setdash } bdef
/DA { [6 dpi2point mul] 0 setdash } bdef
/DD { [.5 dpi2point mul 4 dpi2point mul 6 dpi2point mul 4
  dpi2point mul] 0 setdash } bdef
% macros for lines and objects
/L {lineto stroke} bdef
/MP {3 1 roll moveto 1 sub {rlineto} repeat} bdef
/AP {{rlineto} repeat} bdef
/PDlw -1 def
/W {/PDlw currentlinewidth def setlinewidth} def
/PP {closepath eofill} bdef
/DP {closepath stroke} bdef
/MR {4 -2 roll moveto dup  0 exch rlineto exch 0 rlineto
  neg 0 exch rlineto closepath} bdef
/FR {MR stroke} bdef
/PR {MR fill} bdef
/L1i {{currentfile picstr readhexstring pop} image} bdef
/tMatrix matrix def
/MakeOval {newpath tMatrix currentmatrix pop translate scale
0 0 1 0 360 arc tMatrix setmatrix} bdef
/FO {MakeOval stroke} bdef
/PO {MakeOval fill} bdef
/PD {currentlinewidth 2 div 0 360 arc fill
   PDlw -1 eq not {PDlw w /PDlw -1 def} if} def
/FA {newpath tMatrix currentmatrix pop translate scale
  0 0 1 5 -2 roll arc tMatrix setmatrix stroke} bdef
/PA {newpath tMatrix currentmatrix pop	translate 0 0 moveto scale
  0 0 1 5 -2 roll arc closepath tMatrix setmatrix fill} bdef
/FAn {newpath tMatrix currentmatrix pop translate scale
  0 0 1 5 -2 roll arcn tMatrix setmatrix stroke} bdef
/PAn {newpath tMatrix currentmatrix pop translate 0 0 moveto scale
  0 0 1 5 -2 roll arcn closepath tMatrix setmatrix fill} bdef
/vradius 0 def /hradius 0 def /lry 0 def
/lrx 0 def /uly 0 def /ulx 0 def /rad 0 def
/MRR {/vradius xdef /hradius xdef /lry xdef /lrx xdef /uly xdef
  /ulx xdef newpath tMatrix currentmatrix pop ulx hradius add uly
  vradius add translate hradius vradius scale 0 0 1 180 270 arc 
  tMatrix setmatrix lrx hradius sub uly vradius add translate
  hradius vradius scale 0 0 1 270 360 arc tMatrix setmatrix
  lrx hradius sub lry vradius sub translate hradius vradius scale
  0 0 1 0 90 arc tMatrix setmatrix ulx hradius add lry vradius sub
  translate hradius vradius scale 0 0 1 90 180 arc tMatrix setmatrix
  closepath} bdef
/FRR {MRR stroke } bdef
/PRR {MRR fill } bdef
/MlrRR {/lry xdef /lrx xdef /uly xdef /ulx xdef /rad lry uly sub 2 div def
  newpath tMatrix currentmatrix pop ulx rad add uly rad add translate
  rad rad scale 0 0 1 90 270 arc tMatrix setmatrix lrx rad sub lry rad
  sub translate rad rad scale 0 0 1 270 90 arc tMatrix setmatrix
  closepath} bdef
/FlrRR {MlrRR stroke } bdef
/PlrRR {MlrRR fill } bdef
/MtbRR {/lry xdef /lrx xdef /uly xdef /ulx xdef /rad lrx ulx sub 2 div def
  newpath tMatrix currentmatrix pop ulx rad add uly rad add translate
  rad rad scale 0 0 1 180 360 arc tMatrix setmatrix lrx rad sub lry rad
  sub translate rad rad scale 0 0 1 0 180 arc tMatrix setmatrix
  closepath} bdef
/FtbRR {MtbRR stroke } bdef
/PtbRR {MtbRR fill } bdef
/stri 6 array def /dtri 6 array def
/smat 6 array def /dmat 6 array def
/tmat1 6 array def /tmat2 6 array def /dif 3 array def
/asub {/ind2 exch def /ind1 exch def dup dup
  ind1 get exch ind2 get sub exch } bdef
/tri_to_matrix {
  2 0 asub 3 1 asub 4 0 asub 5 1 asub
  dup 0 get exch 1 get 7 -1 roll astore } bdef
/compute_transform {
  dmat dtri tri_to_matrix tmat1 invertmatrix 
  smat stri tri_to_matrix tmat2 concatmatrix } bdef
/ds {stri astore pop} bdef
/dt {dtri astore pop} bdef
/db {2 copy /cols xdef /rows xdef mul dup 3 mul string
  currentfile 
  3 index 0 eq {/ASCIIHexDecode filter}
  {/ASCII85Decode filter 3 index 2 eq {/RunLengthDecode filter} if }
  ifelse exch readstring pop
  dup 0 3 index getinterval /rbmap xdef
  dup 2 index dup getinterval /gbmap xdef
  1 index dup 2 mul exch getinterval /bbmap xdef pop pop}bdef
/it {gs np dtri aload pop moveto lineto lineto cp c
  cols rows 8 compute_transform 
  rbmap gbmap bbmap true 3 colorimage gr}bdef
/il {newpath moveto lineto stroke}bdef
currentdict end def
%%EndProlog

%%BeginSetup
MathWorks begin

0 cap

end
%%EndSetup

%%Page: 1 1
%%BeginPageSetup
%%PageBoundingBox:    27   155   582   635
MathWorks begin
bpage
%%EndPageSetup

%%BeginObject: obj1
bplot

/dpi2point 12 def
portraitMode 0324 7620 csm

    0     0  6666  5751 rc
85 dict begin %Colortable dictionary
/c0 { 0.000000 0.000000 0.000000 sr} bdef
/c1 { 1.000000 1.000000 1.000000 sr} bdef
/c2 { 0.900000 0.000000 0.000000 sr} bdef
/c3 { 0.000000 0.820000 0.000000 sr} bdef
/c4 { 0.000000 0.000000 0.800000 sr} bdef
/c5 { 0.910000 0.820000 0.320000 sr} bdef
/c6 { 1.000000 0.260000 0.820000 sr} bdef
/c7 { 0.000000 0.820000 0.820000 sr} bdef
c0
1 j
1 sg
   0    0 6667 5752 rf
6 w
0 4538 4952 0 0 -4538 1081 4969 4 MP
PP
-4952 0 0 4538 4952 0 0 -4538 1081 4969 5 MP stroke
4 w
DO
SO
6 w
0 sg
1081  431 mt 6033  431 L
1081 4969 mt 6033 4969 L
6033 4969 mt 6033  431 L
1081 4969 mt 1081  431 L
1081 4969 mt 6033 4969 L
1081 4969 mt 1081  431 L
1081 4671 mt 1130 4671 L
6033 4671 mt 5983 4671 L
%%IncludeResource: font Times-Bold
/Times-Bold /WindowsLatin1Encoding 240 FMSR

 790 4760 mt 
(-2) s
1081 4024 mt 1130 4024 L
6033 4024 mt 5983 4024 L
 610 4113 mt 
(-1.5) s
1081 3377 mt 1130 3377 L
6033 3377 mt 5983 3377 L
 790 3466 mt 
(-1) s
1081 2729 mt 1130 2729 L
6033 2729 mt 5983 2729 L
 610 2818 mt 
(-0.5) s
1081 2082 mt 1130 2082 L
6033 2082 mt 5983 2082 L
 926 2171 mt 
(0) s
1081 1435 mt 1130 1435 L
6033 1435 mt 5983 1435 L
 746 1524 mt 
(0.5) s
1081  787 mt 1130  787 L
6033  787 mt 5983  787 L
 926  876 mt 
(1) s
1081  431 mt 6033  431 L
1081 4969 mt 6033 4969 L
6033 4969 mt 6033  431 L
1081 4969 mt 1081  431 L
gs 1081 431 4953 4539 rc
DA
0 -248 1493 1383 2 MP stroke
0 -302 2319 1342 2 MP stroke
0 -510 3144 1553 2 MP stroke
0 -193 3969 1413 2 MP stroke
0 -176 4795 1419 2 MP stroke
0 -627 5620 4232 2 MP stroke
0 -250 1493 1801 2 MP stroke
0 -129 2319 1673 2 MP stroke
0 -1565 3144 4218 2 MP stroke
0 -195 3969 1748 2 MP stroke
0 -178 4795 1732 2 MP stroke
5620 4725 PD
SO
206 0 1390 1135 2 MP stroke
207 0 2215 1040 2 MP stroke
206 0 3041 1043 2 MP stroke
206 0 3866 1220 2 MP stroke
207 0 4691 1243 2 MP stroke
206 0 5517 3605 2 MP stroke
206 0 1390 1801 2 MP stroke
207 0 2215 1673 2 MP stroke
206 0 3041 4218 2 MP stroke
206 0 3866 1748 2 MP stroke
207 0 4691 1732 2 MP stroke
206 0 5517 4725 2 MP stroke
/c8 { 0.000000 0.000000 1.000000 sr} bdef
c8
-413 0 0 168 413 0 0 -168 1287 1551 5 MP stroke
-413 0 0 202 413 0 0 -202 2112 1544 5 MP stroke
-412 0 0 1100 412 0 0 -1100 2938 2653 5 MP stroke
-413 0 0 140 413 0 0 -140 3763 1553 5 MP stroke
-413 0 0 135 413 0 0 -135 4588 1554 5 MP stroke
-412 0 0 493 412 0 0 -493 5414 4725 5 MP stroke
/c9 { 1.000000 0.000000 0.000000 sr} bdef
c9
413 0 1287 1507 2 MP stroke
413 0 2112 1483 2 MP stroke
412 0 2938 1649 2 MP stroke
413 0 3763 1535 2 MP stroke
413 0 4588 1538 2 MP stroke
412 0 5414 4708 2 MP stroke
gs 1420 564 147 4234 rc
1457 4724 mt 1529 4724 L
1493 4688 mt 1493 4760 L
1457 4712 mt 1529 4712 L
1493 4676 mt 1493 4748 L
1457 3553 mt 1529 3553 L
1493 3517 mt 1493 3589 L
1457 2843 mt 1529 2843 L
1493 2807 mt 1493 2879 L
1457 2705 mt 1529 2705 L
1493 2669 mt 1493 2741 L
1457 2447 mt 1529 2447 L
1493 2411 mt 1493 2483 L
1457 1929 mt 1529 1929 L
1493 1893 mt 1493 1965 L
1457 1901 mt 1529 1901 L
1493 1865 mt 1493 1937 L
1457 1863 mt 1529 1863 L
1493 1827 mt 1493 1899 L
1457 1125 mt 1529 1125 L
1493 1089 mt 1493 1161 L
1457 1109 mt 1529 1109 L
1493 1073 mt 1493 1145 L
1457 1086 mt 1529 1086 L
1493 1050 mt 1493 1122 L
1457 1048 mt 1529 1048 L
1493 1012 mt 1493 1084 L
1457 1041 mt 1529 1041 L
1493 1005 mt 1493 1077 L
1457 1021 mt 1529 1021 L
1493  985 mt 1493 1057 L
1457 1006 mt 1529 1006 L
1493  970 mt 1493 1042 L
1457  958 mt 1529  958 L
1493  922 mt 1493  994 L
1457  935 mt 1529  935 L
1493  899 mt 1493  971 L
1457  637 mt 1529  637 L
1493  601 mt 1493  673 L
gr

gs 2246 564 147 519 rc
2283 1009 mt 2355 1009 L
2319  973 mt 2319 1045 L
2283 1006 mt 2355 1006 L
2319  970 mt 2319 1042 L
2283  958 mt 2355  958 L
2319  922 mt 2319  994 L
2283  935 mt 2355  935 L
2319  899 mt 2319  971 L
2283  900 mt 2355  900 L
2319  864 mt 2319  936 L
2283  893 mt 2355  893 L
2319  857 mt 2319  929 L
2283  648 mt 2355  648 L
2319  612 mt 2319  684 L
2283  637 mt 2355  637 L
2319  601 mt 2319  673 L
gr

gs 3071 4267 147 532 rc
3108 4725 mt 3180 4725 L
3144 4689 mt 3144 4761 L
3108 4724 mt 3180 4724 L
3144 4688 mt 3144 4760 L
3108 4717 mt 3180 4717 L
3144 4681 mt 3144 4753 L
3108 4710 mt 3180 4710 L
3144 4674 mt 3144 4746 L
3108 4708 mt 3180 4708 L
3144 4672 mt 3144 4744 L
3108 4702 mt 3180 4702 L
3144 4666 mt 3144 4738 L
3108 4694 mt 3180 4694 L
3144 4658 mt 3144 4730 L
3108 4672 mt 3180 4672 L
3144 4636 mt 3144 4708 L
3108 4649 mt 3180 4649 L
3144 4613 mt 3144 4685 L
3108 4645 mt 3180 4645 L
3144 4609 mt 3144 4681 L
3108 4619 mt 3180 4619 L
3144 4583 mt 3144 4655 L
3108 4572 mt 3180 4572 L
3144 4536 mt 3144 4608 L
3108 4421 mt 3180 4421 L
3144 4385 mt 3144 4457 L
3108 4340 mt 3180 4340 L
3144 4304 mt 3144 4376 L
gr

gs 3896 706 147 4065 rc
3933 4697 mt 4005 4697 L
3969 4661 mt 3969 4733 L
3933 3889 mt 4005 3889 L
3969 3853 mt 3969 3925 L
3933 3559 mt 4005 3559 L
3969 3523 mt 3969 3595 L
3933 3504 mt 4005 3504 L
3969 3468 mt 3969 3540 L
3933 2717 mt 4005 2717 L
3969 2681 mt 3969 2753 L
3933 2484 mt 4005 2484 L
3969 2448 mt 3969 2520 L
3933 2453 mt 4005 2453 L
3969 2417 mt 3969 2489 L
3933 2303 mt 4005 2303 L
3969 2267 mt 3969 2339 L
3933 2172 mt 4005 2172 L
3969 2136 mt 3969 2208 L
3933 2164 mt 4005 2164 L
3969 2128 mt 3969 2200 L
3933 2072 mt 4005 2072 L
3969 2036 mt 3969 2108 L
3933 2018 mt 4005 2018 L
3969 1982 mt 3969 2054 L
3933 1934 mt 4005 1934 L
3969 1898 mt 3969 1970 L
3933 1896 mt 4005 1896 L
3969 1860 mt 3969 1932 L
3933 1872 mt 4005 1872 L
3969 1836 mt 3969 1908 L
3933 1814 mt 4005 1814 L
3969 1778 mt 3969 1850 L
3933 1766 mt 4005 1766 L
3969 1730 mt 3969 1802 L
3933 1200 mt 4005 1200 L
3969 1164 mt 3969 1236 L
3933 1140 mt 4005 1140 L
3969 1104 mt 3969 1176 L
3933 1125 mt 4005 1125 L
3969 1089 mt 3969 1161 L
3933 1041 mt 4005 1041 L
3969 1005 mt 3969 1077 L
3933 1010 mt 4005 1010 L
3969  974 mt 3969 1046 L
3933  893 mt 4005  893 L
3969  857 mt 3969  929 L
3933  881 mt 4005  881 L
3969  845 mt 3969  917 L
3933  779 mt 4005  779 L
3969  743 mt 3969  815 L
gr

gs 4722 927 147 3321 rc
4759 4174 mt 4831 4174 L
4795 4138 mt 4795 4210 L
4759 4158 mt 4831 4158 L
4795 4122 mt 4795 4194 L
4759 3485 mt 4831 3485 L
4795 3449 mt 4795 3521 L
4759 3288 mt 4831 3288 L
4795 3252 mt 4795 3324 L
4759 3083 mt 4831 3083 L
4795 3047 mt 4795 3119 L
4759 3047 mt 4831 3047 L
4795 3011 mt 4795 3083 L
4759 2877 mt 4831 2877 L
4795 2841 mt 4795 2913 L
4759 2524 mt 4831 2524 L
4795 2488 mt 4795 2560 L
4759 2497 mt 4831 2497 L
4795 2461 mt 4795 2533 L
4759 2409 mt 4831 2409 L
4795 2373 mt 4795 2445 L
4759 2402 mt 4831 2402 L
4795 2366 mt 4795 2438 L
4759 2223 mt 4831 2223 L
4795 2187 mt 4795 2259 L
4759 2182 mt 4831 2182 L
4795 2146 mt 4795 2218 L
4759 2094 mt 4831 2094 L
4795 2058 mt 4795 2130 L
4759 2066 mt 4831 2066 L
4795 2030 mt 4795 2102 L
4759 2041 mt 4831 2041 L
4795 2005 mt 4795 2077 L
4759 2027 mt 4831 2027 L
4795 1991 mt 4795 2063 L
4759 1972 mt 4831 1972 L
4795 1936 mt 4795 2008 L
4759 1832 mt 4831 1832 L
4795 1796 mt 4795 1868 L
4759 1790 mt 4831 1790 L
4795 1754 mt 4795 1826 L
4759 1772 mt 4831 1772 L
4795 1736 mt 4795 1808 L
4759 1217 mt 4831 1217 L
4795 1181 mt 4795 1253 L
4759 1200 mt 4831 1200 L
4795 1164 mt 4795 1236 L
4759 1160 mt 4831 1160 L
4795 1124 mt 4795 1196 L
4759 1140 mt 4831 1140 L
4795 1104 mt 4795 1176 L
4759 1135 mt 4831 1135 L
4795 1099 mt 4795 1171 L
4759 1129 mt 4831 1129 L
4795 1093 mt 4795 1165 L
4759 1006 mt 4831 1006 L
4795  970 mt 4795 1042 L
4759 1000 mt 4831 1000 L
4795  964 mt 4795 1036 L
gr

gs 5547 1334 147 2208 rc
5584 3468 mt 5656 3468 L
5620 3432 mt 5620 3504 L
5584 3425 mt 5656 3425 L
5620 3389 mt 5620 3461 L
5584 3380 mt 5656 3380 L
5620 3344 mt 5620 3416 L
5584 3219 mt 5656 3219 L
5620 3183 mt 5620 3255 L
5584 3163 mt 5656 3163 L
5620 3127 mt 5620 3199 L
5584 3159 mt 5656 3159 L
5620 3123 mt 5620 3195 L
5584 3064 mt 5656 3064 L
5620 3028 mt 5620 3100 L
5584 3037 mt 5656 3037 L
5620 3001 mt 5620 3073 L
5584 2898 mt 5656 2898 L
5620 2862 mt 5620 2934 L
5584 2589 mt 5656 2589 L
5620 2553 mt 5620 2625 L
5584 2451 mt 5656 2451 L
5620 2415 mt 5620 2487 L
5584 2301 mt 5656 2301 L
5620 2265 mt 5620 2337 L
5584 2229 mt 5656 2229 L
5620 2193 mt 5620 2265 L
5584 2200 mt 5656 2200 L
5620 2164 mt 5620 2236 L
5584 2077 mt 5656 2077 L
5620 2041 mt 5620 2113 L
5584 2054 mt 5656 2054 L
5620 2018 mt 5620 2090 L
5584 1954 mt 5656 1954 L
5620 1918 mt 5620 1990 L
5584 1934 mt 5656 1934 L
5620 1898 mt 5620 1970 L
5584 1823 mt 5656 1823 L
5620 1787 mt 5620 1859 L
5584 1800 mt 5656 1800 L
5620 1764 mt 5620 1836 L
5584 1759 mt 5656 1759 L
5620 1723 mt 5620 1795 L
5584 1705 mt 5656 1705 L
5620 1669 mt 5620 1741 L
5584 1643 mt 5656 1643 L
5620 1607 mt 5620 1679 L
5584 1608 mt 5656 1608 L
5620 1572 mt 5620 1644 L
5584 1597 mt 5656 1597 L
5620 1561 mt 5620 1633 L
5584 1579 mt 5656 1579 L
5620 1543 mt 5620 1615 L
5584 1563 mt 5656 1563 L
5620 1527 mt 5620 1599 L
5584 1553 mt 5656 1553 L
5620 1517 mt 5620 1589 L
5584 1551 mt 5656 1551 L
5620 1515 mt 5620 1587 L
5584 1502 mt 5656 1502 L
5620 1466 mt 5620 1538 L
5584 1407 mt 5656 1407 L
5620 1371 mt 5620 1443 L
gr

gr

c9
0 sg
%%IncludeResource: font Helvetica
/Helvetica /WindowsLatin1Encoding 120 FMSR

1346 5092 mt 
(hyper) s
2169 5092 mt 
(coord) s
3043 5092 mt 
(attri) s
3833 5092 mt 
(mero) s
4652 5092 mt 
(event) s
5417 5092 mt 
(random) s
%%IncludeResource: font Times-Bold
/Times-Bold /WindowsLatin1Encoding 240 FMSR

2265 5297 mt 
(Type of semantic relation) s
 227 4349 mt  -90 rotate
(Similarity score between             ) s
90 rotate
 503 4631 mt  -90 rotate
(target concept and its 1-NN \(z-score\)) s
90 rotate
3014  242 mt 
(Logit-E15) s

end %%Color Dict

eplot
%%EndObject

epage
end

showpage

%%Trailer
%%EOF
